﻿// EVENT 2322
Name "Seduction: Arachne B"

355("$game_troop.lose_event_id = 3322")
ChangeVariable(26,26,0,3,3,1,4)
ChangeVariable(26,26,4,0,10)
ShowMessageFace("arachnes_fc3",2,0,2,1)
ShowMessage("\\n<Arachne>I'm being pushed into a corner...\nI'll have to borrow everyone's strength!")
355("battler_graphic_hide")
PictureDisplay(5,"ev_arachnes_ha01",0,0,0,0,100,100,255,0)
ShowMessageFace("",0,0,2,2)
ShowMessage("The Arachne called for her friends!\nA group of Arachnes cling to Luka and hold onto his waist!")
ShowMessageFace("arachnes_fc1",1,0,2,3)
ShowMessage("\\n<Arachne>Come on, let's mate! ♪\nDon't you want to forget about fighting so that you can feel good?")
ChangeSwitch(98,98,0)
ChangeSwitch(96,96,0)
ShowChoices(strings("Struggle","Let her continue"),1)
IfPlayerPicksChoice(0,null)
 ShowMessageFace("",0,0,2,4)
 ShowMessage("Luka struggles violently, and escaped from the Arachnes' restraint!")
 RunCommonEvent(1999)
 EndEventProcessing()
 0()
IfPlayerPicksChoice(1,null)
 0()
404()
ShowMessageFace("arachnes_fc1",1,0,2,5)
ShowMessage("\\n<Arachne>In that case, I'll insert your penis into my oviduct. ♪")
ChangeVariable(26,26,3,0,4)
250(bytes(0x04,0x08,0x6f,0x3a,0x0c,0x52,0x50,0x47,0x3a,0x3a,0x53,0x45,0x08,0x3a,0x0a,0x40,0x6e,0x61,0x6d,0x65,0x49,0x22,0x13,0x6d,0x6f,0x6e,0x5f,0x65,0x72,0x6f,0x5f,0x62,0x75,0x63,0x68,0x75,0x32,0x06,0x3a,0x06,0x45,0x54,0x3a,0x0b,0x40,0x70,0x69,0x74,0x63,0x68,0x69,0x69,0x3a,0x0c,0x40,0x76,0x6f,0x6c,0x75,0x6d,0x65,0x69,0x69))
PictureDisplay(5,"ev_arachnes_ha02",0,0,0,0,100,100,255,0)
PictureDisplay(6,"ev_arachnes_ct01",0,0,0,0,100,100,255,0)
311(0,1,1,1,26,true)
ShowMessageFace("",0,0,2,6)
ShowMessage("Luka's penis sinks into the Arachne's oviduct!\nHer hot, soft flesh suddenly wraps around his penis!\\D")
ShowMessage("Luka takes \\V[26] damage!")
ChangeVariable(27,27,0,3,3,1,2)
If(1,27,0,0,0)
 JumpToLabel("射精1")
 0()
EndIf()
ShowMessageFace("arachnes_fc1",1,0,2,7)
ShowMessage("\\n<Arachne>Aha, it went inside. ♪\nI'll be moving it a lot, so let it out inside. ♪")
250(bytes(0x04,0x08,0x6f,0x3a,0x0c,0x52,0x50,0x47,0x3a,0x3a,0x53,0x45,0x08,0x3a,0x0a,0x40,0x6e,0x61,0x6d,0x65,0x49,0x22,0x13,0x6d,0x6f,0x6e,0x5f,0x65,0x72,0x6f,0x5f,0x62,0x75,0x63,0x68,0x75,0x32,0x06,0x3a,0x06,0x45,0x54,0x3a,0x0b,0x40,0x70,0x69,0x74,0x63,0x68,0x69,0x69,0x3a,0x0c,0x40,0x76,0x6f,0x6c,0x75,0x6d,0x65,0x69,0x69))
PictureDisplay(6,"ev_arachnes_ct02",0,0,0,0,100,100,255,0)
311(0,1,1,1,26,true)
ShowMessageFace("",0,0,2,8)
ShowMessage("The Arachne wiggles her abdomen, moving her oviduct!\nLuka's penis is rubbed against her soft flesh, giving him a sweet feeling!\\D")
ShowMessage("Luka takes \\V[26] damage!")
ChangeVariable(27,27,0,3,3,1,2)
If(1,27,0,0,0)
 JumpToLabel("射精2")
 0()
EndIf()
ShowMessageFace("arachnes_fc1",1,0,2,9)
ShowMessage("\\n<Arachne>Ufufu, are you about to come?\nGive me lots of your seed...♪")
250(bytes(0x04,0x08,0x6f,0x3a,0x0c,0x52,0x50,0x47,0x3a,0x3a,0x53,0x45,0x08,0x3a,0x0a,0x40,0x6e,0x61,0x6d,0x65,0x49,0x22,0x13,0x6d,0x6f,0x6e,0x5f,0x65,0x72,0x6f,0x5f,0x62,0x75,0x63,0x68,0x75,0x32,0x06,0x3a,0x06,0x45,0x54,0x3a,0x0b,0x40,0x70,0x69,0x74,0x63,0x68,0x69,0x69,0x3a,0x0c,0x40,0x76,0x6f,0x6c,0x75,0x6d,0x65,0x69,0x69))
311(0,1,1,1,26,true)
ShowMessageFace("",0,0,2,10)
ShowMessage("The Arachne's oviduct contracts!\nLuka's penis is massaged as he is given a squeezing stimulation!\\D")
ShowMessage("Luka takes \\V[26] damage!")
ChangeVariable(27,27,0,3,3,1,2)
If(1,27,0,0,0)
 JumpToLabel("射精2")
 0()
EndIf()
DefineLabel("射精1")
ShowMessageFace("",0,0,2,11)
ShowMessage("\\n<Luka>No, I'm coming... Aaaah...")
RunCommonEvent(104)
PictureDisplay(5,"ev_arachnes_ha03",0,0,0,0,100,100,255,0)
PictureDisplay(6,"ev_arachnes_ct03",0,0,0,0,100,100,255,0)
RunCommonEvent(105)
ShowMessageFace("",0,0,2,12)
ShowMessage("The moment I inserted into the Arachne's oviduct, I miserably ejaculately prematurely. I steadily pour my semen into her unusual female genitalia.")
ShowMessageFace("arachnes_fc1",0,0,2,13)
ShowMessage("\\n<Arachne>Ahaha, you already leaked?\nEven though you only inserted?!")
RunCommonEvent(2000)
EndEventProcessing()
DefineLabel("射精2")
ShowMessageFace("",0,0,2,14)
ShowMessage("\\n<Luka>No, I'm coming... Aaaah...")
RunCommonEvent(104)
PictureDisplay(5,"ev_arachnes_ha03",0,0,0,0,100,100,255,0)
PictureDisplay(6,"ev_arachnes_ct03",0,0,0,0,100,100,255,0)
RunCommonEvent(105)
ShowMessageFace("",0,0,2,15)
ShowMessage("I miserably come while tasting the Arachne's waving oviduct. I steadily pour my semen into her unusual female genitalia.")
ShowMessageFace("arachnes_fc1",0,0,2,16)
ShowMessage("\\n<Arachne>Ahaha, you let out lots of semen.\nYou just mated with a spider monster. ♪")
RunCommonEvent(2000)
EndEventProcessing()
0()
