﻿// EVENT 2055
Name "Seduction: Slime Bess Girl"

If(0,25,1)
 EndEventProcessing()
 0()
EndIf()
355("$game_troop.lose_event_id = 3055")
ChangeVariable(26,26,0,3,3,1,4)
ChangeVariable(26,26,4,0,10)
ShowMessageFace("slimelord_fc1",2,0,2,1)
ShowMessage("\\n<Slime Bess>I'm done for at this rate...")
ShowMessageFace("slimelord_fc1",1,0,2,2)
ShowMessage("\\n<Slime Bess>Hey, hey...\nWill you let me go if I squeeze your dick with my breasts? ♪")
ShowMessageFace("slimelord_fc1",1,0,2,3)
ShowMessage("\\n<Slime Bess>Don't my slime boobs look bouncy?\nI'll make you feel super good. ♪")
ShowMessageFace("",0,0,2,4)
ShowMessage("Slime Bess' large breasts bounce from side to side...")
ChangeSwitch(98,98,0)
ChangeSwitch(96,96,0)
ShowChoices(strings("Ignore her","Give in to temptation"),1)
IfPlayerPicksChoice(0,"Ignore her")
 ShowMessageFace("",0,0,2,5)
 ShowMessage("Luka resists her temptation!")
 RunCommonEvent(1999)
 EndEventProcessing()
 0()
IfPlayerPicksChoice(1,"誘惑に乗る")
 0()
404()
ShowMessageFace("slimelord_fc1",4,0,2,6)
ShowMessage("\\n<Slime Bess>Ehehe, then let me sandwich it in~♪\n...Mugyu♪")
ChangeVariable(26,26,3,0,2)
250(bytes(0x04,0x08,0x6f,0x3a,0x0c,0x52,0x50,0x47,0x3a,0x3a,0x53,0x45,0x08,0x3a,0x0a,0x40,0x6e,0x61,0x6d,0x65,0x49,0x22,0x14,0x6d,0x6f,0x6e,0x5f,0x65,0x72,0x6f,0x5f,0x73,0x69,0x67,0x6f,0x6b,0x69,0x31,0x06,0x3a,0x06,0x45,0x54,0x3a,0x0b,0x40,0x70,0x69,0x74,0x63,0x68,0x69,0x69,0x3a,0x0c,0x40,0x76,0x6f,0x6c,0x75,0x6d,0x65,0x69,0x69))
355("battler_graphic_hide")
PictureDisplay(5,"ev_slimelord_hb1",0,0,0,0,100,100,255,0)
311(0,1,1,1,26,true)
ShowMessageFace("",0,0,2,7)
ShowMessage("Slime Bess' slimy body covers Luka's lower body!")
ShowMessage("His penis is caught in her large breasts!\\D")
ShowMessage("Luka takes \\V[26] damage!")
ChangeVariable(27,27,0,3,3,1,2)
If(1,27,0,0,0)
 JumpToLabel("射精1")
 0()
EndIf()
ShowMessageFace("slimelord_fc1",4,0,2,8)
ShowMessage("\\n<Slime Bess>Isn't the squishy pressure just the best? ♪")
250(bytes(0x04,0x08,0x6f,0x3a,0x0c,0x52,0x50,0x47,0x3a,0x3a,0x53,0x45,0x08,0x3a,0x0a,0x40,0x6e,0x61,0x6d,0x65,0x49,0x22,0x14,0x6d,0x6f,0x6e,0x5f,0x65,0x72,0x6f,0x5f,0x73,0x69,0x67,0x6f,0x6b,0x69,0x31,0x06,0x3a,0x06,0x45,0x54,0x3a,0x0b,0x40,0x70,0x69,0x74,0x63,0x68,0x69,0x69,0x3a,0x0c,0x40,0x76,0x6f,0x6c,0x75,0x6d,0x65,0x69,0x69))
311(0,1,1,1,26,true)
ShowMessageFace("",0,0,2,9)
ShowMessage("Her elastic breasts crush Luka's penis from every direction!")
ShowMessage("The soft, tight stimulation overwhelms him!\\D")
ShowMessage("Luka takes \\V[26] damage!")
250(bytes(0x04,0x08,0x6f,0x3a,0x0c,0x52,0x50,0x47,0x3a,0x3a,0x53,0x45,0x08,0x3a,0x0a,0x40,0x6e,0x61,0x6d,0x65,0x49,0x22,0x14,0x6d,0x6f,0x6e,0x5f,0x65,0x72,0x6f,0x5f,0x73,0x69,0x67,0x6f,0x6b,0x69,0x31,0x06,0x3a,0x06,0x45,0x54,0x3a,0x0b,0x40,0x70,0x69,0x74,0x63,0x68,0x69,0x69,0x3a,0x0c,0x40,0x76,0x6f,0x6c,0x75,0x6d,0x65,0x69,0x69))
311(0,1,1,1,26,true)
ShowMessageFace("",0,0,2,10)
ShowMessage("Her slimy body wriggles around him!")
ShowMessage("Luka's assaulted by the sticky feel of her body!\\D")
ShowMessage("Luka takes \\V[26] damage!")
ChangeVariable(27,27,0,3,3,1,2)
If(1,27,0,0,0)
 JumpToLabel("射精1")
 0()
EndIf()
ShowMessageFace("",0,0,2,11)
ShowMessage("\\n<Luka>Unnngh...")
ShowMessageFace("",0,0,2,12)
ShowMessage("Wrapped in her slime feels too good...")
ShowMessage("I'll come in no time at this rate...")
ShowChoices(strings("Struggle","Let her continue"),1)
IfPlayerPicksChoice(0,"もがく")
 ShowMessageFace("",0,0,2,13)
 ShowMessage("Luka starts to struggle!")
 ShowMessage("But he can't escape from her slimy body!")
 ShowMessageFace("slimelord_fc1",4,0,2,14)
 ShowMessage("\\n<Slime Bess>Tooooo baaaad! You can't escape anymore. ♪\nNo choice but to come! ♪")
 0()
IfPlayerPicksChoice(1,"なすがまま")
 ShowMessageFace("",0,0,2,15)
 ShowMessage("Luka surrenders to the pleasure...")
 ShowMessageFace("slimelord_fc1",4,0,2,16)
 ShowMessage("\\n<Slime Bess>Ahaha, not trying to run?~♪\nWell, that's just how human men are I guess~♪")
 0()
404()
250(bytes(0x04,0x08,0x6f,0x3a,0x0c,0x52,0x50,0x47,0x3a,0x3a,0x53,0x45,0x08,0x3a,0x0a,0x40,0x6e,0x61,0x6d,0x65,0x49,0x22,0x14,0x6d,0x6f,0x6e,0x5f,0x65,0x72,0x6f,0x5f,0x73,0x69,0x67,0x6f,0x6b,0x69,0x31,0x06,0x3a,0x06,0x45,0x54,0x3a,0x0b,0x40,0x70,0x69,0x74,0x63,0x68,0x69,0x69,0x3a,0x0c,0x40,0x76,0x6f,0x6c,0x75,0x6d,0x65,0x69,0x69))
311(0,1,1,1,26,true)
ShowMessageFace("",0,0,2,17)
ShowMessage("Her large breasts crush Luka's penis!")
ShowMessage("Pressed from both sides, the slimy boobs massage him!\\D")
ShowMessage("Luka takes \\V[26] damage!")
ChangeVariable(27,27,0,3,3,1,2)
If(1,27,0,0,0)
 JumpToLabel("射精1")
 0()
EndIf()
ShowMessageFace("slimelord_fc1",4,0,2,18)
ShowMessage("\\n<Slime Bess>You can't endure it much longer, can you?\nNow come~♪")
250(bytes(0x04,0x08,0x6f,0x3a,0x0c,0x52,0x50,0x47,0x3a,0x3a,0x53,0x45,0x08,0x3a,0x0a,0x40,0x6e,0x61,0x6d,0x65,0x49,0x22,0x14,0x6d,0x6f,0x6e,0x5f,0x65,0x72,0x6f,0x5f,0x73,0x69,0x67,0x6f,0x6b,0x69,0x31,0x06,0x3a,0x06,0x45,0x54,0x3a,0x0b,0x40,0x70,0x69,0x74,0x63,0x68,0x69,0x69,0x3a,0x0c,0x40,0x76,0x6f,0x6c,0x75,0x6d,0x65,0x69,0x69))
311(0,1,1,1,26,true)
ShowMessageFace("",0,0,2,19)
ShowMessage("Her slimy breasts tighten around his penis!")
ShowMessage("The pleasure forces him over the edge!\\D")
ShowMessage("Luka takes \\V[26] damage!")
ChangeVariable(27,27,0,3,3,1,2)
If(1,27,0,0,0)
 JumpToLabel("射精1")
 0()
EndIf()
DefineLabel("射精1")
ShowMessageFace("",0,0,2,20)
ShowMessage("\\n<Luka>Aaah...I-I'm coming...")
RunCommonEvent(104)
PictureDisplay(5,"ev_slimelord_hb2",0,0,0,0,100,100,255,0)
RunCommonEvent(105)
PictureDisplay(5,"ev_slimelord_hb3",0,0,0,0,100,100,255,0)
ShowMessageFace("",0,0,2,21)
ShowMessage("Crushed by her slimy breasts, I finally come.")
ShowMessage("My semen shoots out into her transparent body...")
ShowMessageFace("slimelord_fc1",4,0,2,22)
ShowMessage("\\n<Slime Bess>Aha, look at all your white stuff. ♪\nAnd so much, too... How embarrassing. ♪")
RunCommonEvent(2000)
EndEventProcessing()
0()
