﻿// EVENT 0092
Name "Skill: Play 521-530"

ChangeVariable(11,11,0,2,1,5)
If(1,100,0,522,0)
 If(1,11,0,1,0)
  ShowMessageFace("merlin_fc1",0,0,2,1)
  ShowMessage("\\n<Merlin>It's not much, but I happen to have some experience in painting, too...")
  ShowMessageFace("",0,0,2,2)
  ShowMessage("Merlin is painting a picture...")
  EndEventProcessing()
  0()
 EndIf()
 If(1,11,0,2,0)
  ShowMessageFace("merlin_fc1",0,0,2,3)
  ShowMessage("\\n<Merlin>Looking back, we've come quite far indeed...")
  ShowMessageFace("",0,0,2,4)
  ShowMessage("Merlin is deep in thought...")
  EndEventProcessing()
  0()
 EndIf()
 If(1,11,0,3,0)
  ShowMessageFace("merlin_fc1",0,0,2,5)
  ShowMessage("\\n<Merlin>Ha!")
  355("interrupt_skill(3316)")
  EndEventProcessing()
  0()
 EndIf()
 If(1,11,0,4,0)
  ShowMessageFace("merlin_fc1",0,0,2,6)
  ShowMessage("\\n<Merlin>I've prepared an afternoon snack...")
  ShowMessageFace("",0,0,2,7)
  ShowMessage("Merlin presents a gift!")
  250(bytes(0x04,0x08,0x6f,0x3a,0x0c,0x52,0x50,0x47,0x3a,0x3a,0x53,0x45,0x08,0x3a,0x0a,0x40,0x6e,0x61,0x6d,0x65,0x49,0x22,0x0a,0x49,0x74,0x65,0x6d,0x31,0x06,0x3a,0x06,0x45,0x54,0x3a,0x0b,0x40,0x70,0x69,0x74,0x63,0x68,0x69,0x69,0x3a,0x0c,0x40,0x76,0x6f,0x6c,0x75,0x6d,0x65,0x69,0x55))
  ChangeInventory_Item(423,0,0,1)
  ShowMessageFace("",0,0,2,8)
  ShowMessage("You obtain some \\ii[423]!")
  EndEventProcessing()
  0()
 EndIf()
 If(1,11,0,5,0)
  ShowMessageFace("merlin_fc1",0,0,2,9)
  ShowMessage("\\n<Merlin>It's not much, but I happen to have some experience in playing music, too...")
  355("interrupt_skill(3305)")
  EndEventProcessing()
  0()
 EndIf()
 0()
EndIf()
If(1,100,0,525,0)
 ChangeVariable(11,11,0,2,1,10)
 If(1,11,0,1,0)
  ShowMessageFace("sonia_fc1",0,0,2,10)
  ShowMessage("\\n<Sonya>I wonder how uncle Lazarus is doing?\nI should write him a letter.")
  ShowMessageFace("",0,0,2,11)
  ShowMessage("Sonya begins to write a letter.")
  EndEventProcessing()
  0()
 EndIf()
 If(1,11,0,2,0)
  ShowMessageFace("sonia_fc2",5,0,2,12)
  ShowMessage("\\n<Sonya>Sei! Deyaa!!")
  ShowMessageFace("",0,0,2,13)
  ShowMessage("Sonya is practicing swinging her weapon...")
  EndEventProcessing()
  0()
 EndIf()
 If(1,11,0,3,0)
  ShowMessageFace("sonia_fc2",5,0,2,14)
  ShowMessage("\\n<Sonya>Sei! Deyaa!!")
  355("interrupt_skill(3291)")
  EndEventProcessing()
  0()
 EndIf()
 If(1,11,0,4,0)
  ShowMessageFace("sonia_fc2",5,0,2,15)
  ShowMessage("\\n<Sonya>Doyaaaaa!!")
  355("interrupt_skill(3292)")
  EndEventProcessing()
  0()
 EndIf()
 If(1,11,0,5,0)
  ShowMessageFace("sonia_fc2",0,0,2,16)
  ShowMessage("\\n<Sonya>Stop it, all of you!\nIt's not a competition for me!")
  ShowMessageFace("",0,0,2,17)
  ShowMessage("Sonya tries to stop the fight!\nBut no one is listening...")
  EndEventProcessing()
  0()
 EndIf()
 If(1,11,0,6,0)
  ShowMessageFace("sonia_fc1",1,0,2,18)
  ShowMessage("\\n<Sonya>A maiden's smile...")
  ShowMessageFace("",0,0,2,19)
  ShowMessage("Sonya flashes a sweet smile!\n...But nothing happened.")
  EndEventProcessing()
  0()
 EndIf()
 If(1,11,0,7,0)
  ShowMessageFace("sonia_fc2",3,0,2,20)
  ShowMessage("\\n<Sonya>Hmmm, I wonder if my breasts have gotten bigger?")
  ShowMessageFace("sonia_fc1",4,0,2,21)
  ShowMessage("\\n<Sonya>...*glance*.")
  ShowMessageFace("",0,0,2,22)
  ShowMessage("Sonya was trying to appeal to somebody...\nBut no one was looking!")
  EndEventProcessing()
  0()
 EndIf()
 If(1,11,0,8,0)
  ShowMessageFace("sonia_fc3",4,0,2,23)
  ShowMessage("\\n<Sonya>...")
  ShowMessageFace("",0,0,2,24)
  ShowMessage("Sonya makes a sidelong glance...\nHowever, it appeared to be more like a glare!")
  EndEventProcessing()
  0()
 EndIf()
 If(1,11,0,9,0)
  ShowMessageFace("sonia_fc1",1,0,2,25)
  ShowMessage("\\n<Sonya>This is... a mother's warmth...?")
  355("interrupt_skill(3302)")
  EndEventProcessing()
  0()
 EndIf()
 If(1,11,0,10,0)
  ShowMessageFace("sonia_fc3",2,0,2,26)
  ShowMessage("\\n<Sonya>________________\n > Supernatural Phenomenon <\n Y^Y^Y^Y^Y^Y^Y")
  313(0,525,0,12)
  ShowMessageFace("",0,0,2,27)
  ShowMessage("Sonya was paralyzed!")
  EndEventProcessing()
  0()
 EndIf()
 0()
EndIf()
If(1,100,0,529,0)
 If(1,11,0,1,0)
  ShowMessageFace("sara_fc1",1,0,2,28)
  ShowMessage("\\n<Sara>Even I am a princess.\nI have had many lessons since I was little...")
  ShowMessageFace("",0,0,2,29)
  ShowMessage("Sara began a strange dance!\n...An awkward silence followed.")
  EndEventProcessing()
  0()
 EndIf()
 If(1,11,0,2,0)
  ShowMessageFace("sara_fc1",0,0,2,30)
  ShowMessage("\\n<Sara>Even if just a bit, I need to practice my sword skills!")
  355("interrupt_skill(3291)")
  EndEventProcessing()
  0()
 EndIf()
 If(1,11,0,3,0)
  ShowMessageFace("sara_fc1",1,0,2,31)
  ShowMessage("\\n<Sara>Fufuu, shall we have some fun...?")
  ShowMessageFace("",0,0,2,32)
  ShowMessage("Sara is working on her catchphrase..")
  EndEventProcessing()
  0()
 EndIf()
 If(1,11,0,4,0)
  ShowMessageFace("sara_fc1",2,0,2,33)
  ShowMessage("\\n<Sara>In the name of the Queen of Sabasa, I command you!\nBoth sides, lay down your arms!")
  ShowMessageFace("",0,0,2,34)
  ShowMessage("Sara tries to stop the fight!\nBut no one is listening...")
  EndEventProcessing()
  0()
 EndIf()
 If(1,11,0,5,0)
  ShowMessageFace("sara_fc1",1,0,2,35)
  ShowMessage("\\n<Sara>Even I am a princess.\nI've taken lessons in many activities since I was little...")
  355("interrupt_skill(3305)")
  EndEventProcessing()
  0()
 EndIf()
 0()
EndIf()
If(1,100,0,530,0)
 If(1,11,0,1,0)
  ShowMessageFace("sara_fc4",0,0,2,36)
  ShowMessage("\\n<Sara>Ufufu...")
  ShowMessageFace("",0,0,2,37)
  ShowMessage("Sara is giggling...")
  EndEventProcessing()
  0()
 EndIf()
 If(1,11,0,2,0)
  ShowMessageFace("sara_fc4",0,0,2,38)
  ShowMessage("\\n<Sara>Ufufu...")
  355("interrupt_skill(3296)")
  EndEventProcessing()
  0()
 EndIf()
 If(1,11,0,3,0)
  ShowMessageFace("sara_fc4",0,0,2,39)
  ShowMessage("\\n<Sara>............")
  313(0,530,0,24)
  ShowMessageFace("",0,0,2,40)
  ShowMessage("Sara is thinking about lewd things...\nSara became horny!")
  EndEventProcessing()
  0()
 EndIf()
 If(1,11,0,4,0)
  ShowMessageFace("sara_fc4",0,0,2,41)
  ShowMessage("\\n<Sara>Aren't you adorable...")
  355("interrupt_skill(3289)")
  EndEventProcessing()
  0()
 EndIf()
 If(1,11,0,5,0)
  ShowMessageFace("sara_fc4",0,0,2,42)
  ShowMessage("\\n<Sara>Ufufu...")
  355("interrupt_skill(3290)")
  EndEventProcessing()
  0()
 EndIf()
 0()
EndIf()
0()
