﻿// EVENT 4676
Name "Desert Scylla 1"

If(0,25,1)
 221()
 PictureClear(5)
 PictureClear(6)
 ShowMessageFace("",0,0,2,0)
 ShowMessage("......")
 242(2)
 Wait(120)
 241(bytes(0x04,0x08,0x6f,0x3a,0x0d,0x52,0x50,0x47,0x3a,0x3a,0x42,0x47,0x4d,0x08,0x3a,0x0a,0x40,0x6e,0x61,0x6d,0x65,0x49,0x22,0x0c,0x63,0x61,0x73,0x74,0x6c,0x65,0x36,0x06,0x3a,0x06,0x45,0x54,0x3a,0x0c,0x40,0x76,0x6f,0x6c,0x75,0x6d,0x65,0x69,0x69,0x3a,0x0b,0x40,0x70,0x69,0x74,0x63,0x68,0x69,0x69))
 EndEventProcessing()
 0()
EndIf()
PictureDisplay(5,"80_d_scylla_st03",0,0,0,0,100,100,255,0)
ShowMessageFace("d_scylla_fc1",2,0,2,1)
ShowMessage("\\n<Deiji>Hm...? You wanna do something naughty with me?")
ShowMessageFace("",0,0,2,2)
ShowMessage("\\n<Luka>Yes, please...")
ShowMessageFace("d_scylla_fc1",0,0,2,3)
ShowMessage("\\n<Deiji>If you're the one asking then I can't refuse...\nWell then...♪")
ShowMessageFace("",0,0,2,4)
ShowMessage("Deiji's tentacles lift my body up.\nThey pull off my clothes and invite me near her female part...")
PictureDisplay(5,"ev_d_scylla_ha01",0,0,0,0,100,100,0,0)
PictureMove(5,null,0,0,0,0,100,100,255,0,30,true)
241(bytes(0x04,0x08,0x6f,0x3a,0x0d,0x52,0x50,0x47,0x3a,0x3a,0x42,0x47,0x4d,0x08,0x3a,0x0a,0x40,0x6e,0x61,0x6d,0x65,0x49,0x22,0x09,0x65,0x72,0x6f,0x31,0x06,0x3a,0x06,0x45,0x54,0x3a,0x0c,0x40,0x76,0x6f,0x6c,0x75,0x6d,0x65,0x69,0x69,0x3a,0x0b,0x40,0x70,0x69,0x74,0x63,0x68,0x69,0x69))
ShowMessageFace("",0,0,2,5)
ShowMessage("And like this, she embraces me tightly with her voluptuous body!")
ShowMessageFace("",0,0,2,6)
ShowMessage("\\n<Luka>Aaah...")
ShowMessageFace("d_scylla_fc1",0,0,2,7)
ShowMessage("\\n<Deiji>Hehehe... I see you're already excited. ♪\nTo think you would be this hard already...")
ShowMessageFace("d_scylla_fc1",0,0,2,8)
ShowMessage("\\n<Deiji>Now, let's begin...\nTime to let your penis and my vagina get along well together. ♪")
ShowMessageFace("",0,0,2,9)
ShowMessage("Deiji tightly glues my body against her lower part. My erected dick aims at her strange-looking vagina, full of expectations...")
ShowMessageFace("",0,0,2,10)
ShowMessage("\\n<Luka>Ah... Aaah...")
245(bytes(0x04,0x08,0x6f,0x3a,0x0d,0x52,0x50,0x47,0x3a,0x3a,0x42,0x47,0x53,0x08,0x3a,0x0a,0x40,0x6e,0x61,0x6d,0x65,0x49,0x22,0x17,0x6d,0x6f,0x6e,0x5f,0x68,0x73,0x65,0x61,0x6e,0x31,0x34,0x5f,0x6b,0x79,0x75,0x69,0x6e,0x31,0x06,0x3a,0x06,0x45,0x54,0x3a,0x0c,0x40,0x76,0x6f,0x6c,0x75,0x6d,0x65,0x69,0x55,0x3a,0x0b,0x40,0x70,0x69,0x74,0x63,0x68,0x69,0x69))
PictureDisplay(5,"ev_d_scylla_ha02",0,0,0,0,100,100,255,0)
ShowMessageFace("",0,0,2,11)
ShowMessage("My tip sinks into her slimy insides.\nIt's full of folds, which suddenly rub me...")
ShowMessageFace("d_scylla_fc1",0,0,2,12)
ShowMessage("\\n<Deiji>Hoora♪ It's going iiiin! ♪\nKissing my folds feels great, riiiight?")
ShowMessageFace("d_scylla_fc1",0,0,2,13)
ShowMessage("\\n<Deiji>You asked for it so I will let you have as much fun as you want... You can play with my insides until you're satisfied. ♪")
ShowMessageFace("",0,0,2,14)
ShowMessage("\\n<Luka>Ngh...Unnngh...!")
ShowMessageFace("",0,0,2,15)
ShowMessage("Even though only the tip is inside, the melting pleasure her folds offer me is insanely good. Her strange undulating, slimy insides rub my tip, as if it was trying to clean it...")
ShowMessageFace("",0,0,2,16)
ShowMessage("In addition, I can see many of her tentacles squirming around. That was a strange sight to behold...")
ShowMessageFace("d_scylla_fc1",0,0,2,17)
ShowMessage("\\n<Deiji>It looks like my outer folds are excited too.\nThis is a signal for our allies, you see.")
ShowMessageFace("d_scylla_fc1",0,0,2,18)
ShowMessage("\\n<Deiji>We'll have a looot of fun you and me, and I don't want them to get in the way. ♪\nA lewd dance for my beloved. ♪")
ShowMessageFace("",0,0,2,19)
ShowMessage("\\n<Luka>N...no way...Aaah!")
ShowMessageFace("",0,0,2,20)
ShowMessage("I see a lot of those tentacles moving around.\nAt the same time, the folds in her honeypot are also trembling.")
ShowMessageFace("",0,0,2,21)
ShowMessage("They wrap around the tip of my penis, giving a unique feeling. Suddenly, a numbness invades my hips as they give in...")
ShowMessageFace("",0,0,2,22)
ShowMessage("\\n<Luka>Aaah...coming...!")
RunCommonEvent(104)
PictureDisplay(5,"ev_d_scylla_ha03",0,0,0,0,100,100,255,0)
RunCommonEvent(105)
ShowMessageFace("",0,0,2,23)
ShowMessage("The next moment, I reach a far too quick orgasm.\nMy penis wasn't fully inserted, yet I couldn't withstand her folds...")
ShowMessageFace("d_scylla_fc1",2,0,2,24)
ShowMessage("\\n<Deiji>Eh? What? It was just halfway...\nAh, I see...You're a little boy who comes quickly.")
ShowMessageFace("",0,0,2,25)
ShowMessage("I shrug because of this humiliating ejaculation...\nDeiji gently hugs my body.")
ShowMessageFace("d_scylla_fc1",0,0,2,26)
ShowMessage("\\n<Deiji>I'm sorry, okay Luka?\nI didn't know you were such a quick child...")
ShowMessageFace("d_scylla_fc1",0,0,2,27)
ShowMessage("\\n<Deiji>You didn't even get the chance to move by yourself... I wasn't careful enough.")
ShowMessageFace("",0,0,2,28)
ShowMessage("\\n<Luka>......")
ShowMessageFace("",0,0,2,29)
ShowMessage("She tries to comfort me, and it makes me feel even more pathetic. I keep embracing her without being able to say anything.")
PictureDisplay(5,"ev_d_scylla_ha04",0,0,0,0,100,100,255,0)
ShowMessageFace("d_scylla_fc1",0,0,2,30)
ShowMessage("\\n<Deiji>It's all right, it can't be helped, right?\nYou touched my folds, then...a lot of semen came out easily.")
ShowMessageFace("d_scylla_fc1",0,0,2,31)
ShowMessage("\\n<Deiji>It's your first time doing outdoor sex, right...?\nThat's why mister penis was surprised and went spurt-spurt. ♪")
ShowMessageFace("",0,0,2,32)
ShowMessage("\\n<Luka>......")
ShowMessageFace("",0,0,2,33)
ShowMessage("Deiji's comforting words hurt.\nI react in a very unexpected, shameful way.")
ShowMessageFace("d_scylla_fc1",0,0,2,34)
ShowMessage("\\n<Deiji>Ahaha♪ It reacted when I said \"penis\"! ♪\nYou're lewder than I thought. ♪")
ShowMessageFace("d_scylla_fc1",0,0,2,35)
ShowMessage("\\n<Deiji>Teehee...♪\nNow it's your turn, the turn of a young man. ♪")
ShowMessageFace("",0,0,2,36)
ShowMessage("\\n<Luka>Eh...?")
ShowMessageFace("d_scylla_fc1",0,0,2,37)
ShowMessage("\\n<Deiji>Of course, you're not the only one having sex right now. ♪\nYou must do your best too. ♪")
ShowMessageFace("d_scylla_fc1",0,0,2,38)
ShowMessage("\\n<Deiji>Go for it, now it's my turn to feel good. ♪\nI will hide this part, so don't feel ashamed of being looked at. ♪")
ShowMessageFace("",0,0,2,39)
ShowMessage("Deiji's waist cloth covers my waist.\nA dirty smile floats on her face...")
ShowMessageFace("d_scylla_fc1",0,0,2,40)
ShowMessage("\\n<Deiji>Give it your best shot and move your hips.\nLet's make your penis feel good. ♪")
ShowMessageFace("",0,0,2,41)
ShowMessage("\\n<Luka>......")
ShowMessageFace("",0,0,2,42)
ShowMessage("If this goes on, I will feel even more miserable as a man. Somehow, I have to do my best...")
PictureDisplay(5,"ev_d_scylla_ha05",0,0,0,0,100,100,255,0)
ShowMessageFace("",0,0,2,43)
ShowMessage("I do as she asked and move my hips.\nAs I taste the entangling sensation of her folds, I pull my waist back and thrust in...")
ShowMessageFace("d_scylla_fc1",0,0,2,44)
ShowMessage("\\n<Deiji>Hoora, keep going...♪\nDo it again, and again...♪")
ShowMessageFace("d_scylla_fc1",0,0,2,45)
ShowMessage("\\n<Deiji>Wow♪ Increeedible♪ You're so skilled, Luka-boooy. ♪\nYou even hit my womb a lot, it's wonderful! ♪")
ShowMessageFace("d_scylla_fc1",0,0,2,46)
ShowMessage("\\n<Deiji>If this goes on, big sis's pussy might lose to you...♪")
ShowMessageFace("",0,0,2,47)
ShowMessage("She's pretending, it's obvious.\nMy shaft hasn't even reached her womb yet.")
ShowMessageFace("",0,0,2,48)
ShowMessage("Also, there is that fascinating sensation of her folds coiling around me. It's wriggling and crawling all over my penis. It makes me feel happy I was born a man.")
ShowMessageFace("",0,0,2,49)
ShowMessage("\\n<Luka>Ngh...Ah, ugh...")
ShowMessageFace("d_scylla_fc1",0,0,2,50)
ShowMessage("\\n<Deiji>Yay, one, two♪ One, two, three, four♪\nYou're amaaazing♪ Luka-boy's penis is so good♪\nYou can do it♪ Keep going!♪")
ShowMessageFace("",0,0,2,51)
ShowMessage("The more she cheers for me, the bigger my shame grows.\nFrom the moment I started to move until now, Deiji hasn't felt a thing.")
ShowMessageFace("d_scylla_fc1",0,0,2,52)
ShowMessage("\\n<Deiji>Hehehe... The waist cloth is fluttering.\nIt's showing something embarrassing now. ♪")
ShowMessageFace("d_scylla_fc1",0,0,2,53)
ShowMessage("\\n<Deiji>It's okay. ♪\nKeep thrusting your hips lewdly like this! ♪\nPress the attack on big sis's pussy! ♪")
ShowMessageFace("d_scylla_fc1",0,0,2,54)
ShowMessage("\\n<Deiji>Just think you're masturbating, like usual...\nWith big sis's folds instead of your right hand. ♪")
ShowMessageFace("",0,0,2,55)
ShowMessage("Her folds gently stroke and rotate on the entirety of my penis. When I move my hips, it becomes even more pleasurable as they cling on the tip.")
ShowMessageFace("",0,0,2,56)
ShowMessage("This feeling isn't something one can endure...\nIn fact, I am closer to the edge with every thrust.")
ShowMessageFace("",0,0,2,57)
ShowMessage("\\n<Luka>D-don't...I, already...")
ShowMessageFace("d_scylla_fc1",0,0,2,58)
ShowMessage("\\n<Deiji>Hora♪ Is it time already? Can you let it ouuut?\nJust a lil' bit more♪ Hang in there♪ Hang in theeere♪")
ShowMessageFace("",0,0,2,59)
ShowMessage("Deiji keeps up her cheering. It leaves me with a sour aftertaste... And yet, my male instinct takes over my body as I keep moving my hips relentlessly.")
ShowMessageFace("",0,0,2,60)
ShowMessage("Her sticky folds coiling around my penis push me to the limit... Finally, I reach a disappointing climax.")
ShowMessageFace("",0,0,2,61)
ShowMessage("\\n<Luka>Ah... Aaaah...!")
RunCommonEvent(104)
PictureDisplay(5,"ev_d_scylla_ha06",0,0,0,0,100,100,255,0)
RunCommonEvent(105)
ShowMessageFace("",0,0,2,62)
ShowMessage("I release a stream of semen inside her while still moving my waist... Deiji looks at me as if she's having fun.")
ShowMessageFace("d_scylla_fc1",1,0,2,63)
ShowMessage("\\n<Deiji>Ah♪ You came! ♪\nThat's amazing♪ You were able to shoot so much by yourself! ♪")
ShowMessageFace("d_scylla_fc1",1,0,2,64)
ShowMessage("\\n<Deiji>That's admirable, I'm really happy♪\nHora, lemme squeeze out what's left in you now♪ Let it all out♪")
ShowMessageFace("",0,0,2,65)
ShowMessage("\\n<Luka>Unnngh...")
ShowMessageFace("",0,0,2,66)
ShowMessage("The folds swirl inside her vagina to help me release more. While tasting that otherworldly pleasure, I ejaculated until the very last drop.")
ShowMessageFace("d_scylla_fc1",0,0,2,67)
ShowMessage("\\n<Deiji>To be honest, you lasted just a little bit longer... You would have gotten full marks if you let out a manly voice when you came.")
ShowMessageFace("d_scylla_fc1",0,0,2,68)
ShowMessage("\\n<Deiji>Since you were very cute when you tried so hard, I'll give you 90 points. ♪\nWell then... Here is your reward. ♪")
PictureDisplay(5,"ev_d_scylla_ha07",0,0,0,0,100,100,255,0)
ShowMessageFace("",0,0,2,69)
ShowMessage("Deiji tightly hugs my body.\nAt the same time, her soft walls of flesh and folds gradually narrow around my penis!")
ShowMessageFace("",0,0,2,70)
ShowMessage("\\n<Luka>Ah...! Aaah...!")
ShowMessageFace("d_scylla_fc1",0,0,2,71)
ShowMessage("\\n<Deiji>As promised...now it's my turn. ♪")
ShowMessageFace("d_scylla_fc1",0,0,2,72)
ShowMessage("\\n<Deiji>Earlier, you tried so hard with your thrusting...\n...I can't let all that spirit go to waste! ♪")
ShowMessageFace("d_scylla_fc1",0,0,2,73)
ShowMessage("\\n<Deiji>Teehee... Are you ready?\nThis is what true mating is like when a girl goes all out. ♪")
ShowMessageFace("",0,0,2,74)
ShowMessage("\\n<Luka>Th...that...\nStop, stooop...")
ShowMessageFace("d_scylla_fc1",0,0,2,75)
ShowMessage("\\n<Deiji>Well then, here we goooo! ♪")
ShowMessageFace("",0,0,2,76)
ShowMessage("The next instant, the feeling in her pussy changes... Her vagina and her folds vibrate all around me. She thoroughly licks my penis with it, making me go crazy with pleasure.")
ShowMessageFace("",0,0,2,77)
ShowMessage("...She directly stimulates my sensitive nerves. This truly is a devilish assault. I can't control myself and explode immediately.")
ShowMessageFace("",0,0,2,78)
ShowMessage("\\n<Luka>Ah... Aaaah!!")
RunCommonEvent(104)
PictureDisplay(5,"ev_d_scylla_ha08",0,0,0,0,100,100,255,0)
RunCommonEvent(105)
ShowMessageFace("",0,0,2,79)
ShowMessage("I offer an enormous amount of semen to Deiji's vagina all at once.")
ShowMessageFace("d_scylla_fc1",0,0,2,80)
ShowMessage("\\n<Deiji>There, that's the end. ♪\nAn instant loss for your penis. ♪")
ShowMessageFace("d_scylla_fc1",0,0,2,81)
ShowMessage("\\n<Deiji>It's my pussy's big victory! ♪")
ShowMessageFace("",0,0,2,82)
ShowMessage("Deiji giggles and looks into my eyes.")
ShowMessageFace("d_scylla_fc1",0,0,2,83)
ShowMessage("\\n<Deiji>Teehee... It really spurted a lot. ♪\nLooks like my turn's already over! ♪")
ShowMessageFace("",0,0,2,84)
ShowMessage("\\n<Luka>......")
ShowMessageFace("",0,0,2,85)
ShowMessage("I avert my eyes, ashamed of myself.\nI finished in an instant the moment she became serious...")
ShowMessageFace("d_scylla_fc1",0,0,2,86)
ShowMessage("\\n<Deiji>It's unbearable, right?\nTo lose against a perverted girl like me...♪")
ShowMessageFace("d_scylla_fc1",0,0,2,87)
ShowMessage("\\n<Deiji>But...\nYou're feeling so good because you really did your best, you know?")
ShowMessageFace("d_scylla_fc1",0,0,2,88)
ShowMessage("\\n<Deiji>Make sure you don't forget this irresistible taste of defeat, okay?")
ShowMessageFace("",0,0,2,89)
ShowMessage("\\n<Luka>......")
ShowMessageFace("",0,0,2,90)
ShowMessage("I feel so ashamed of myself that my tears start to fall.\nDeiji looks at me with affection...")
PictureDisplay(5,"ev_d_scylla_ha09",0,0,0,0,100,100,255,0)
ShowMessageFace("d_scylla_fc1",0,0,2,91)
ShowMessage("\\n<Deiji>Teehee... Sorry. ♪\nI didn't want to make you cry. ♪")
ShowMessageFace("d_scylla_fc1",0,0,2,92)
ShowMessage("\\n<Deiji>I got too much into it. ♪\nThere, don't cry...♪ *Mmpch*")
ShowMessageFace("",0,0,2,93)
ShowMessage("Deiji gives me a little kiss.\n...We only kissed for a moment, but I can still taste her sweetness.")
ShowMessageFace("d_scylla_fc1",0,0,2,94)
ShowMessage("\\n<Deiji>Hora♪ There is still plenty of juice in there to shoot... It's your turn agaaain♪ Think you can do it?")
ShowMessageFace("d_scylla_fc1",0,0,2,95)
ShowMessage("\\n<Deiji>Now...Come here. ♪\nLet me teach you more about the taste of an adult. ♪")
PictureDisplay(5,"ev_d_scylla_ha10",0,0,0,0,100,100,255,0)
ShowMessageFace("",0,0,2,96)
ShowMessage("Deiji kisses me again.\nAs I savor this sweet kiss, I shake my hips just like she wants me to...")
ShowMessageFace("d_scylla_fc1",0,0,2,97)
ShowMessage("\\n<Deiji>Nngh... You're thrusting and kissing me at the same time. ♪\nFeels great, right? Get along with my two mouths. ♪")
ShowMessageFace("d_scylla_fc1",0,0,2,98)
ShowMessage("\\n<Deiji>You let out a lot of juice before ♪")
ShowMessageFace("d_scylla_fc1",0,0,2,99)
ShowMessage("\\n<Deiji>It's because I made my folds lick you as if you were in my mouth... Boys can release a lot after all. ♪")
ShowMessageFace("",0,0,2,100)
ShowMessage("\\n<Luka>N-nnngh...")
ShowMessageFace("",0,0,2,101)
ShowMessage("We kiss while I grind my hips as if I was entranced. Thrusting in and out of her wet pussy full of so many clingy folds is insanely addictive.")
ShowMessageFace("",0,0,2,102)
ShowMessage("The more we join each other with our secret places, the sweeter her hot, melting touch becomes. Having sex with her quickly enslaves me.")
ShowMessageFace("d_scylla_fc1",0,0,2,103)
ShowMessage("\\n<Deiji>Heeeey, feels great, riiiight? ♪")
ShowMessageFace("d_scylla_fc1",0,0,2,104)
ShowMessage("\\n<Deiji>Keep going, let out both your sweat and your juice♪ Work that ass♪ Do it more! ♪")
ShowMessageFace("d_scylla_fc1",0,0,2,105)
ShowMessage("\\n<Deiji>Use my insides so you can feel even better. ♪")
ShowMessageFace("",0,0,2,106)
ShowMessage("Encouraged by Deiji's voice, I thrust in and out even more... She matches the movement of her folds with each of my thrusts to envelop my penis.")
ShowMessageFace("d_scylla_fc1",0,0,2,107)
ShowMessage("\\n<Deiji>I'll let you come inside as far as you can at the end. ♪\nJust tell me when you're about to, okay?")
ShowMessageFace("d_scylla_fc1",0,0,2,108)
ShowMessage("\\n<Deiji>Nn...Aaahn♪ You're so full of vigor all of a sudden♪ Does that mean it's the last spurt?")
ShowMessageFace("d_scylla_fc1",0,0,2,109)
ShowMessage("\\n<Deiji>Time for the finishing blow! ♪\nHora...Come! ♪")
ShowMessageFace("",0,0,2,110)
ShowMessage("Then, her slimy folds coil all around my penis.\nFeeling them crawling all over sends me over the edge as I drown in this maddening pleasure.")
RunCommonEvent(104)
PictureDisplay(5,"ev_d_scylla_ha11",0,0,0,0,100,100,255,0)
RunCommonEvent(105)
ShowMessageFace("",0,0,2,111)
ShowMessage("\\n<Luka>Hnnaaa...")
ShowMessageFace("d_scylla_fc1",0,0,2,112)
ShowMessage("\\n<Deiji>*Mmmchp*♪　*Haamngh*♪　Wow, amazing! ♪\nYou released even more semen than before...♪")
ShowMessageFace("",0,0,2,113)
ShowMessage("She milks the remaining semen with her wriggling folds.\nI offered plenty of it to her sweet squirming insides...")
ShowMessageFace("d_scylla_fc1",0,0,2,114)
ShowMessage("\\n<Deiji>Yup, good job. ♪\nYou managed to shake your hips so vulgarly compared to before... I'll give you 92 points. ♪")
ShowMessageFace("",0,0,2,115)
ShowMessage("\\n<Luka>......")
ShowMessageFace("",0,0,2,116)
ShowMessage("I'm exhausted and leave my body to Deiji.\nShe narrows her eyes when she sees me in such a state.")
ShowMessageFace("d_scylla_fc1",0,0,2,117)
ShowMessage("\\n<Deiji>Teehee... Looks like you're head over heels for me. ♪")
ShowMessageFace("d_scylla_fc1",0,0,2,118)
ShowMessage("\\n<Deiji>Kissing with big sis so hungrily...\nDid it make you that happy?")
ShowMessageFace("",0,0,2,119)
ShowMessage("\\n<Luka>Ah... Aaah...")
ShowMessageFace("",0,0,2,120)
ShowMessage("Unexpectedly, the feeling of release rises even more.\nI already let it out earlier, so it must be something else...")
ShowMessageFace("d_scylla_fc1",0,0,2,121)
ShowMessage("\\n<Deiji>Hm? What's wrooong?\nIf you're gonna come again, be sure to do it inside. ♪")
PictureDisplay(5,"ev_d_scylla_ha12",0,0,0,0,100,100,255,0)
ShowMessageFace("",0,0,2,122)
ShowMessage("\\n<Luka>I-it's not... I-it's leaking...")
ShowMessageFace("",0,0,2,123)
ShowMessage("I tell Deiji, feeling embarrassed.\nShe looks surprised...")
ShowMessageFace("d_scylla_fc1",2,0,2,124)
ShowMessage("\\n<Deiji>...Eh? When you say \"leak\", you mean \"that\"?\nDid you perhaps...pee?")
ShowMessageFace("d_scylla_fc1",2,0,2,125)
ShowMessage("\\n<Deiji>I mean, we're having sex right now...\nAh, maybe...my toxin probably made you do that...")
ShowMessageFace("",0,0,2,126)
ShowMessage("Deiji thinks for a while...")
PictureDisplay(5,"ev_d_scylla_ha13",0,0,0,0,100,100,255,0)
ShowMessageFace("d_scylla_fc1",0,0,2,127)
ShowMessage("\\n<Deiji>......It's okay. ♪\nLooks like you can't bear it anymore after all. ♪")
ShowMessageFace("",0,0,2,128)
ShowMessage("She smiles at me, a smile full of love and kindness.")
ShowMessageFace("d_scylla_fc1",0,0,2,129)
ShowMessage("\\n<Deiji>Half of this is my fault after all, we're having sex and I don't wanna stop. ♪\nIf it's you, then it's okay...♪")
ShowMessageFace("",0,0,2,130)
ShowMessage("Deiji gently hugs me...\nAnd at the same time, the folds inside her sweetly squirm.")
ShowMessageFace("",0,0,2,131)
ShowMessage("It's as if they were trying to help me urinate...\nI'm against it, so I put strength into my waist.")
ShowMessageFace("d_scylla_fc1",0,0,2,132)
ShowMessage("\\n<Deiji>Hora♪ You can't take it anymore, right? ♪\nRelax...♪ Just let goooo! ♪")
ShowMessageFace("",0,0,2,133)
ShowMessage("\\n<Luka>Aaaah... Peeing...\nAh, aaah...")
PictureDisplay(5,"ev_d_scylla_ha14",0,0,0,0,100,100,255,0)
ShowMessageFace("",0,0,2,134)
ShowMessage("Her vagina moves in a way that makes me wet myself.\nEven if she gave me her permission, it's still pathetic...")
ShowMessageFace("d_scylla_fc1",0,0,2,135)
ShowMessage("\\n<Deiji>Yep... Just like that! ♪\nLeaky leeeeak! ♪")
ShowMessageFace("",0,0,2,136)
ShowMessage("I look just like a baby.\nDeiji's ass and tentacles move just like a cradle..")
ShowMessageFace("d_scylla_fc1",0,0,2,137)
ShowMessage("\\n<Deiji>Teehee, even though someone could see you...\n...Peeing outside, that is. ♪")
ShowMessageFace("",0,0,2,138)
ShowMessage("\\n<Luka>Nnngh...")
ShowMessageFace("",0,0,2,139)
ShowMessage("I shed tears, overwhelmed by those miserable feelings.\nI felt like I lost my dignity as a human being...")
ShowMessageFace("d_scylla_fc1",0,0,2,140)
ShowMessage("\\n<Deiji>C'mon♪ Don't cry already! ♪\nIf you keep being so cute, I will get addicted too! ♪")
ShowMessageFace("d_scylla_fc1",0,0,2,141)
ShowMessage("\\n<Deiji>There, leaky leak! ♪\nDid everything come out?")
ShowMessageFace("",0,0,2,142)
ShowMessage("\\n<Luka>Yeah...")
ShowMessageFace("",0,0,2,143)
ShowMessage("I nod obediently, just like a child would.\nDrained of strength, I entrust myself to Deiji.")
ShowMessageFace("d_scylla_fc1",0,0,2,144)
ShowMessage("\\n<Deiji>I just wanted to play a little with you...\nBut this is something serious, you have to take proper responsibility! ♪")
PictureDisplay(5,"ev_d_scylla_ha15",0,0,0,0,100,100,255,0)
ShowMessageFace("",0,0,2,145)
ShowMessage("She peers into my eyes, right in front of me.\nAs if under a spell, I can't disobey her when she looks at me in such a way...")
ShowMessageFace("d_scylla_fc1",0,0,2,146)
ShowMessage("\\n<Deiji>Well then, you're going to take responsibility from now on. ♪\nYou understand, of course... Because you'll be a daddy.")
ShowMessageFace("",0,0,2,147)
ShowMessage("\\n<Luka>......")
ShowMessageFace("d_scylla_fc1",0,0,2,148)
ShowMessage("\\n<Deiji>From now on, use my pussy to show me how sorry you are, okay?")
ShowMessageFace("d_scylla_fc1",0,0,2,149)
ShowMessage("\\n<Deiji>I'll tease your penis without mercy after all...\nI'll make you climax a lot, understood?")
ShowMessageFace("",0,0,2,150)
ShowMessage("\\n<Luka>Y-yeah...")
ShowMessageFace("d_scylla_fc1",0,0,2,151)
ShowMessage("\\n<Deiji>Yup, nice answer. ♪\nNow, let's begin... The true mating! ♪")
ShowMessageFace("",0,0,2,152)
ShowMessage("Right after she says that, her whole pussy wriggles like crazy! Her folds swell from the entrance and envelop the whole length of my penis.")
ShowMessageFace("",0,0,2,153)
ShowMessage("\\n<Luka>Hyaaa...!　Ah, aaah...")
RunCommonEvent(104)
PictureDisplay(5,"ev_d_scylla_ha16",0,0,0,0,100,100,255,0)
RunCommonEvent(105)
ShowMessageFace("",0,0,2,154)
ShowMessage("Under the assault of her folds, I climax in the blink of an eye. So this is Deiji's serious love-making...")
ShowMessageFace("",0,0,2,155)
ShowMessage("Moreover, the folds stimulate my entire penis, even during ejaculation. My ejaculation is already finished, devoured by her greedy vagina...")
ShowMessageFace("d_scylla_fc1",0,0,2,156)
ShowMessage("\\n<Deiji>Hnn♪...Hoora♪ Hora hora♪\nSee? I already took your seed. ♪")
ShowMessageFace("d_scylla_fc1",0,0,2,157)
ShowMessage("\\n<Deiji>Hora... That was the first shot. ♪\nHora hora... Now the second♪ And the third!♪")
RunCommonEvent(104)
RunCommonEvent(105)
ShowMessageFace("",0,0,2,158)
ShowMessage("\\n<Luka>Aaaaaah!! Ah, ah, Aaaah!!")
ShowMessageFace("",0,0,2,159)
ShowMessage("My semen gushes out into her, urged by her vibrating folds. My whole body trembles as I taste such a fierce pleasure.")
ShowMessageFace("d_scylla_fc1",0,0,2,160)
ShowMessage("\\n<Deiji>Luka, you're becoming a daddy with so much vigor. ♪\nTake responsibility, as a man who pees as much as he ejaculates. ♪")
RunCommonEvent(104)
RunCommonEvent(105)
ShowMessageFace("d_scylla_fc1",0,0,2,161)
ShowMessage("\\n<Deiji>Hora, once more! ♪\nHora, again♪ It came out again! ♪")
ShowMessageFace("d_scylla_fc1",0,0,2,162)
ShowMessage("\\n<Deiji>You became a father so easily, what a bad child! ♪")
RunCommonEvent(104)
RunCommonEvent(105)
ShowMessageFace("d_scylla_fc1",0,0,2,163)
ShowMessage("\\n<Deiji>Hora, more! Show me more how sorry you are! ♪")
ShowMessageFace("d_scylla_fc1",0,0,2,164)
ShowMessage("\\n<Deiji>\"I'm sorry!\" ♪\n\"I'm sorry for being a daddy who leaks during sex!\" ♪")
ShowMessageFace("",0,0,2,165)
ShowMessage("\\n<Luka>Hyaaa!")
RunCommonEvent(104)
PictureDisplay(5,"ev_d_scylla_ha17",0,0,0,0,100,100,255,0)
RunCommonEvent(105)
ShowMessageFace("d_scylla_fc1",0,0,2,166)
ShowMessage("\\n<Deiji>Hoora hora! ♪\nYour body has become completely honest here. ♪")
ShowMessageFace("d_scylla_fc1",0,0,2,167)
ShowMessage("\\n<Deiji>Your penis is like \"Eat me! Bully me!\"...\n\"Let me pee even more!\" ♪")
RunCommonEvent(104)
RunCommonEvent(105)
ShowMessageFace("d_scylla_fc1",0,0,2,168)
ShowMessage("\\n<Deiji>Ohh, my back and my breasts. ♪\nThey're trembling from excitement, I really wanna make babies with you! ♪")
ShowMessageFace("d_scylla_fc1",0,0,2,169)
ShowMessage("\\n<Deiji>Now, all that's left is your heart. ♪\nI wonder if you'll be honest with your feelings? ♪")
ShowMessageFace("d_scylla_fc1",0,0,2,170)
ShowMessage("\\n<Deiji>Since you will have to act as a proper father... Now is the time to do the things you shouldn't do! ♪")
RunCommonEvent(104)
RunCommonEvent(105)
ShowMessageFace("",0,0,2,171)
ShowMessage("\\n<Luka>Ah... Nnngh...")
ShowMessageFace("",0,0,2,172)
ShowMessage("I remember when I urinated inside of her.\nThat sense of immorality, I want to...once again...")
ShowMessageFace("d_scylla_fc1",0,0,2,173)
ShowMessage("\\n<Deiji>Hoora♪ The truth is, you're thinking about something, right? You don't have to hide anything from me so...do it. ♪")
ShowMessageFace("",0,0,2,174)
ShowMessage("\\n<Luka>Hnnaaa...")
ShowMessageFace("",0,0,2,175)
ShowMessage("She sees through me and gives me permission... I can't go against her anymore. I entrust myself to her and relax my waist...")
PictureDisplay(5,"ev_d_scylla_ha18",0,0,0,0,100,100,255,0)
ShowMessageFace("",0,0,2,176)
ShowMessage("I leak inside her vagina without holding back.\nEven though this is incredibly pitiful, a sweet sense of corruption invades me...")
ShowMessageFace("d_scylla_fc1",0,0,2,177)
ShowMessage("\\n<Deiji>Oh, as expected. ♪\nYou wanted to leaky leak while pressed against my breasts. ♪")
ShowMessageFace("d_scylla_fc1",0,0,2,178)
ShowMessage("\\n<Deiji>I understand everything about you already...♪\nWet yourself with your pathetic penis, you spoiled child. ♪")
ShowMessageFace("",0,0,2,179)
ShowMessage("\\n<Luka>Nnngh...")
ShowMessageFace("",0,0,2,180)
ShowMessage("Deiji drains all of my urine as I rest over her chest.\nI should feel humiliated, but I instead bathe in this sense of liberation...")
246(2)
PictureDisplay(5,"ev_d_scylla_ha19",0,0,0,0,100,100,255,0)
ShowMessageFace("d_scylla_fc1",0,0,2,181)
ShowMessage("\\n<Deiji>Teehee, thanks for the meal. ♪\nHow was it...? Looks like you had quite a lot of \"first time\". ♪")
ShowMessageFace("d_scylla_fc1",0,0,2,182)
ShowMessage("\\n<Deiji>Hey, if you still wanna do something naughty...\nAsk me, and only me, okay?")
ShowMessageFace("",0,0,2,183)
ShowMessage("\\n<Luka>Yeah...")
ShowMessageFace("",0,0,2,184)
ShowMessage("I hug Deiji, showing my complete submission.\nBoth my body and my heart are hers now...")
221()
PictureClear(5)
ShowMessageFace("",0,0,2,185)
ShowMessage("......")
242(2)
Wait(120)
241(bytes(0x04,0x08,0x6f,0x3a,0x0d,0x52,0x50,0x47,0x3a,0x3a,0x42,0x47,0x4d,0x08,0x3a,0x0a,0x40,0x6e,0x61,0x6d,0x65,0x49,0x22,0x0c,0x63,0x61,0x73,0x74,0x6c,0x65,0x36,0x06,0x3a,0x06,0x45,0x54,0x3a,0x0c,0x40,0x76,0x6f,0x6c,0x75,0x6d,0x65,0x69,0x69,0x3a,0x0b,0x40,0x70,0x69,0x74,0x63,0x68,0x69,0x69))
0()
