// EVENT 4072
Name "Sara 1"

If(0,25,1)
 221()
 PictureClear(5)
 PictureClear(6)
 ShowMessageFace("",0,0,2,0)
 ShowMessage("......")
 242(2)
 Wait(120)
 241(bytes(0x04,0x08,0x6f,0x3a,0x0d,0x52,0x50,0x47,0x3a,0x3a,0x42,0x47,0x4d,0x08,0x3a,0x0a,0x40,0x6e,0x61,0x6d,0x65,0x49,0x22,0x0c,0x63,0x61,0x73,0x74,0x6c,0x65,0x36,0x06,0x3a,0x06,0x45,0x54,0x3a,0x0c,0x40,0x76,0x6f,0x6c,0x75,0x6d,0x65,0x69,0x69,0x3a,0x0b,0x40,0x70,0x69,0x74,0x63,0x68,0x69,0x69))
 EndEventProcessing()
 0()
EndIf()
PictureDisplay(5,"80_sara_st12",0,0,0,0,100,100,255,0)
ShowMessageFace("",0,0,2,1)
ShowMessage("\\n<Luka>Eh? Princess clothes today?")
ShowMessageFace("sara_fc2",1,0,2,2)
ShowMessage("\\n<Sara>Yes, there are some events going on in Sabasa.")
ShowMessageFace("sara_fc2",1,0,2,3)
ShowMessage("\\n<Sara>...By the way Luka, do you want a blowjob?\nAfter adventuring for so long, I'm sure you've got some backup in you.")
ShowMessageFace("",0,0,2,4)
ShowMessage("\\n<Luka>Eh...!? Ehhhhhh...!?")
ShowMessageFace("sara_fc2",1,0,2,5)
ShowMessage("\\n<Sara>I mean, we're allies.\nI don't mind using my mouth, so why not, right?")
ShowMessageFace("",0,0,2,6)
ShowMessage("\\n<Luka>W-Well then... Okay.")
ShowMessageFace("sara_fc2",1,0,2,7)
ShowMessage("\\n<Sara>Fufu, then come to my room.\nYou don't want everyone else to watch, do you?")
ShowMessageFace("",0,0,2,8)
ShowMessage("With that, I follow her to her room...")
221()
PictureDisplay(1,"bg195",0,0,0,0,100,100,255,0)
PictureDisplay(5,"80_sara_st12",0,0,0,0,100,100,255,0)
222()
241(bytes(0x04,0x08,0x6f,0x3a,0x0d,0x52,0x50,0x47,0x3a,0x3a,0x42,0x47,0x4d,0x08,0x3a,0x0a,0x40,0x6e,0x61,0x6d,0x65,0x49,0x22,0x09,0x65,0x72,0x6f,0x31,0x06,0x3a,0x06,0x45,0x54,0x3a,0x0c,0x40,0x76,0x6f,0x6c,0x75,0x6d,0x65,0x69,0x69,0x3a,0x0b,0x40,0x70,0x69,0x74,0x63,0x68,0x69,0x69))
ShowMessageFace("sara_fc2",1,0,2,9)
ShowMessage("\\n<Sara>All right, I'll give you a blowjob.\nCome on, take out your dick.")
ShowMessageFace("",0,0,2,10)
ShowMessage("Sara turns toward me as soon as the door closes.")
ShowMessage("Sitting me down on her bed, she brings her face close to my penis.")
PictureDisplay(5,"ev_sara_ha1",0,0,0,0,100,100,255,0)
ShowMessageFace("",0,0,2,11)
ShowMessage("Like that, she sucks in my penis in a single bite.")
ShowMessageFace("",0,0,2,12)
ShowMessage("\\n<Luka>Ah, aaah...")
245(bytes(0x04,0x08,0x6f,0x3a,0x0d,0x52,0x50,0x47,0x3a,0x3a,0x42,0x47,0x53,0x08,0x3a,0x0a,0x40,0x6e,0x61,0x6d,0x65,0x49,0x22,0x10,0x6d,0x6f,0x6e,0x5f,0x68,0x76,0x6f,0x69,0x63,0x65,0x31,0x06,0x3a,0x06,0x45,0x54,0x3a,0x0c,0x40,0x76,0x6f,0x6c,0x75,0x6d,0x65,0x69,0x55,0x3a,0x0b,0x40,0x70,0x69,0x74,0x63,0x68,0x69,0x69))
ShowMessageFace("",0,0,2,13)
ShowMessage("The saliva in Sara's warm mouth swirls around my penis.")
ShowMessage("Having the Princess of a country doing this to me brings a strange excitement.")
ShowMessageFace("sara_fc2",1,0,2,14)
ShowMessage("\\n<Sara>Mmm... This is my first time doing it while still sane...\nI think I do it like this... *Lick* *Suck*")
ShowMessageFace("",0,0,2,15)
ShowMessage("Sara closes her lips around my penis as her tongue starts to lick me.")
ShowMessage("Her short tongue clumsily licks and rubs against me.")
ShowMessageFace("",0,0,2,16)
ShowMessage("As if exploring me, she licks the back of my penis and the tip in quick movements.")
ShowMessage("As she continues roughly licking me, Sara looks up at my face.")
ShowMessageFace("",0,0,2,17)
ShowMessageFace("",0,0,2,18)
ShowMessage("For some reason, I feel embarrassed as she closely watches my reactions to her movements.")
ShowMessageFace("",0,0,2,19)
ShowMessage("\\n<Luka>Ah, aaaah...!")
ShowMessageFace("sara_fc2",1,0,2,20)
ShowMessage("\\n<Sara>Aha... That was a nice noise.\nIt isn't as hard to get men to cry out as I thought it would...")
ShowMessageFace("sara_fc2",1,0,2,21)
ShowMessage("\\n<Sara>*Suck* *Lick* ")
ShowMessageFace("",0,0,2,22)
ShowMessage("Sara's tongue gradually picks up in speed.")
ShowMessage("As if getting used to my penis, she starts getting more aggressive.")
ShowMessageFace("",0,0,2,23)
ShowMessage("The Princess of a country... Doing such an aggressive blowjob...")
ShowMessage("Just the thought of that sends excitement down my spine as my waist starts to tremble.")
ShowMessageFace("",0,0,2,24)
ShowMessage("\\n<Luka>Unnngh... Sara... That's good...")
ShowMessageFace("sara_fc2",1,0,2,25)
ShowMessage("\\n<Sara>Hahaha... Are you going to come?\n*Suck* *Lick*")
ShowMessageFace("",0,0,2,26)
ShowMessage("Happy that she's making me feel good, her tongue moves even faster.")
ShowMessage("Licking my penis up and down, she's making sure she tastes every inch of me in her mouth.")
ShowMessageFace("",0,0,2,27)
ShowMessage("At the same time, she tightens her lips around me, as she makes her mouth narrower.")
ShowMessageFace("",0,0,2,28)
ShowMessage("Between her aggressive tongue, warm saliva, and her tight lips, I feel myself quickly approaching an orgasm.")
ShowMessageFace("",0,0,2,29)
ShowMessage("\\n<Luka>Auu... I'm going to come soon...")
ShowMessageFace("sara_fc2",1,0,2,30)
ShowMessage("\\n<Sara>Then... Let me finish you off...")
245(bytes(0x04,0x08,0x6f,0x3a,0x0d,0x52,0x50,0x47,0x3a,0x3a,0x42,0x47,0x53,0x08,0x3a,0x0a,0x40,0x6e,0x61,0x6d,0x65,0x49,0x22,0x10,0x6d,0x6f,0x6e,0x5f,0x68,0x76,0x6f,0x69,0x63,0x65,0x32,0x06,0x3a,0x06,0x45,0x54,0x3a,0x0c,0x40,0x76,0x6f,0x6c,0x75,0x6d,0x65,0x69,0x55,0x3a,0x0b,0x40,0x70,0x69,0x74,0x63,0x68,0x69,0x69))
ShowMessageFace("",0,0,2,31)
ShowMessage("Sara smiles as she says that.")
ShowMessage("Pleased with herself, her mouth gets even more violent.")
ShowMessageFace("",0,0,2,32)
ShowMessage("Right now, the only purpose of Sara's soft mouth is to please me...")
ShowMessageFace("",0,0,2,33)
ShowMessage("She forces the tip of my penis into her soft cheek as her tongue licks the back of my penis.")
ShowMessage("The sudden soft sensation forces me over the edge as I yell out.")
ShowMessageFace("",0,0,2,34)
ShowMessage("\\n<Luka>Ahh! I'm coming!")
ShowMessageFace("",0,0,2,35)
ShowMessage("I'm going to shoot my semen in a Princess's mouth...")
ShowMessage("Desperate to avoid defiling royalty like that, I hold on with all my power.")
ShowMessageFace("",0,0,2,36)
ShowMessage("But the Princess won't allow that...")
ShowMessageFace("sara_fc2",1,0,2,37)
ShowMessage("\\n<Sara>...Don't do that. I'll make you come...")
ShowMessageFace("",0,0,2,38)
ShowMessage("Sara reprimands me in a commanding tone.")
ShowMessageFace("",0,0,2,39)
ShowMessage("As if giving in to her command, I stop trying to resist as I surrender to the soft feeling of her mouth.")
ShowMessageFace("",0,0,2,40)
ShowMessage("\\n<Luka>Ah... Aaaaaah!!")
246(1)
RunCommonEvent(104)
PictureDisplay(5,"ev_sara_ha2",0,0,0,0,100,100,255,0)
RunCommonEvent(105)
ShowMessageFace("",0,0,2,41)
ShowMessage("I pour out my semen in Sara's warm mouth.")
ShowMessageFace("sara_fc2",1,0,2,42)
ShowMessage("\\n<Sara>Mmm!")
ShowMessageFace("",0,0,2,43)
ShowMessage("With a shocked expression on her face, Sara drinks down everything as I shoot it out.")
ShowMessage("While immersing myself in the suction in her mouth from her swallows, I bathe in the pleasure to the last drop.")
ShowMessageFace("sara_fc2",1,0,2,44)
ShowMessage("\\n<Sara>Bitter... And fishy...")
ShowMessageFace("",0,0,2,45)
ShowMessage("Even though she says that, Sara's smile doesn't fade.")
ShowMessageFace("sara_fc2",1,0,2,46)
ShowMessage("\\n<Sara>Haha... So you couldn't resist it!\nAm I really that good with my mouth?")
ShowMessageFace("",0,0,2,47)
ShowMessage("Sara laughs triumphantly, as if happy at forcing me to do something.")
ShowMessage("But even with that, she doesn't take my penis out of her mouth.")
245(bytes(0x04,0x08,0x6f,0x3a,0x0d,0x52,0x50,0x47,0x3a,0x3a,0x42,0x47,0x53,0x08,0x3a,0x0a,0x40,0x6e,0x61,0x6d,0x65,0x49,0x22,0x10,0x6d,0x6f,0x6e,0x5f,0x68,0x76,0x6f,0x69,0x63,0x65,0x33,0x06,0x3a,0x06,0x45,0x54,0x3a,0x0c,0x40,0x76,0x6f,0x6c,0x75,0x6d,0x65,0x69,0x55,0x3a,0x0b,0x40,0x70,0x69,0x74,0x63,0x68,0x69,0x69))
ShowMessageFace("sara_fc2",1,0,2,48)
ShowMessage("\\n<Sara>Now let me clean you up...\nMmm... *Lick* *Lick*")
ShowMessageFace("",0,0,2,49)
ShowMessage("Sara starts to lick my penis again, right after I ejaculated.")
ShowMessage("She carefully licks up all the leftover semen.")
ShowMessageFace("",0,0,2,50)
ShowMessage("Her rough tongue shot pleasure through me, as she cleans my sensitive penis.")
ShowMessage("The ticklish feeling of her tongue licking me causes my waist to shake.")
ShowMessageFace("",0,0,2,51)
ShowMessage("Thanks to that, my dick gets hard again.")
ShowMessageFace("sara_fc2",1,0,2,52)
ShowMessage("\\n<Sara>...Oh? I thought it was supposed to get small...?")
ShowMessageFace("sara_fc2",1,0,2,53)
ShowMessage("\\n<Sara>I wanted to refresh you.\nWas that not enough, then?")
ShowMessageFace("",0,0,2,54)
ShowMessage("\\n<Luka>It's okay, you don't...")
ShowMessageFace("",0,0,2,55)
ShowMessage("Ignoring my words, Sara starts sucking on my penis again.")
ShowMessageFace("",0,0,2,56)
ShowMessage("With long, deep sucking motions, she resumes her blowjob.")
ShowMessageFace("sara_fc2",1,0,2,57)
ShowMessage("\\n<Sara>...This is good.")
ShowMessageFace("sara_fc2",1,0,2,58)
ShowMessage("\\n<Sara>I wanted to try that piston movement from the book.")
ShowMessageFace("",0,0,2,59)
ShowMessage("\\n<Luka>Eh...? Aaaah...!!")
245(bytes(0x04,0x08,0x6f,0x3a,0x0d,0x52,0x50,0x47,0x3a,0x3a,0x42,0x47,0x53,0x08,0x3a,0x0a,0x40,0x6e,0x61,0x6d,0x65,0x49,0x22,0x10,0x6d,0x6f,0x6e,0x5f,0x68,0x76,0x6f,0x69,0x63,0x65,0x34,0x06,0x3a,0x06,0x45,0x54,0x3a,0x0c,0x40,0x76,0x6f,0x6c,0x75,0x6d,0x65,0x69,0x55,0x3a,0x0b,0x40,0x70,0x69,0x74,0x63,0x68,0x69,0x69))
ShowMessageFace("",0,0,2,60)
ShowMessage("In the next moment, Sara suddenly started pumping me back and forth.")
ShowMessage("All the way from the tip to the base, she forces me in and out of her narrow mouth.")
ShowMessageFace("",0,0,2,61)
ShowMessage("With her rapid piston movement, the strength fades from my body as the pleasure forces itself into my body again.")
ShowMessageFace("sara_fc2",1,0,2,62)
ShowMessage("\\n<Sara>Mmmf... This is... Hard...\nCome... Quickly... *Suck* *Suck* ")
ShowMessageFace("",0,0,2,63)
ShowMessage("\\n<Luka>Unnngh...!")
ShowMessageFace("",0,0,2,64)
ShowMessage("As if getting used to it, Sara's speed increases as she quickly pumps me with her mouth.")
ShowMessageFace("",0,0,2,65)
ShowMessage("The feeling of her soft lips running back and forth around my penis as her tongue pushes against the tip of my penis is too much for me.")
ShowMessageFace("",0,0,2,66)
ShowMessage("\\n<Luka>Uaaa... Incredible...")
ShowMessageFace("sara_fc2",1,0,2,67)
ShowMessage("\\n<Sara>*Suck* *Lick* Is this better than before?")
ShowMessageFace("sara_fc2",1,0,2,68)
ShowMessage("\\n<Sara>Ok... Time for the last spurt!")
ShowMessageFace("",0,0,2,69)
ShowMessage("Sara tightens her lips around me as she sucks on me as hard as she can.")
ShowMessage("Like that, she starts to pump me even faster than before.")
ShowMessageFace("",0,0,2,70)
ShowMessage("With the pleasure too amazing to contain myself, I grab onto Sara's head as she pumps me.")
ShowMessageFace("sara_fc2",1,0,2,71)
ShowMessage("\\n<Sara>Nnn...")
ShowMessageFace("",0,0,2,72)
ShowMessage("But Sara grabs my arms with hers, and uses the leverage to move even faster.")
ShowMessageFace("",0,0,2,73)
ShowMessage("With my arms held down by Sara's, I finally reach my limit.")
ShowMessageFace("",0,0,2,74)
ShowMessage("\\n<Luka>Aaaaaah!!")
RunCommonEvent(104)
PictureDisplay(5,"ev_sara_ha3",0,0,0,0,100,100,255,0)
RunCommonEvent(105)
ShowMessageFace("sara_fc2",1,0,2,75)
ShowMessage("\\n<Sara>Mmmmm!!")
ShowMessageFace("",0,0,2,76)
ShowMessage("Sara sucks on me as she drinks down everything I shoot out.")
ShowMessageFace("",0,0,2,77)
ShowMessage("With each spurt of my semen followed by Sara swallowing, it feels as though she's sucking it out directly from inside of me.")
ShowMessage("Awash in the pleasure, I was able to have everything sucked out by the Princess.")
246(1)
ShowMessageFace("sara_fc2",1,0,2,78)
ShowMessage("\\n<Sara>Mmm... That's the end.\nWas it good?")
ShowMessageFace("",0,0,2,79)
ShowMessage("Sara smiles as she wipes away some leftover semen on her lips.")
ShowMessage("But her face was full of a triumphant smile, proud of her own skill.")
ShowMessageFace("",0,0,2,80)
ShowMessage("\\n<Luka>......")
ShowMessageFace("",0,0,2,81)
ShowMessage("It feels so scandalous...")
ShowMessage("I sneak out of her room, as if trying to hide my deeds from the citizens of Sabasa...")
221()
PictureClear(5)
PictureClear(6)
246(2)
ShowMessageFace("",0,0,2,82)
ShowMessage("......")
242(2)
Wait(120)
241(bytes(0x04,0x08,0x6f,0x3a,0x0d,0x52,0x50,0x47,0x3a,0x3a,0x42,0x47,0x4d,0x08,0x3a,0x0a,0x40,0x6e,0x61,0x6d,0x65,0x49,0x22,0x0c,0x63,0x61,0x73,0x74,0x6c,0x65,0x36,0x06,0x3a,0x06,0x45,0x54,0x3a,0x0c,0x40,0x76,0x6f,0x6c,0x75,0x6d,0x65,0x69,0x69,0x3a,0x0b,0x40,0x70,0x69,0x74,0x63,0x68,0x69,0x69))
0()
