﻿// EVENT 7344
Name "Cresta: Victory"

PictureDisplay(5,"80_mob_kaizoku2_st01",0,0,0,0,100,100,255,0)
PictureClear(6)
ShowMessageFace("mob_kaizoku2_fc1",0,0,2,1)
ShowMessage("\\n<Cresta>My best wasn't enough... It's my loss.")
250(bytes(0x04,0x08,0x6f,0x3a,0x0c,0x52,0x50,0x47,0x3a,0x3a,0x53,0x45,0x08,0x3a,0x0a,0x40,0x6e,0x61,0x6d,0x65,0x49,0x22,0x0d,0x6d,0x6f,0x6e,0x5f,0x6c,0x76,0x75,0x70,0x06,0x3a,0x06,0x45,0x54,0x3a,0x0b,0x40,0x70,0x69,0x74,0x63,0x68,0x69,0x69,0x3a,0x0c,0x40,0x76,0x6f,0x6c,0x75,0x6d,0x65,0x69,0x69))
ChangeSwitch(98,98,1)
ChangeSwitch(96,96,1)
ShowMessageFace("",0,0,2,2)
ShowMessage("Luka emerged from the battle fuck victorious!")
If(1,835,0,2,1)
 ShowMessageFace("mob_kaizoku2_fc1",0,0,2,3)
 ShowMessage("\\n<Cresta>I don't have any items to give you.\nI've already given one to you before.")
 0()
Else()
 ShowMessageFace("mob_kaizoku2_fc1",0,0,2,4)
 ShowMessage("\\n<Cresta>Then you can have this.\nIt's an accessory that will allow you to use gun skills.")
 250(bytes(0x04,0x08,0x6f,0x3a,0x0c,0x52,0x50,0x47,0x3a,0x3a,0x53,0x45,0x08,0x3a,0x0a,0x40,0x6e,0x61,0x6d,0x65,0x49,0x22,0x0a,0x49,0x74,0x65,0x6d,0x31,0x06,0x3a,0x06,0x45,0x54,0x3a,0x0b,0x40,0x70,0x69,0x74,0x63,0x68,0x69,0x69,0x3a,0x0c,0x40,0x76,0x6f,0x6c,0x75,0x6d,0x65,0x69,0x55))
 ChangeInventoryArmor(1641,0,0,1,false)
 ChangeVariable(835,835,0,0,2)
 RunCommonEvent(6999)
 0()
EndIf()
ShowMessageFace("mob_kaizoku2_fc1",0,0,2,5)
ShowMessage("\\n<Cresta>That match with you was a lot of fun.\nNext time, I won't lose!")
If(0,2331,1)
 PictureClear(5)
 241(bytes(0x04,0x08,0x6f,0x3a,0x0d,0x52,0x50,0x47,0x3a,0x3a,0x42,0x47,0x4d,0x08,0x3a,0x0a,0x40,0x6e,0x61,0x6d,0x65,0x49,0x22,0x0a,0x6b,0x69,0x6b,0x69,0x34,0x06,0x3a,0x06,0x45,0x54,0x3a,0x0c,0x40,0x76,0x6f,0x6c,0x75,0x6d,0x65,0x69,0x69,0x3a,0x0b,0x40,0x70,0x69,0x74,0x63,0x68,0x69,0x69))
 If(1,834,0,2,1)
  If(0,2309,1)
   ChangeSwitch(2309,2309,0)
   ShowMessageFace("",0,0,2,6)
   ShowMessage("You've won against Ariadne and Cresta!\nIt's finally time for the decisive match against Captain Gloria!")
   0()
  EndIf()
  0()
 EndIf()
 0()
EndIf()
EndEventProcessing()
0()
