﻿// EVENT 7271
Name "Marin: Talk"

If(1,828,0,0,0)
 ChangeVariable(828,828,0,0,1)
 0()
EndIf()
241(bytes(0x04,0x08,0x6f,0x3a,0x0d,0x52,0x50,0x47,0x3a,0x3a,0x42,0x47,0x4d,0x08,0x3a,0x0a,0x40,0x6e,0x61,0x6d,0x65,0x49,0x22,0x09,0x65,0x72,0x6f,0x32,0x06,0x3a,0x06,0x45,0x54,0x3a,0x0c,0x40,0x76,0x6f,0x6c,0x75,0x6d,0x65,0x69,0x50,0x3a,0x0b,0x40,0x70,0x69,0x74,0x63,0x68,0x69,0x69))
PictureDisplay(5,"80_mob_mahousyouzyo_st01",0,0,0,0,100,100,0,0)
PictureMove(5,null,0,0,0,0,100,100,255,0,30,true)
If(0,2331,1)
 ShowMessageFace("mob_mahousyouzyo_fc1",0,0,2,1)
 ShowMessage("\\n<Magical Mari-chan>Eh, you want to battle fuck with me?\nOf course I know how.")
 0()
EndIf()
If(1,828,0,2,1)
 ShowMessageFace("mob_mahousyouzyo_fc1",0,0,2,2)
 ShowMessage("\\n<Magical Mari-chan>The bet will be 900G.\nEven if you win, I don't have any more prizes to give you...")
 0()
Else()
 ShowMessageFace("mob_mahousyouzyo_fc1",0,0,2,3)
 ShowMessage("\\n<Magical Mari-chan>The bet will be 900G.\nIf you win, I'll give you an accessory that automatically restores your SP. ♪")
 0()
EndIf()
ShowMessageFace("mob_mahousyouzyo_fc1",0,0,2,4)
ShowMessage("\\n<Magical Mari-chan>Come on, let's have a match. ♪\nDon't you want a magical girl to make you come...?")
ShowChoices(strings("Battle Fuck Challenge","Reconsider"),2)
IfPlayerPicksChoice(0,"バトルファックを挑む")
 If(7,900,0)
  If(0,2331,1)
   216(1)
   ShowMessageFace("",0,0,2,5)
   ShowMessage("Luka's companions left the building...")
   0()
  EndIf()
  RunCommonEvent(7272)
  EndEventProcessing()
  0()
 Else()
  ShowMessageFace("mob_mahousyouzyo_fc1",0,0,2,6)
  ShowMessage("\\n<Magical Mari-chan>Hey now, you don't have any money...\nCome back when you have more.")
  If(0,2331,1)
   PictureClear(5)
   241(bytes(0x04,0x08,0x6f,0x3a,0x0d,0x52,0x50,0x47,0x3a,0x3a,0x42,0x47,0x4d,0x08,0x3a,0x0a,0x40,0x6e,0x61,0x6d,0x65,0x49,0x22,0x0a,0x63,0x69,0x74,0x79,0x31,0x06,0x3a,0x06,0x45,0x54,0x3a,0x0c,0x40,0x76,0x6f,0x6c,0x75,0x6d,0x65,0x69,0x69,0x3a,0x0b,0x40,0x70,0x69,0x74,0x63,0x68,0x69,0x69))
   0()
  EndIf()
  EndEventProcessing()
  0()
 EndIf()
 0()
IfPlayerPicksChoice(1,"やめておく")
 ShowMessageFace("mob_mahousyouzyo_fc1",0,0,2,7)
 ShowMessage("\\n<Magical Mari-chan>Arere, you're giving up?\nHow disappointing, I was going to make you feel really good...")
 If(0,2331,1)
  PictureClear(5)
  241(bytes(0x04,0x08,0x6f,0x3a,0x0d,0x52,0x50,0x47,0x3a,0x3a,0x42,0x47,0x4d,0x08,0x3a,0x0a,0x40,0x6e,0x61,0x6d,0x65,0x49,0x22,0x0a,0x63,0x69,0x74,0x79,0x31,0x06,0x3a,0x06,0x45,0x54,0x3a,0x0c,0x40,0x76,0x6f,0x6c,0x75,0x6d,0x65,0x69,0x69,0x3a,0x0b,0x40,0x70,0x69,0x74,0x63,0x68,0x69,0x69))
  0()
 EndIf()
 EndEventProcessing()
 0()
404()
0()
