﻿
DisplayName "Grangold Palace 2F"



EVENT   1
 PAGE   1
  250(bytes(0x04,0x08,0x6f,0x3a,0x0c,0x52,0x50,0x47,0x3a,0x3a,0x53,0x45,0x08,0x3a,0x0a,0x40,0x6e,0x61,0x6d,0x65,0x49,0x22,0x09,0x4d,0x6f,0x76,0x65,0x06,0x3a,0x06,0x45,0x54,0x3a,0x0b,0x40,0x70,0x69,0x74,0x63,0x68,0x69,0x69,0x3a,0x0c,0x40,0x76,0x6f,0x6c,0x75,0x6d,0x65,0x69,0x55))
  TeleportPlayer(0,176,30,27,2,0)
  0()



EVENT   2
 PAGE   1
  250(bytes(0x04,0x08,0x6f,0x3a,0x0c,0x52,0x50,0x47,0x3a,0x3a,0x53,0x45,0x08,0x3a,0x0a,0x40,0x6e,0x61,0x6d,0x65,0x49,0x22,0x09,0x4d,0x6f,0x76,0x65,0x06,0x3a,0x06,0x45,0x54,0x3a,0x0b,0x40,0x70,0x69,0x74,0x63,0x68,0x69,0x69,0x3a,0x0c,0x40,0x76,0x6f,0x6c,0x75,0x6d,0x65,0x69,0x55))
  TeleportPlayer(0,176,57,22,2,0)
  0()



EVENT   3
 PAGE   1
  250(bytes(0x04,0x08,0x6f,0x3a,0x0c,0x52,0x50,0x47,0x3a,0x3a,0x53,0x45,0x08,0x3a,0x0a,0x40,0x6e,0x61,0x6d,0x65,0x49,0x22,0x09,0x4d,0x6f,0x76,0x65,0x06,0x3a,0x06,0x45,0x54,0x3a,0x0b,0x40,0x70,0x69,0x74,0x63,0x68,0x69,0x69,0x3a,0x0c,0x40,0x76,0x6f,0x6c,0x75,0x6d,0x65,0x69,0x55))
  TeleportPlayer(0,176,3,22,2,0)
  0()



EVENT   4
 PAGE   1
  // condition: switch 4 is ON
  0()
 PAGE   2
  // condition: switch 5 is ON
  0()
 PAGE   3
  // condition: variable 1063 >= 13
  0()



EVENT   5
 PAGE   1
  If(12,"unlock_level < 1")
   ShowMessageFace("",0,0,2,1)
   ShowMessage("The chest is locked.")
   EndEventProcessing()
   0()
  EndIf()
  250(bytes(0x04,0x08,0x6f,0x3a,0x0c,0x52,0x50,0x47,0x3a,0x3a,0x53,0x45,0x08,0x3a,0x0a,0x40,0x6e,0x61,0x6d,0x65,0x49,0x22,0x0a,0x43,0x68,0x65,0x73,0x74,0x06,0x3a,0x06,0x45,0x54,0x3a,0x0b,0x40,0x70,0x69,0x74,0x63,0x68,0x69,0x69,0x3a,0x0c,0x40,0x76,0x6f,0x6c,0x75,0x6d,0x65,0x69,0x55))
  205(0,bytes(0x04,0x08,0x6f,0x3a,0x13,0x52,0x50,0x47,0x3a,0x3a,0x4d,0x6f,0x76,0x65,0x52,0x6f,0x75,0x74,0x65,0x09,0x3a,0x0c,0x40,0x72,0x65,0x70,0x65,0x61,0x74,0x46,0x3a,0x0f,0x40,0x73,0x6b,0x69,0x70,0x70,0x61,0x62,0x6c,0x65,0x46,0x3a,0x0a,0x40,0x77,0x61,0x69,0x74,0x54,0x3a,0x0a,0x40,0x6c,0x69,0x73,0x74,0x5b,0x0b,0x6f,0x3a,0x15,0x52,0x50,0x47,0x3a,0x3a,0x4d,0x6f,0x76,0x65,0x43,0x6f,0x6d,0x6d,0x61,0x6e,0x64,0x07,0x3a,0x0a,0x40,0x63,0x6f,0x64,0x65,0x69,0x29,0x3a,0x10,0x40,0x70,0x61,0x72,0x61,0x6d,0x65,0x74,0x65,0x72,0x73,0x5b,0x00,0x6f,0x3b,0x0a,0x07,0x3b,0x0b,0x69,0x16,0x3b,0x0c,0x5b,0x00,0x6f,0x3b,0x0a,0x07,0x3b,0x0b,0x69,0x14,0x3b,0x0c,0x5b,0x06,0x69,0x08,0x6f,0x3b,0x0a,0x07,0x3b,0x0b,0x69,0x17,0x3b,0x0c,0x5b,0x00,0x6f,0x3b,0x0a,0x07,0x3b,0x0b,0x69,0x14,0x3b,0x0c,0x5b,0x06,0x69,0x08,0x6f,0x3b,0x0a,0x07,0x3b,0x0b,0x69,0x00,0x3b,0x0c,0x5b,0x00))
  ChangeSelfSwitch("A",0)
  ChangeInventoryWeapon(225,0,0,1,false)
  0()
 PAGE   2
  // condition: self-switch A is ON
  0()



EVENT   6
 PAGE   1
  217()
  241(bytes(0x04,0x08,0x6f,0x3a,0x0d,0x52,0x50,0x47,0x3a,0x3a,0x42,0x47,0x4d,0x08,0x3a,0x0a,0x40,0x6e,0x61,0x6d,0x65,0x49,0x22,0x0c,0x62,0x6f,0x73,0x73,0x30,0x2d,0x32,0x06,0x3a,0x06,0x45,0x54,0x3a,0x0c,0x40,0x76,0x6f,0x6c,0x75,0x6d,0x65,0x69,0x69,0x3a,0x0b,0x40,0x70,0x69,0x74,0x63,0x68,0x69,0x69))
  PictureDisplay(5,"80_lilith2_st01b",0,0,0,0,100,100,0,0)
  PictureMove(5,null,0,0,0,0,100,100,255,0,60,true)
  ShowMessageFace("lilith2_fc1",0,0,2,1)
  ShowMessage("\\n<Lilith>So the intruders into the palace have arrived. I assume you're also responsible for the terrorist attacks in the city?")
  If(0,4,0)
   ShowMessageFace("alice_fc6",1,0,2,2)
   ShowMessage("\\n<Alice>Lilith... This is an outrageous plan you've pulled off. Corrupting the king to take the throne and then corrupting the entire country? Insane!")
   ShowMessageFace("alice_fc6",1,0,2,3)
   ShowMessage("\\n<Alice>This injustice ends today! We're here to defeat you and liberate Grangold!")
   0()
  EndIf()
  If(0,5,0)
   ShowMessageFace("iriasu_fc4",7,0,2,4)
   ShowMessage("\\n<Ilias>Quite an ambitious scheme you've been running, Lilith. Ruling as a queen and corrupting the king and all the citizens.")
   ShowMessageFace("iriasu_fc4",7,0,2,5)
   ShowMessage("\\n<Ilias>But today's the day we settle the score!\nWe are here to end your wicked plans and liberate Grangold!")
   0()
  EndIf()
  If(4,382,0)
   ShowMessageFace("morrigan_fc1",0,0,2,6)
   ShowMessage("\\n<Morrigan>It's been centuries since we had a sisterly squabble!")
   0()
  EndIf()
  If(4,203,0)
   ShowMessageFace("tatunoko_k_fc1",1,0,2,7)
   ShowMessage("\\n<Tatsuko>The navy won't excuse your lawlessness!")
   0()
  EndIf()
  ShowMessageFace("lilith2_fc1",0,0,2,8)
  ShowMessage("\\n<Lilith>...I think you all have made a grave misunderstanding.")
  ShowMessageFace("lilith2_fc1",0,0,2,9)
  ShowMessage("\\n<Lilith>Corrupting a town is one thing, but the power to affect an entire kingdom? We sisters are powerful, but that is beyond our capabilities.")
  If(0,4,0)
   ShowMessageFace("alice_fc6",0,0,2,10)
   ShowMessage("\\n<Alice>What!? Then--")
   PictureClear(5)
   241(bytes(0x04,0x08,0x6f,0x3a,0x0d,0x52,0x50,0x47,0x3a,0x3a,0x42,0x47,0x4d,0x08,0x3a,0x0a,0x40,0x6e,0x61,0x6d,0x65,0x49,0x22,0x0c,0x62,0x6f,0x73,0x73,0x30,0x2d,0x33,0x06,0x3a,0x06,0x45,0x54,0x3a,0x0c,0x40,0x76,0x6f,0x6c,0x75,0x6d,0x65,0x69,0x69,0x3a,0x0b,0x40,0x70,0x69,0x74,0x63,0x68,0x69,0x69))
   ShowMessageFace("",0,0,2,11)
   ShowMessage("\\n<？？？>Yes... This is all my work.\nI've greatly enjoyed getting to bring this country to its knees...")
   ShowMessageFace("alice_fc6",0,0,2,12)
   ShowMessage("\\n<Alice>Impossible! That voice, it can't be--")
   ShowMessageFace("",0,0,2,13)
   ShowMessage("\\n<？？？>Subjugating countries, corrupting kings, toying with their citizens... These are my specialties.")
   0()
  EndIf()
  If(0,5,0)
   ShowMessageFace("iriasu_fc4",5,0,2,14)
   ShowMessage("\\n<Ilias>What are you talking about? Then who is--")
   PictureClear(5)
   ShowMessageFace("",0,0,2,15)
   ShowMessage("\\n<？？？>Your memory really is slipping, Ilias.\nHave you forgotten how much I enjoy bringing empires to their knees?")
   ShowMessageFace("iriasu_fc4",5,0,2,16)
   ShowMessage("\\n<Ilias>No, it can't be...\nYou can't be the one behind this...")
   ShowMessageFace("",0,0,2,17)
   ShowMessage("\\n<？？？>Have you forgotten how many countries I've laid waste to? Have you forgotten the screams of their citizens as I devoured their lives?")
   0()
  EndIf()
  212(8,542,false)
  Wait(60)
  ChangeSwitch(31,31,0)
  Wait(60)
  PictureDisplay(5,"80_tamamo_st61b",0,0,0,0,100,100,0,0)
  PictureMove(5,null,0,0,0,0,100,100,255,0,60,true)
  ShowMessageFace("tamamo_fc3",0,0,2,18)
  ShowMessage("\\n<Tamamo no Mae>One of the Six Ancestors, the fair, golden nine-tailed great kitsune... Carve the name Tamamo no Mae into your very souls!")
  If(0,4,0)
   ShowMessageFace("alice_fc6",0,0,2,19)
   ShowMessage("\\n<Alice>Tamamo...? No, you're not the Tamamo I know!")
   0()
  EndIf()
  If(0,5,0)
   ShowMessageFace("iriasu_fc4",7,0,2,20)
   ShowMessage("\\n<Ilias>Tamamo! When did you break your seal?!\nWait, Tamamo should still be wasting away at the fox shrine.")
   ShowMessageFace("iriasu_fc4",5,0,2,21)
   ShowMessage("\\n<Ilias>No, hold on...\nYou must have come from another world like those Seraphim--")
   0()
  EndIf()
  ShowMessageFace("tamamo_fc3",0,0,2,22)
  ShowMessage("\\n<Tamamo no Mae>Indeed... I am not the Tamamo you're familiar with. I'm a different Tamamo who came here from a world overcome by darkness!")
  If(0,4,0)
   ShowMessageFace("alice_fc6",0,0,2,23)
   ShowMessage("\\n<Alice>So we're being invaded by youma from parallel worlds in addition to the angels? And not just any youma, but one of the Six Ancestors...")
   0()
  EndIf()
  If(0,5,0)
   ShowMessageFace("iriasu_fc4",5,0,2,24)
   ShowMessage("\\n<Ilias>So monsters from parallel worlds have come here in addition to the angels? And not just any monster, but one of the Six Ancestors...")
   0()
  EndIf()
  PictureDisplay(6,"80_lilith2_st01b",0,0,-200,0,100,100,255,0)
  PictureDisplay(5,"80_tamamo_st61b",0,0,200,0,100,100,255,0)
  ShowMessageFace("lilith2_fc1",0,0,2,25)
  ShowMessage("\\n<Lilith>So there you have it. Tamamo is the one doing the heavy lifting. My sisters and I are just helping her out.")
  If(0,6,0)
   ShowMessageFace("sonia_fc3",7,0,2,26)
   ShowMessage("\\n<Sonya>Wh-what do we do now!?\nIf they attack together...")
   0()
  Else()
   ShowMessageFace("ruka_fc1",0,0,2,27)
   ShowMessage("\\n<Luka>Wh-what do we do now!?\nIf they attack together...")
   0()
  EndIf()
  PictureClear(6)
  PictureDisplay(5,"80_tamamo_st61b",0,0,0,0,100,100,255,0)
  ShowMessageFace("tamamo_fc3",0,0,2,28)
  ShowMessage("\\n<Tamamo no Mae>I wouldn't do something so crass.\nI'll take all of you on by myself.")
  PictureDisplay(5,"80_tamamo_st62b",0,0,0,0,100,100,255,0)
  ShowMessageFace("tamamo_fc3",1,0,2,29)
  ShowMessage("\\n<Tamamo no Mae>Give me your best shot. At least provide me with a few moments of entertainment...")
  If(0,4,0)
   ShowMessageFace("alice_fc6",0,0,2,30)
   ShowMessage("\\n<Alice>We don't stand a chance against that level of magical power...")
   0()
  EndIf()
  If(0,5,0)
   ShowMessageFace("iriasu_fc4",2,0,2,31)
   ShowMessage("\\n<Ilias>We don't stand a chance against one of the Six Ancestors as we are now...")
   0()
  EndIf()
  ShowMessageFace("ruka_fc1",0,0,2,32)
  ShowMessage("\\n<Luka>It doesn't matter whether we can win or not, we can't just surrender! Let's fight!!")
  If(4,129,0)
   ShowMessageFace("brunhild_fc1",0,0,2,33)
   ShowMessage("\\n<Hild>Overwhelming difference in power level detected...\nHowever, no alternative options available...")
   0()
  EndIf()
  If(4,79,0)
   ShowMessageFace("nuruko_fc1",0,0,2,34)
   ShowMessage("\\n<Nuruko>Kyuu!")
   0()
  EndIf()
  PictureClear(5)
  SetBattleBGM(bytes(0x04,0x08,0x6f,0x3a,0x0d,0x52,0x50,0x47,0x3a,0x3a,0x42,0x47,0x4d,0x08,0x3a,0x0a,0x40,0x6e,0x61,0x6d,0x65,0x49,0x22,0x10,0x62,0x6f,0x73,0x73,0x5f,0x72,0x69,0x6b,0x75,0x73,0x6f,0x06,0x3a,0x06,0x45,0x54,0x3a,0x0c,0x40,0x76,0x6f,0x6c,0x75,0x6d,0x65,0x69,0x69,0x3a,0x0b,0x40,0x70,0x69,0x74,0x63,0x68,0x69,0x69))
  RunCommonEvent(10)
  Battle(0,874,false,false)
  RunCommonEvent(11)
  SetBattleBGM(bytes(0x04,0x08,0x6f,0x3a,0x0d,0x52,0x50,0x47,0x3a,0x3a,0x42,0x47,0x4d,0x08,0x3a,0x0a,0x40,0x6e,0x61,0x6d,0x65,0x49,0x22,0x0b,0x62,0x61,0x74,0x74,0x6c,0x65,0x06,0x3a,0x06,0x45,0x54,0x3a,0x0c,0x40,0x76,0x6f,0x6c,0x75,0x6d,0x65,0x69,0x69,0x3a,0x0b,0x40,0x70,0x69,0x74,0x63,0x68,0x69,0x69))
  355("gain_medal(3008)")
  241(bytes(0x04,0x08,0x6f,0x3a,0x0d,0x52,0x50,0x47,0x3a,0x3a,0x42,0x47,0x4d,0x08,0x3a,0x0a,0x40,0x6e,0x61,0x6d,0x65,0x49,0x22,0x0c,0x62,0x6f,0x73,0x73,0x30,0x2d,0x33,0x06,0x3a,0x06,0x45,0x54,0x3a,0x0c,0x40,0x76,0x6f,0x6c,0x75,0x6d,0x65,0x69,0x69,0x3a,0x0b,0x40,0x70,0x69,0x74,0x63,0x68,0x69,0x69))
  PictureDisplay(5,"80_tamamo_st63b",0,0,0,0,100,100,0,0)
  PictureMove(5,null,0,0,0,0,100,100,255,0,30,true)
  ShowMessageFace("tamamo_fc3",2,0,2,35)
  ShowMessage("\\n<Tamamo no Mae>I see, you're quite strong yourselves. But no matter!")
  212(-1,640,true)
  ShowMessageFace("ruka_fc1",0,0,2,36)
  ShowMessage("\\n<Luka>Whoa!!")
  ChangeSwitch(2265,2265,0)
  EndEventProcessing()
  0()
 PAGE   2
  // condition: variable 1001 >= 29
  0()



EVENT   7
 PAGE   1
  250(bytes(0x04,0x08,0x6f,0x3a,0x0c,0x52,0x50,0x47,0x3a,0x3a,0x53,0x45,0x08,0x3a,0x0a,0x40,0x6e,0x61,0x6d,0x65,0x49,0x22,0x0a,0x43,0x68,0x65,0x73,0x74,0x06,0x3a,0x06,0x45,0x54,0x3a,0x0b,0x40,0x70,0x69,0x74,0x63,0x68,0x69,0x69,0x3a,0x0c,0x40,0x76,0x6f,0x6c,0x75,0x6d,0x65,0x69,0x55))
  205(0,bytes(0x04,0x08,0x6f,0x3a,0x13,0x52,0x50,0x47,0x3a,0x3a,0x4d,0x6f,0x76,0x65,0x52,0x6f,0x75,0x74,0x65,0x09,0x3a,0x0c,0x40,0x72,0x65,0x70,0x65,0x61,0x74,0x46,0x3a,0x0f,0x40,0x73,0x6b,0x69,0x70,0x70,0x61,0x62,0x6c,0x65,0x46,0x3a,0x0a,0x40,0x77,0x61,0x69,0x74,0x54,0x3a,0x0a,0x40,0x6c,0x69,0x73,0x74,0x5b,0x0b,0x6f,0x3a,0x15,0x52,0x50,0x47,0x3a,0x3a,0x4d,0x6f,0x76,0x65,0x43,0x6f,0x6d,0x6d,0x61,0x6e,0x64,0x07,0x3a,0x0a,0x40,0x63,0x6f,0x64,0x65,0x69,0x29,0x3a,0x10,0x40,0x70,0x61,0x72,0x61,0x6d,0x65,0x74,0x65,0x72,0x73,0x5b,0x00,0x6f,0x3b,0x0a,0x07,0x3b,0x0b,0x69,0x16,0x3b,0x0c,0x5b,0x00,0x6f,0x3b,0x0a,0x07,0x3b,0x0b,0x69,0x14,0x3b,0x0c,0x5b,0x06,0x69,0x08,0x6f,0x3b,0x0a,0x07,0x3b,0x0b,0x69,0x17,0x3b,0x0c,0x5b,0x00,0x6f,0x3b,0x0a,0x07,0x3b,0x0b,0x69,0x14,0x3b,0x0c,0x5b,0x06,0x69,0x08,0x6f,0x3b,0x0a,0x07,0x3b,0x0b,0x69,0x00,0x3b,0x0c,0x5b,0x00))
  ChangeSelfSwitch("A",0)
  ChangeInventory_Item(29,0,0,1)
  0()
 PAGE   2
  // condition: self-switch A is ON
  0()



EVENT   8
 PAGE   1
  // condition: switch 31 is ON
  0()



EVENT   9
 PAGE   1
  // condition: switch 32 is ON
  0()
 PAGE   2
  // condition: switch 33 is ON
  0()



EVENT   10
 PAGE   1
  // condition: switch 34 is ON
  0()
 PAGE   2
  // condition: switch 35 is ON
  0()



EVENT   11
 PAGE   1
  // condition: switch 34 is ON
  0()
 PAGE   2
  // condition: switch 35 is ON
  0()



EVENT   12
 PAGE   1
  250(bytes(0x04,0x08,0x6f,0x3a,0x0c,0x52,0x50,0x47,0x3a,0x3a,0x53,0x45,0x08,0x3a,0x0a,0x40,0x6e,0x61,0x6d,0x65,0x49,0x22,0x0a,0x49,0x74,0x65,0x6d,0x31,0x06,0x3a,0x06,0x45,0x54,0x3a,0x0b,0x40,0x70,0x69,0x74,0x63,0x68,0x69,0x69,0x3a,0x0c,0x40,0x76,0x6f,0x6c,0x75,0x6d,0x65,0x69,0x55))
  ChangeSelfSwitch("A",0)
  ChangeInventory_Item(22,0,0,1)
  0()
 PAGE   2
  // condition: self-switch A is ON
  0()



EVENT   13
 PAGE   1
  // condition: switch 4 is ON
  0()
 PAGE   2
  // condition: switch 5 is ON
  0()
 PAGE   3
  // condition: variable 1063 >= 13
  0()



EVENT   14
 PAGE   1
  // condition: switch 4 is ON
  0()
 PAGE   2
  // condition: switch 5 is ON
  0()
 PAGE   3
  // condition: variable 1063 >= 13
  0()



EVENT   15
 PAGE   1
  0()
 PAGE   2
  // condition: variable 1001 >= 29
  0()



EVENT   16
 PAGE   1
  0()
 PAGE   2
  // condition: variable 1001 >= 29
  0()



EVENT   17
 PAGE   1
  0()
 PAGE   2
  // condition: variable 1001 >= 29
  0()



EVENT   18
 PAGE   1
  241(bytes(0x04,0x08,0x6f,0x3a,0x0d,0x52,0x50,0x47,0x3a,0x3a,0x42,0x47,0x4d,0x08,0x3a,0x0a,0x40,0x6e,0x61,0x6d,0x65,0x49,0x22,0x0a,0x6b,0x69,0x6b,0x69,0x32,0x06,0x3a,0x06,0x45,0x54,0x3a,0x0c,0x40,0x76,0x6f,0x6c,0x75,0x6d,0x65,0x69,0x69,0x3a,0x0b,0x40,0x70,0x69,0x74,0x63,0x68,0x69,0x69))
  205(-1,bytes(0x04,0x08,0x6f,0x3a,0x13,0x52,0x50,0x47,0x3a,0x3a,0x4d,0x6f,0x76,0x65,0x52,0x6f,0x75,0x74,0x65,0x09,0x3a,0x0c,0x40,0x72,0x65,0x70,0x65,0x61,0x74,0x46,0x3a,0x0f,0x40,0x73,0x6b,0x69,0x70,0x70,0x61,0x62,0x6c,0x65,0x46,0x3a,0x0a,0x40,0x77,0x61,0x69,0x74,0x54,0x3a,0x0a,0x40,0x6c,0x69,0x73,0x74,0x5b,0x07,0x6f,0x3a,0x15,0x52,0x50,0x47,0x3a,0x3a,0x4d,0x6f,0x76,0x65,0x43,0x6f,0x6d,0x6d,0x61,0x6e,0x64,0x07,0x3a,0x0a,0x40,0x63,0x6f,0x64,0x65,0x69,0x15,0x3a,0x10,0x40,0x70,0x61,0x72,0x61,0x6d,0x65,0x74,0x65,0x72,0x73,0x5b,0x00,0x6f,0x3b,0x0a,0x07,0x3b,0x0b,0x69,0x00,0x3b,0x0c,0x5b,0x00))
  If(0,4,0)
   ShowMessageFace("alice_fc6",0,0,2,1)
   ShowMessage("\\n<Alice>Wait, is that...!")
   0()
  EndIf()
  If(0,5,0)
   ShowMessageFace("iriasu_fc4",7,0,2,2)
   ShowMessage("\\n<Ilias>Wait, is she...!")
   0()
  EndIf()
  205(-1,bytes(0x04,0x08,0x6f,0x3a,0x13,0x52,0x50,0x47,0x3a,0x3a,0x4d,0x6f,0x76,0x65,0x52,0x6f,0x75,0x74,0x65,0x09,0x3a,0x0c,0x40,0x72,0x65,0x70,0x65,0x61,0x74,0x46,0x3a,0x0f,0x40,0x73,0x6b,0x69,0x70,0x70,0x61,0x62,0x6c,0x65,0x46,0x3a,0x0a,0x40,0x77,0x61,0x69,0x74,0x54,0x3a,0x0a,0x40,0x6c,0x69,0x73,0x74,0x5b,0x08,0x6f,0x3a,0x15,0x52,0x50,0x47,0x3a,0x3a,0x4d,0x6f,0x76,0x65,0x43,0x6f,0x6d,0x6d,0x61,0x6e,0x64,0x07,0x3a,0x0a,0x40,0x63,0x6f,0x64,0x65,0x69,0x06,0x3a,0x10,0x40,0x70,0x61,0x72,0x61,0x6d,0x65,0x74,0x65,0x72,0x73,0x5b,0x00,0x6f,0x3b,0x0a,0x07,0x3b,0x0b,0x69,0x06,0x3b,0x0c,0x5b,0x00,0x6f,0x3b,0x0a,0x07,0x3b,0x0b,0x69,0x00,0x3b,0x0c,0x5b,0x00))
  RunCommonEvent(338)
  0()
 PAGE   2
  // condition: switch 2192 is ON
  0()



EVENT   19
 PAGE   1
  241(bytes(0x04,0x08,0x6f,0x3a,0x0d,0x52,0x50,0x47,0x3a,0x3a,0x42,0x47,0x4d,0x08,0x3a,0x0a,0x40,0x6e,0x61,0x6d,0x65,0x49,0x22,0x0a,0x6b,0x69,0x6b,0x69,0x32,0x06,0x3a,0x06,0x45,0x54,0x3a,0x0c,0x40,0x76,0x6f,0x6c,0x75,0x6d,0x65,0x69,0x69,0x3a,0x0b,0x40,0x70,0x69,0x74,0x63,0x68,0x69,0x69))
  205(-1,bytes(0x04,0x08,0x6f,0x3a,0x13,0x52,0x50,0x47,0x3a,0x3a,0x4d,0x6f,0x76,0x65,0x52,0x6f,0x75,0x74,0x65,0x09,0x3a,0x0c,0x40,0x72,0x65,0x70,0x65,0x61,0x74,0x46,0x3a,0x0f,0x40,0x73,0x6b,0x69,0x70,0x70,0x61,0x62,0x6c,0x65,0x46,0x3a,0x0a,0x40,0x77,0x61,0x69,0x74,0x54,0x3a,0x0a,0x40,0x6c,0x69,0x73,0x74,0x5b,0x07,0x6f,0x3a,0x15,0x52,0x50,0x47,0x3a,0x3a,0x4d,0x6f,0x76,0x65,0x43,0x6f,0x6d,0x6d,0x61,0x6e,0x64,0x07,0x3a,0x0a,0x40,0x63,0x6f,0x64,0x65,0x69,0x15,0x3a,0x10,0x40,0x70,0x61,0x72,0x61,0x6d,0x65,0x74,0x65,0x72,0x73,0x5b,0x00,0x6f,0x3b,0x0a,0x07,0x3b,0x0b,0x69,0x00,0x3b,0x0c,0x5b,0x00))
  If(0,4,0)
   ShowMessageFace("alice_fc6",0,0,2,1)
   ShowMessage("\\n<Alice>Wait, is that...!")
   0()
  EndIf()
  If(0,5,0)
   ShowMessageFace("iriasu_fc4",7,0,2,2)
   ShowMessage("\\n<Ilias>Wait, is she...!")
   0()
  EndIf()
  205(-1,bytes(0x04,0x08,0x6f,0x3a,0x13,0x52,0x50,0x47,0x3a,0x3a,0x4d,0x6f,0x76,0x65,0x52,0x6f,0x75,0x74,0x65,0x09,0x3a,0x0c,0x40,0x72,0x65,0x70,0x65,0x61,0x74,0x46,0x3a,0x0f,0x40,0x73,0x6b,0x69,0x70,0x70,0x61,0x62,0x6c,0x65,0x46,0x3a,0x0a,0x40,0x77,0x61,0x69,0x74,0x54,0x3a,0x0a,0x40,0x6c,0x69,0x73,0x74,0x5b,0x07,0x6f,0x3a,0x15,0x52,0x50,0x47,0x3a,0x3a,0x4d,0x6f,0x76,0x65,0x43,0x6f,0x6d,0x6d,0x61,0x6e,0x64,0x07,0x3a,0x0a,0x40,0x63,0x6f,0x64,0x65,0x69,0x06,0x3a,0x10,0x40,0x70,0x61,0x72,0x61,0x6d,0x65,0x74,0x65,0x72,0x73,0x5b,0x00,0x6f,0x3b,0x0a,0x07,0x3b,0x0b,0x69,0x00,0x3b,0x0c,0x5b,0x00))
  RunCommonEvent(338)
  0()
 PAGE   2
  // condition: switch 2192 is ON
  0()



EVENT   20
 PAGE   1
  241(bytes(0x04,0x08,0x6f,0x3a,0x0d,0x52,0x50,0x47,0x3a,0x3a,0x42,0x47,0x4d,0x08,0x3a,0x0a,0x40,0x6e,0x61,0x6d,0x65,0x49,0x22,0x0a,0x6b,0x69,0x6b,0x69,0x32,0x06,0x3a,0x06,0x45,0x54,0x3a,0x0c,0x40,0x76,0x6f,0x6c,0x75,0x6d,0x65,0x69,0x69,0x3a,0x0b,0x40,0x70,0x69,0x74,0x63,0x68,0x69,0x69))
  205(-1,bytes(0x04,0x08,0x6f,0x3a,0x13,0x52,0x50,0x47,0x3a,0x3a,0x4d,0x6f,0x76,0x65,0x52,0x6f,0x75,0x74,0x65,0x09,0x3a,0x0c,0x40,0x72,0x65,0x70,0x65,0x61,0x74,0x46,0x3a,0x0f,0x40,0x73,0x6b,0x69,0x70,0x70,0x61,0x62,0x6c,0x65,0x46,0x3a,0x0a,0x40,0x77,0x61,0x69,0x74,0x54,0x3a,0x0a,0x40,0x6c,0x69,0x73,0x74,0x5b,0x07,0x6f,0x3a,0x15,0x52,0x50,0x47,0x3a,0x3a,0x4d,0x6f,0x76,0x65,0x43,0x6f,0x6d,0x6d,0x61,0x6e,0x64,0x07,0x3a,0x0a,0x40,0x63,0x6f,0x64,0x65,0x69,0x15,0x3a,0x10,0x40,0x70,0x61,0x72,0x61,0x6d,0x65,0x74,0x65,0x72,0x73,0x5b,0x00,0x6f,0x3b,0x0a,0x07,0x3b,0x0b,0x69,0x00,0x3b,0x0c,0x5b,0x00))
  If(0,4,0)
   ShowMessageFace("alice_fc6",0,0,2,1)
   ShowMessage("\\n<Alice>Wait, is that...!")
   0()
  EndIf()
  If(0,5,0)
   ShowMessageFace("iriasu_fc4",7,0,2,2)
   ShowMessage("\\n<Ilias>Wait, is she...!")
   0()
  EndIf()
  205(-1,bytes(0x04,0x08,0x6f,0x3a,0x13,0x52,0x50,0x47,0x3a,0x3a,0x4d,0x6f,0x76,0x65,0x52,0x6f,0x75,0x74,0x65,0x09,0x3a,0x0c,0x40,0x72,0x65,0x70,0x65,0x61,0x74,0x46,0x3a,0x0f,0x40,0x73,0x6b,0x69,0x70,0x70,0x61,0x62,0x6c,0x65,0x46,0x3a,0x0a,0x40,0x77,0x61,0x69,0x74,0x54,0x3a,0x0a,0x40,0x6c,0x69,0x73,0x74,0x5b,0x07,0x6f,0x3a,0x15,0x52,0x50,0x47,0x3a,0x3a,0x4d,0x6f,0x76,0x65,0x43,0x6f,0x6d,0x6d,0x61,0x6e,0x64,0x07,0x3a,0x0a,0x40,0x63,0x6f,0x64,0x65,0x69,0x15,0x3a,0x10,0x40,0x70,0x61,0x72,0x61,0x6d,0x65,0x74,0x65,0x72,0x73,0x5b,0x00,0x6f,0x3b,0x0a,0x07,0x3b,0x0b,0x69,0x00,0x3b,0x0c,0x5b,0x00))
  RunCommonEvent(338)
  0()
 PAGE   2
  // condition: switch 2192 is ON
  0()



EVENT   21
 PAGE   1
  ShowMessageFace("queenant_fc1",1,0,2,1)
  ShowMessage("\\n<Queen Ant>.........")
  ShowMessageFace("",0,0,2,2)
  ShowMessage("Queen Ant seems ashamed of her own powerlessness...")
  0()
 PAGE   2
  // condition: variable 1001 >= 29
  0()



EVENT   22
 PAGE   1
  // condition: switch 4 is ON
  ShowMessageFace("iriasu_fc4",2,0,2,1)
  ShowMessage("\\n<Ilias>Help me...\nPlease open the cell door...")
  If(0,2190,0)
   ShowMessageFace("alice_fc5",6,0,2,2)
   ShowMessage("\\n<Alice>You got captured AGAIN!?")
   0()
  Else()
   ShowMessageFace("alice_fc5",6,0,2,3)
   ShowMessage("\\n<Alice>You got captured!?")
   0()
  EndIf()
  ShowMessageFace("iriasu_fc4",2,0,2,4)
  ShowMessage("\\n<Ilias>Let me out of here, please...\nI'm so hungry...")
  If(0,6,0)
   ShowMessageFace("sonia_fc2",2,0,2,5)
   ShowMessage("\\n<Sonya>She doesn't even have enough energy to act haughty. She must be completely worn down.")
   0()
  Else()
   ShowMessageFace("ruka_fc1",0,0,2,6)
   ShowMessage("\\n<Luka>She doesn't even have enough energy to act haughty. She has to be in really bad shape.")
   0()
  EndIf()
  ShowMessageFace("dog_fc1",0,0,2,7)
  ShowMessage("\\n<Wanko>*sniffle* *sniffle*")
  ShowMessageFace("slime_fc1",2,0,2,8)
  ShowMessage("\\n<Puruko>Save us!")
  ShowMessageFace("alice_fc5",5,0,2,9)
  ShowMessage("\\n<Alice>What a pitiful party...\nToo bad for you, these cells can't be unlocked from this side either.")
  If(12,"exist_party_persona_id?(391)")
   ShowMessageFace("mefist_fc2",0,0,2,10)
   ShowMessage("\\n<Mephisto>Even if we had the key, we wouldn't open it.")
   0()
  Else()
   ShowMessageFace("mefist_fc1",0,0,2,11)
   ShowMessage("\\n<Mephisto>Even if we had the key, we wouldn't open it.")
   0()
  EndIf()
  ShowMessageFace("iriasu_fc4",4,0,2,12)
  ShowMessage("\\n<Ilias>.........")
  If(0,6,0)
   ShowMessageFace("sonia_fc1",5,0,2,13)
   ShowMessage("\\n<Sonya>HEY! No bullying!")
   0()
  Else()
   ShowMessageFace("ruka_fc1",0,0,2,14)
   ShowMessage("\\n<Luka>Don't bully them...")
   0()
  EndIf()
  ShowMessageFace("alice_fc5",0,0,2,15)
  ShowMessage("\\n<Alice>Fine, whatever.\nSit tight and we'll defeat Lilith and open it for you.")
  ShowMessageFace("iriasu_fc4",4,0,2,16)
  ShowMessage("\\n<Ilias>.........")
  ShowMessageFace("",0,0,2,17)
  ShowMessage("I guess we should hurry up and defeat the Lilith sisters to free them...")
  0()
 PAGE   2
  // condition: switch 5 is ON
  ShowMessageFace("alice_fc5",1,0,2,1)
  ShowMessage("\\n<Alice>Operation Infiltrate Grangold Palace: Success!")
  If(0,2190,0)
   ShowMessageFace("iriasu_fc4",5,0,2,2)
   ShowMessage("\\n<Ilias>Have you learned absolutely nothing!?")
   0()
  Else()
   ShowMessageFace("iriasu_fc4",5,0,2,3)
   ShowMessage("\\n<Ilias>How is this not a complete failure!?")
   0()
  EndIf()
  ShowMessageFace("bunnyslime_fc1",2,0,2,4)
  ShowMessage("\\n<Usako>I miss carrots...")
  ShowMessageFace("youko_fc1",2,0,2,5)
  ShowMessage("\\n<Mofuyu>I miss tofu...")
  ShowMessageFace("iriasu_fc4",2,0,2,6)
  ShowMessage("\\n<Ilias>What a pitiful party...\nUnfortunately for you, these cells do not open from this side either.")
  ShowMessageFace("iriasu_fc4",1,0,2,7)
  ShowMessage("\\n<Ilias>Well, not like we'd open it even if we had the key.")
  ShowMessageFace("alice_fc6",1,0,2,8)
  ShowMessage("\\n<Alice>Damn you, petty goddess!")
  ShowMessageFace("iriasu_fc5",0,0,2,9)
  ShowMessage("\\n<Ilias>That's rich coming from the Monster Lord!")
  ShowMessageFace("alice_fc6",1,0,2,10)
  ShowMessage("\\n<Alice>Low life!")
  ShowMessageFace("iriasu_fc5",0,0,2,11)
  ShowMessage("\\n<Ilias>No you!")
  ShowMessageFace("ruka_fc1",0,0,2,12)
  ShowMessage("\\n<Luka>Seriously...")
  If(12,"exist_party_persona_id?(391)")
   ShowMessageFace("mefist_fc2",2,0,2,13)
   ShowMessage("\\n<Mephisto>My students are more mature.")
   0()
  Else()
   ShowMessageFace("mefist_fc1",2,0,2,14)
   ShowMessage("\\n<Mephisto>My students are more mature.")
   0()
  EndIf()
  ShowMessageFace("alice_fc6",1,0,2,15)
  ShowMessage("\\n<Alice>I believe there's still good in this world! I believe in the hope you turned your back on!")
  ShowMessageFace("iriasu_fc5",0,0,2,16)
  ShowMessage("\\n<Ilias>Fool! Let me crush that hope then, and you can perish with the rest of this world!")
  If(0,6,0)
   ShowMessageFace("sonia_fc4",0,0,2,17)
   ShowMessage("\\n<Sonya>Save those lines for the final boss battle...\nCome on, let's go.")
   0()
  Else()
   ShowMessageFace("ruka_fc1",0,0,2,18)
   ShowMessage("\\n<Luka>Save those lines for the final boss battle...\nCome on, let's go.")
   0()
  EndIf()
  ShowMessageFace("iriasu_fc5",0,0,2,19)
  ShowMessage("\\n<Ilias>You're gonna be stuck in there forever!")
  ShowMessageFace("alice_fc6",1,0,2,20)
  ShowMessage("\\n<Alice>Hmph! I can escape from such a simple cell on my own!")
  ShowMessageFace("alice_fc5",3,0,2,21)
  ShowMessage("\\n<Alice>.........")
  ShowMessageFace("ruka_fc1",0,0,2,22)
  ShowMessage("\\n<Luka>She's really stubborn...")
  ShowMessageFace("",0,0,2,23)
  ShowMessage("I guess we should hurry up and defeat the Lilith sisters to free them...")
  0()
 PAGE   3
  // condition: variable 1063 >= 13
  0()



EVENT   23
 PAGE   1
  If(0,2194,1)
   ChangeSwitch(2194,2194,0)
   If(0,4,0)
    ShowMessageFace("alice_fc5",0,0,2,1)
    ShowMessage("\\n<Alice>The cell doesn't have a lock...\nIs it being sealed magically?")
    0()
   EndIf()
   If(0,5,0)
    ShowMessageFace("iriasu_fc4",2,0,2,2)
    ShowMessage("\\n<Ilias>The cell does not have a lock...\nIt must be sealed magically.")
    0()
   EndIf()
   If(12,"exist_party_persona_id?(391)")
    ShowMessageFace("mefist_fc2",0,0,2,3)
    ShowMessage("\\n<Mephisto>It should unlock when we defeat the one who placed the spell on it, namely the Queen.")
    0()
   Else()
    ShowMessageFace("mefist_fc1",0,0,2,4)
    ShowMessage("\\n<Mephisto>It should unlock when we defeat the one who placed the spell on it, namely the Queen.")
    0()
   EndIf()
   0()
  EndIf()
  0()
 PAGE   2
  // condition: variable 1001 >= 29
  0()



EVENT   24
 PAGE   1
  // condition: switch 2265 is ON
  RunCommonEvent(11)
  ChangeSwitch(2265,2265,1)
  205(-1,bytes(0x04,0x08,0x6f,0x3a,0x13,0x52,0x50,0x47,0x3a,0x3a,0x4d,0x6f,0x76,0x65,0x52,0x6f,0x75,0x74,0x65,0x09,0x3a,0x0c,0x40,0x72,0x65,0x70,0x65,0x61,0x74,0x46,0x3a,0x0f,0x40,0x73,0x6b,0x69,0x70,0x70,0x61,0x62,0x6c,0x65,0x46,0x3a,0x0a,0x40,0x77,0x61,0x69,0x74,0x54,0x3a,0x0a,0x40,0x6c,0x69,0x73,0x74,0x5b,0x07,0x6f,0x3a,0x15,0x52,0x50,0x47,0x3a,0x3a,0x4d,0x6f,0x76,0x65,0x43,0x6f,0x6d,0x6d,0x61,0x6e,0x64,0x07,0x3a,0x0a,0x40,0x63,0x6f,0x64,0x65,0x69,0x18,0x3a,0x10,0x40,0x70,0x61,0x72,0x61,0x6d,0x65,0x74,0x65,0x72,0x73,0x5b,0x00,0x6f,0x3b,0x0a,0x07,0x3b,0x0b,0x69,0x00,0x3b,0x0c,0x5b,0x00))
  241(bytes(0x04,0x08,0x6f,0x3a,0x0d,0x52,0x50,0x47,0x3a,0x3a,0x42,0x47,0x4d,0x08,0x3a,0x0a,0x40,0x6e,0x61,0x6d,0x65,0x49,0x22,0x0c,0x62,0x6f,0x73,0x73,0x30,0x2d,0x33,0x06,0x3a,0x06,0x45,0x54,0x3a,0x0c,0x40,0x76,0x6f,0x6c,0x75,0x6d,0x65,0x69,0x69,0x3a,0x0b,0x40,0x70,0x69,0x74,0x63,0x68,0x69,0x69))
  PictureDisplay(5,"80_tamamo_st61b",0,0,0,0,100,100,0,0)
  PictureMove(5,null,0,0,0,0,100,100,255,0,60,true)
  If(0,4,0)
   ShowMessageFace("alice_fc6",0,0,2,1)
   ShowMessage("\\n<Alice>I can't believe it... She's so strong...")
   0()
  EndIf()
  If(0,5,0)
   ShowMessageFace("iriasu_fc4",2,0,2,2)
   ShowMessage("\\n<Ilias>I knew I didn't stand a chance in this form...")
   0()
  EndIf()
  ShowMessageFace("tamamo_fc3",0,0,2,3)
  ShowMessage("\\n<Tamamo no Mae>Kukuku... You're all fools to oppose me. The people of this era are trash compared to the Six Ancestors.")
  PictureClear(5)
  Wait(60)
  242(1)
  ShowMessageFace("tamamo_fc1",0,0,2,4)
  ShowMessage("\\n<Tamamo>My my, it appears the party already started...")
  241(bytes(0x04,0x08,0x6f,0x3a,0x0d,0x52,0x50,0x47,0x3a,0x3a,0x42,0x47,0x4d,0x08,0x3a,0x0a,0x40,0x6e,0x61,0x6d,0x65,0x49,0x22,0x0b,0x74,0x61,0x6d,0x61,0x6d,0x6f,0x06,0x3a,0x06,0x45,0x54,0x3a,0x0c,0x40,0x76,0x6f,0x6c,0x75,0x6d,0x65,0x69,0x69,0x3a,0x0b,0x40,0x70,0x69,0x74,0x63,0x68,0x69,0x69))
  ChangeSwitch(32,32,0)
  205(-1,bytes(0x04,0x08,0x6f,0x3a,0x13,0x52,0x50,0x47,0x3a,0x3a,0x4d,0x6f,0x76,0x65,0x52,0x6f,0x75,0x74,0x65,0x09,0x3a,0x0c,0x40,0x72,0x65,0x70,0x65,0x61,0x74,0x46,0x3a,0x0f,0x40,0x73,0x6b,0x69,0x70,0x70,0x61,0x62,0x6c,0x65,0x46,0x3a,0x0a,0x40,0x77,0x61,0x69,0x74,0x54,0x3a,0x0a,0x40,0x6c,0x69,0x73,0x74,0x5b,0x07,0x6f,0x3a,0x15,0x52,0x50,0x47,0x3a,0x3a,0x4d,0x6f,0x76,0x65,0x43,0x6f,0x6d,0x6d,0x61,0x6e,0x64,0x07,0x3a,0x0a,0x40,0x63,0x6f,0x64,0x65,0x69,0x15,0x3a,0x10,0x40,0x70,0x61,0x72,0x61,0x6d,0x65,0x74,0x65,0x72,0x73,0x5b,0x00,0x6f,0x3b,0x0a,0x07,0x3b,0x0b,0x69,0x00,0x3b,0x0c,0x5b,0x00))
  205(9,bytes(0x04,0x08,0x6f,0x3a,0x13,0x52,0x50,0x47,0x3a,0x3a,0x4d,0x6f,0x76,0x65,0x52,0x6f,0x75,0x74,0x65,0x09,0x3a,0x0c,0x40,0x72,0x65,0x70,0x65,0x61,0x74,0x46,0x3a,0x0f,0x40,0x73,0x6b,0x69,0x70,0x70,0x61,0x62,0x6c,0x65,0x46,0x3a,0x0a,0x40,0x77,0x61,0x69,0x74,0x54,0x3a,0x0a,0x40,0x6c,0x69,0x73,0x74,0x5b,0x0a,0x6f,0x3a,0x15,0x52,0x50,0x47,0x3a,0x3a,0x4d,0x6f,0x76,0x65,0x43,0x6f,0x6d,0x6d,0x61,0x6e,0x64,0x07,0x3a,0x0a,0x40,0x63,0x6f,0x64,0x65,0x69,0x09,0x3a,0x10,0x40,0x70,0x61,0x72,0x61,0x6d,0x65,0x74,0x65,0x72,0x73,0x5b,0x00,0x6f,0x3b,0x0a,0x07,0x3b,0x0b,0x69,0x09,0x3b,0x0c,0x5b,0x00,0x6f,0x3b,0x0a,0x07,0x3b,0x0b,0x69,0x09,0x3b,0x0c,0x5b,0x00,0x6f,0x3b,0x0a,0x07,0x3b,0x0b,0x69,0x09,0x3b,0x0c,0x5b,0x00,0x6f,0x3b,0x0a,0x07,0x3b,0x0b,0x69,0x00,0x3b,0x0c,0x5b,0x00))
  If(0,4,0)
   ShowMessageFace("alice_fc5",6,0,2,5)
   ShowMessage("\\n<Alice>Another Tamamo!?\nYou're the Tamamo I know, aren't you!?")
   0()
  EndIf()
  If(0,5,0)
   ShowMessageFace("iriasu_fc4",5,0,2,6)
   ShowMessage("\\n<Ilias>Another Tamamo!?\nYou're the Tamamo from this world, are you not!?")
   0()
  EndIf()
  ShowMessageFace("ruka_fc1",0,0,2,7)
  ShowMessage("\\n<Luka>You came to help us, after all!")
  PictureDisplay(5,"80_tamamo_st04",0,0,0,0,100,100,0,0)
  PictureMove(5,null,0,0,0,0,100,100,255,0,30,true)
  ShowMessageFace("tamamo_fc1",1,0,2,8)
  ShowMessage("\\n<Tamamo>Mmn, after Alma Elma gave me a kick in the rear, I eventually realized she was right. I can't waste away the rest of my time on this earth.")
  250(bytes(0x04,0x08,0x6f,0x3a,0x0c,0x52,0x50,0x47,0x3a,0x3a,0x53,0x45,0x08,0x3a,0x0a,0x40,0x6e,0x61,0x6d,0x65,0x49,0x22,0x0a,0x48,0x65,0x61,0x6c,0x37,0x06,0x3a,0x06,0x45,0x54,0x3a,0x0b,0x40,0x70,0x69,0x74,0x63,0x68,0x69,0x69,0x3a,0x0c,0x40,0x76,0x6f,0x6c,0x75,0x6d,0x65,0x69,0x55))
  224(bytes(0x04,0x08,0x75,0x3a,0x0a,0x43,0x6f,0x6c,0x6f,0x72,0x25,0x00,0x00,0x00,0x00,0x00,0xe0,0x6f,0x40,0x00,0x00,0x00,0x00,0x00,0xe0,0x6f,0x40,0x00,0x00,0x00,0x00,0x00,0xe0,0x6f,0x40,0x00,0x00,0x00,0x00,0x00,0xe0,0x6f,0x40),30,true)
  314(0,0)
  ShowMessageFace("",0,0,2,9)
  ShowMessage("Tamamo uses a Last Elixir!\nThe party's HP and MP have been fully restored!")
  ShowMessageFace("tamamo_fc1",1,0,2,10)
  ShowMessage("\\n<Tamamo>On the way here, I encountered a modified human fighting some yakuza. I beat up the modified human. That was the right call, was it not?")
  If(0,6,0)
   ShowMessageFace("sonia_fc3",6,0,2,11)
   ShowMessage("\\n<Sonya>So you helped Uncle Lazarus too...\nThanks, Tamamo!")
   0()
  Else()
   ShowMessageFace("ruka_fc1",0,0,2,12)
   ShowMessage("\\n<Luka>I'm glad to hear Uncle Lazarus and Merlin are safe!")
   0()
  EndIf()
  PictureClear(5)
  Wait(60)
  241(bytes(0x04,0x08,0x6f,0x3a,0x0d,0x52,0x50,0x47,0x3a,0x3a,0x42,0x47,0x4d,0x08,0x3a,0x0a,0x40,0x6e,0x61,0x6d,0x65,0x49,0x22,0x0a,0x6b,0x69,0x6b,0x69,0x32,0x06,0x3a,0x06,0x45,0x54,0x3a,0x0c,0x40,0x76,0x6f,0x6c,0x75,0x6d,0x65,0x69,0x69,0x3a,0x0b,0x40,0x70,0x69,0x74,0x63,0x68,0x69,0x69))
  205(-1,bytes(0x04,0x08,0x6f,0x3a,0x13,0x52,0x50,0x47,0x3a,0x3a,0x4d,0x6f,0x76,0x65,0x52,0x6f,0x75,0x74,0x65,0x09,0x3a,0x0c,0x40,0x72,0x65,0x70,0x65,0x61,0x74,0x46,0x3a,0x0f,0x40,0x73,0x6b,0x69,0x70,0x70,0x61,0x62,0x6c,0x65,0x46,0x3a,0x0a,0x40,0x77,0x61,0x69,0x74,0x54,0x3a,0x0a,0x40,0x6c,0x69,0x73,0x74,0x5b,0x07,0x6f,0x3a,0x15,0x52,0x50,0x47,0x3a,0x3a,0x4d,0x6f,0x76,0x65,0x43,0x6f,0x6d,0x6d,0x61,0x6e,0x64,0x07,0x3a,0x0a,0x40,0x63,0x6f,0x64,0x65,0x69,0x18,0x3a,0x10,0x40,0x70,0x61,0x72,0x61,0x6d,0x65,0x74,0x65,0x72,0x73,0x5b,0x00,0x6f,0x3b,0x0a,0x07,0x3b,0x0b,0x69,0x00,0x3b,0x0c,0x5b,0x00))
  250(bytes(0x04,0x08,0x6f,0x3a,0x0c,0x52,0x50,0x47,0x3a,0x3a,0x53,0x45,0x08,0x3a,0x0a,0x40,0x6e,0x61,0x6d,0x65,0x49,0x22,0x10,0x6d,0x6f,0x6e,0x5f,0x74,0x61,0x6d,0x61,0x6d,0x6f,0x32,0x06,0x3a,0x06,0x45,0x54,0x3a,0x0b,0x40,0x70,0x69,0x74,0x63,0x68,0x69,0x69,0x3a,0x0c,0x40,0x76,0x6f,0x6c,0x75,0x6d,0x65,0x69,0x55))
  205(9,bytes(0x04,0x08,0x6f,0x3a,0x13,0x52,0x50,0x47,0x3a,0x3a,0x4d,0x6f,0x76,0x65,0x52,0x6f,0x75,0x74,0x65,0x09,0x3a,0x0c,0x40,0x72,0x65,0x70,0x65,0x61,0x74,0x46,0x3a,0x0f,0x40,0x73,0x6b,0x69,0x70,0x70,0x61,0x62,0x6c,0x65,0x46,0x3a,0x0a,0x40,0x77,0x61,0x69,0x74,0x46,0x3a,0x0a,0x40,0x6c,0x69,0x73,0x74,0x5b,0x07,0x6f,0x3a,0x15,0x52,0x50,0x47,0x3a,0x3a,0x4d,0x6f,0x76,0x65,0x43,0x6f,0x6d,0x6d,0x61,0x6e,0x64,0x07,0x3a,0x0a,0x40,0x63,0x6f,0x64,0x65,0x69,0x13,0x3a,0x10,0x40,0x70,0x61,0x72,0x61,0x6d,0x65,0x74,0x65,0x72,0x73,0x5b,0x07,0x69,0x00,0x69,0xf6,0x6f,0x3b,0x0a,0x07,0x3b,0x0b,0x69,0x00,0x3b,0x0c,0x5b,0x00))
  Wait(60)
  PictureDisplay(5,"80_tamamo_st01",0,0,0,0,100,100,0,0)
  PictureMove(5,null,0,0,0,0,100,100,255,0,30,true)
  ShowMessageFace("tamamo_fc1",0,0,2,13)
  ShowMessage("\\n<Tamamo>Well now... This level of opponent is too much for you. Shall I take over?")
  PictureDisplay(6,"80_tamamo_st01",0,0,-200,0,100,100,255,0)
  PictureDisplay(5,"80_tamamo_st61b",0,0,200,0,100,100,255,0)
  ShowMessageFace("tamamo_fc3",0,0,2,14)
  ShowMessage("\\n<Tamamo no Mae>Hohoo, you're me from this world?\nI heard your body had already been sealed.")
  PictureClear(6)
  PictureDisplay(5,"80_tamamo_st05",0,0,0,0,100,100,255,0)
  ShowMessageFace("tamamo_fc1",4,0,2,15)
  ShowMessage("\\n<Tamamo>I ask thee, eternal time:\nReveal my body, yoked in twilight.")
  250(bytes(0x04,0x08,0x6f,0x3a,0x0c,0x52,0x50,0x47,0x3a,0x3a,0x53,0x45,0x08,0x3a,0x0a,0x40,0x6e,0x61,0x6d,0x65,0x49,0x22,0x0e,0x44,0x61,0x72,0x6b,0x6e,0x65,0x73,0x73,0x31,0x06,0x3a,0x06,0x45,0x54,0x3a,0x0b,0x40,0x70,0x69,0x74,0x63,0x68,0x69,0x69,0x3a,0x0c,0x40,0x76,0x6f,0x6c,0x75,0x6d,0x65,0x69,0x55))
  PictureDisplay(10,"sys_white",0,0,0,0,100,100,0,0)
  PictureMove(10,null,0,0,0,0,100,100,255,0,30,true)
  241(bytes(0x04,0x08,0x6f,0x3a,0x0d,0x52,0x50,0x47,0x3a,0x3a,0x42,0x47,0x4d,0x08,0x3a,0x0a,0x40,0x6e,0x61,0x6d,0x65,0x49,0x22,0x12,0x73,0x63,0x65,0x6e,0x65,0x5f,0x62,0x61,0x74,0x74,0x6c,0x65,0x31,0x06,0x3a,0x06,0x45,0x54,0x3a,0x0c,0x40,0x76,0x6f,0x6c,0x75,0x6d,0x65,0x69,0x69,0x3a,0x0b,0x40,0x70,0x69,0x74,0x63,0x68,0x69,0x69))
  PictureDisplay(5,"80_tamamo_st51",0,0,0,0,100,100,255,0)
  PictureMove(10,null,0,0,0,0,100,100,0,0,30,true)
  ShowMessageFace("tamamo_fc2",0,0,2,16)
  ShowMessage("\\n<Tamamo>Behold my true form.")
  PictureDisplay(6,"80_tamamo_st52",0,0,-200,0,100,100,255,0)
  PictureDisplay(5,"80_tamamo_st64b",0,0,200,0,100,100,255,0)
  ShowMessageFace("tamamo_fc2",1,0,2,17)
  ShowMessage("\\n<Tamamo no Mae>You shouldn't have any complaints now, Tamamo. Our powers are equally matched.")
  If(0,4,0)
   ShowMessageFace("alice_fc5",6,0,2,18)
   ShowMessage("\\n<Alice>That's what you truly look like!?")
   0()
  EndIf()
  If(0,5,0)
   ShowMessageFace("iriasu_fc4",2,0,2,19)
   ShowMessage("\\n<Ilias>You've returned to your original form, but you can't maintain it for very long--")
   0()
  EndIf()
  ShowMessageFace("tamamo_fc3",0,0,2,20)
  ShowMessage("\\n<Tamamo no Mae>Lilith, taking her on is not part of your job. Entertain the hero and his friends, instead.")
  PictureClear(6)
  PictureDisplay(5,"80_lilith2_st01b",0,0,0,0,100,100,255,0)
  ShowMessageFace("lilith2_fc1",0,0,2,21)
  ShowMessage("\\n<Lilith>Minagi is our master.\nWe aren't bound to obey your orders without question, even if you are Tamamo.")
  ShowMessageFace("lilith2_fc1",1,0,2,22)
  ShowMessage("\\n<Lilith>...However, I am willing to accept your proposal in this instance. I'll be glad to show the hero a wonderful time!")
  If(0,4,0)
   ShowMessageFace("alice_fc6",1,0,2,23)
   ShowMessage("\\n<Alice>Okay, leave Tamamo to Tamamo!\nWe'll take Lilith out!")
   0()
  EndIf()
  If(0,5,0)
   ShowMessageFace("iriasu_fc4",7,0,2,24)
   ShowMessage("\\n<Ilias>Let's defeat Lilith while the Tamamos beat each other up! Come on!")
   0()
  EndIf()
  ShowMessageFace("ruka_fc1",0,0,2,25)
  ShowMessage("\\n<Luka>Lilith, we won't let you and your sisters do as you please any longer! Let's settle this once and for all!")
  PictureClear(5)
  SetBattleBGM(bytes(0x04,0x08,0x6f,0x3a,0x0d,0x52,0x50,0x47,0x3a,0x3a,0x42,0x47,0x4d,0x08,0x3a,0x0a,0x40,0x6e,0x61,0x6d,0x65,0x49,0x22,0x10,0x62,0x6f,0x73,0x73,0x5f,0x6c,0x69,0x6c,0x69,0x74,0x68,0x06,0x3a,0x06,0x45,0x54,0x3a,0x0c,0x40,0x76,0x6f,0x6c,0x75,0x6d,0x65,0x69,0x69,0x3a,0x0b,0x40,0x70,0x69,0x74,0x63,0x68,0x69,0x69))
  ChangeSwitch(22,22,0)
  Battle(0,719,false,false)
  ChangeSwitch(22,22,1)
  SetBattleBGM(bytes(0x04,0x08,0x6f,0x3a,0x0d,0x52,0x50,0x47,0x3a,0x3a,0x42,0x47,0x4d,0x08,0x3a,0x0a,0x40,0x6e,0x61,0x6d,0x65,0x49,0x22,0x0b,0x62,0x61,0x74,0x74,0x6c,0x65,0x06,0x3a,0x06,0x45,0x54,0x3a,0x0c,0x40,0x76,0x6f,0x6c,0x75,0x6d,0x65,0x69,0x69,0x3a,0x0b,0x40,0x70,0x69,0x74,0x63,0x68,0x69,0x69))
  241(bytes(0x04,0x08,0x6f,0x3a,0x0d,0x52,0x50,0x47,0x3a,0x3a,0x42,0x47,0x4d,0x08,0x3a,0x0a,0x40,0x6e,0x61,0x6d,0x65,0x49,0x22,0x0c,0x62,0x6f,0x73,0x73,0x30,0x2d,0x32,0x06,0x3a,0x06,0x45,0x54,0x3a,0x0c,0x40,0x76,0x6f,0x6c,0x75,0x6d,0x65,0x69,0x69,0x3a,0x0b,0x40,0x70,0x69,0x74,0x63,0x68,0x69,0x69))
  PictureDisplay(5,"80_lilith2_st03b",0,0,0,0,100,100,0,0)
  PictureMove(5,null,0,0,0,0,100,100,255,0,30,true)
  ShowMessageFace("lilith2_fc1",2,0,2,26)
  ShowMessage("\\n<Lilith>I'm pretty sure I wasn't holding back...\nNevertheless, they still managed to push me this far...")
  ShowMessageFace("ruka_fc1",0,0,2,27)
  ShowMessage("\\n<Luka>We can do this!\nJust a little more and victory is ours!")
  ShowMessageFace("lilith2_fc1",2,0,2,28)
  ShowMessage("\\n<Lilith>I believe Astaroth was correct...\nIt may be preferable to include them in our plan, after all.")
  PictureDisplay(6,"80_lilith2_st01b",0,0,-200,0,100,100,255,0)
  PictureDisplay(5,"80_tamamo_st64b",0,0,200,0,100,100,255,0)
  ShowMessageFace("tamamo_fc3",3,0,2,29)
  ShowMessage("\\n<Tamamo no Mae>If you're going to let them live, then withdraw. If you fight with your full power, it will surely result in a fight to the death...")
  PictureClear(6)
  PictureDisplay(5,"80_lilith2_st01b",0,0,0,0,100,100,255,0)
  ShowMessageFace("lilith2_fc1",0,0,2,30)
  ShowMessage("\\n<Lilith>Then with your permission, I'll take my leave...\nHero, next time we meet, I'll explain our reasons to you.")
  If(0,4,0)
   ShowMessageFace("alice_fc6",1,0,2,31)
   ShowMessage("\\n<Alice>As if we'd listen to whatever they are!")
   0()
  EndIf()
  If(0,5,0)
   ShowMessageFace("iriasu_fc4",7,0,2,32)
   ShowMessage("\\n<Ilias>You really think we'd pay heed to your words, fiend!?")
   0()
  EndIf()
  ShowMessageFace("lilith2_fc1",0,0,2,33)
  ShowMessage("\\n<Lilith>Of course, you have no option but to listen.\nIf you want to save this world, there's no other way...")
  ShowMessageFace("lilith2_fc1",0,0,2,34)
  ShowMessage("\\n<Lilith>...So until we meet again.")
  PictureClear(5)
  Wait(60)
  250(bytes(0x04,0x08,0x6f,0x3a,0x0c,0x52,0x50,0x47,0x3a,0x3a,0x53,0x45,0x08,0x3a,0x0a,0x40,0x6e,0x61,0x6d,0x65,0x49,0x22,0x0e,0x6d,0x6f,0x6e,0x5f,0x77,0x69,0x6e,0x64,0x31,0x06,0x3a,0x06,0x45,0x54,0x3a,0x0b,0x40,0x70,0x69,0x74,0x63,0x68,0x69,0x69,0x3a,0x0c,0x40,0x76,0x6f,0x6c,0x75,0x6d,0x65,0x69,0x69))
  205(6,bytes(0x04,0x08,0x6f,0x3a,0x13,0x52,0x50,0x47,0x3a,0x3a,0x4d,0x6f,0x76,0x65,0x52,0x6f,0x75,0x74,0x65,0x09,0x3a,0x0c,0x40,0x72,0x65,0x70,0x65,0x61,0x74,0x46,0x3a,0x0f,0x40,0x73,0x6b,0x69,0x70,0x70,0x61,0x62,0x6c,0x65,0x46,0x3a,0x0a,0x40,0x77,0x61,0x69,0x74,0x54,0x3a,0x0a,0x40,0x6c,0x69,0x73,0x74,0x5b,0x07,0x6f,0x3a,0x15,0x52,0x50,0x47,0x3a,0x3a,0x4d,0x6f,0x76,0x65,0x43,0x6f,0x6d,0x6d,0x61,0x6e,0x64,0x07,0x3a,0x0a,0x40,0x63,0x6f,0x64,0x65,0x69,0x2c,0x3a,0x10,0x40,0x70,0x61,0x72,0x61,0x6d,0x65,0x74,0x65,0x72,0x73,0x5b,0x00,0x6f,0x3b,0x0a,0x07,0x3b,0x0b,0x69,0x00,0x3b,0x0c,0x5b,0x00))
  Wait(60)
  241(bytes(0x04,0x08,0x6f,0x3a,0x0d,0x52,0x50,0x47,0x3a,0x3a,0x42,0x47,0x4d,0x08,0x3a,0x0a,0x40,0x6e,0x61,0x6d,0x65,0x49,0x22,0x12,0x73,0x63,0x65,0x6e,0x65,0x5f,0x62,0x61,0x74,0x74,0x6c,0x65,0x31,0x06,0x3a,0x06,0x45,0x54,0x3a,0x0c,0x40,0x76,0x6f,0x6c,0x75,0x6d,0x65,0x69,0x69,0x3a,0x0b,0x40,0x70,0x69,0x74,0x63,0x68,0x69,0x69))
  PictureDisplay(6,"80_tamamo_st51",0,0,-200,0,100,100,0,0)
  PictureDisplay(5,"80_tamamo_st64b",0,0,200,0,100,100,0,0)
  PictureMove(6,null,0,0,-200,0,100,100,255,0,30,false)
  PictureMove(5,null,0,0,200,0,100,100,255,0,30,true)
  ShowMessageFace("tamamo_fc2",0,0,2,35)
  ShowMessage("\\n<Tamamo no Mae>It's just the two of us now, other me.")
  250(bytes(0x04,0x08,0x6f,0x3a,0x0c,0x52,0x50,0x47,0x3a,0x3a,0x53,0x45,0x08,0x3a,0x0a,0x40,0x6e,0x61,0x6d,0x65,0x49,0x22,0x0f,0x6d,0x6f,0x6e,0x5f,0x65,0x61,0x72,0x74,0x68,0x31,0x06,0x3a,0x06,0x45,0x54,0x3a,0x0b,0x40,0x70,0x69,0x74,0x63,0x68,0x69,0x69,0x3a,0x0c,0x40,0x76,0x6f,0x6c,0x75,0x6d,0x65,0x69,0x55))
  ShowMessageFace("",0,0,2,36)
  ShowMessage("The two Tamamos are locked in a magical duel!\nThey appear to be on even ground--")
  ShowMessageFace("tamamo_fc3",3,0,2,37)
  ShowMessage("\\n<Tamamo no Mae>I'll let the hero live, but not you.\nNot since you've abandoned your duty to the Dark Goddess.")
  ShowMessageFace("tamamo_fc2",0,0,2,38)
  ShowMessage("\\n<Tamamo no Mae>Hmph, duty? The one who's done nothing but indulge in her own desires to devour this country dares question my sense of duty? Don't make me laugh!")
  PictureDisplay(5,"80_tamamo_st61b",0,0,200,0,100,100,255,0)
  ShowMessageFace("tamamo_fc3",0,0,2,39)
  ShowMessage("\\n<Tamamo no Mae>I can tell that power of yours has a time limit.\nHow much do you have left? Barely a minute?")
  ShowMessageFace("tamamo_fc2",2,0,2,40)
  ShowMessage("\\n<Tamamo no Mae>.........")
  ShowMessageFace("tamamo_fc3",0,0,2,41)
  ShowMessage("\\n<Tamamo no Mae>Right on the mark? Then you don't have time to waste talking! Perish, Tamamo!")
  250(bytes(0x04,0x08,0x6f,0x3a,0x0c,0x52,0x50,0x47,0x3a,0x3a,0x53,0x45,0x08,0x3a,0x0a,0x40,0x6e,0x61,0x6d,0x65,0x49,0x22,0x0f,0x6d,0x6f,0x6e,0x5f,0x65,0x61,0x72,0x74,0x68,0x31,0x06,0x3a,0x06,0x45,0x54,0x3a,0x0b,0x40,0x70,0x69,0x74,0x63,0x68,0x69,0x69,0x3a,0x0c,0x40,0x76,0x6f,0x6c,0x75,0x6d,0x65,0x69,0x55))
  ShowMessageFace("",0,0,2,42)
  ShowMessage("Our Tamamo is being pushed back!\nHer power is starting to wane, and she's quickly losing ground--")
  PictureClear(5)
  PictureClear(6)
  Wait(60)
  ShowMessageFace("nero_fc1",0,0,2,43)
  ShowMessage("\\n<Nero>Don't give up!")
  241(bytes(0x04,0x08,0x6f,0x3a,0x0d,0x52,0x50,0x47,0x3a,0x3a,0x42,0x47,0x4d,0x08,0x3a,0x0a,0x40,0x6e,0x61,0x6d,0x65,0x49,0x22,0x0f,0x62,0x6f,0x73,0x73,0x5f,0x6d,0x61,0x6f,0x75,0x31,0x06,0x3a,0x06,0x45,0x54,0x3a,0x0c,0x40,0x76,0x6f,0x6c,0x75,0x6d,0x65,0x69,0x69,0x3a,0x0b,0x40,0x70,0x69,0x74,0x63,0x68,0x69,0x69))
  212(10,542,false)
  Wait(30)
  212(11,542,false)
  ChangeSwitch(34,34,0)
  Wait(60)
  PictureDisplay(5,"80_nero_st01",0,0,-175,0,100,100,0,0)
  PictureDisplay(6,"80_neris_st03",0,0,175,0,100,100,0,0)
  PictureMove(5,null,0,0,-175,0,100,100,255,0,30,false)
  PictureMove(6,null,0,0,175,0,100,100,255,0,30,true)
  ShowMessageFace("tamamo_fc3",2,0,2,44)
  ShowMessage("\\n<Tamamo no Mae>Who the hell are you!?")
  ShowMessageFace("nero_fc1",0,0,2,45)
  ShowMessage("\\n<Nero>Neris, go all out!")
  ShowMessageFace("neris_fc1",2,0,2,46)
  ShowMessage("\\n<Neris>All out?! You want me to blow this palace sky high!?")
  ChangeSwitch(35,35,0)
  250(bytes(0x04,0x08,0x6f,0x3a,0x0c,0x52,0x50,0x47,0x3a,0x3a,0x53,0x45,0x08,0x3a,0x0a,0x40,0x6e,0x61,0x6d,0x65,0x49,0x22,0x0e,0x44,0x61,0x72,0x6b,0x6e,0x65,0x73,0x73,0x31,0x06,0x3a,0x06,0x45,0x54,0x3a,0x0b,0x40,0x70,0x69,0x74,0x63,0x68,0x69,0x69,0x3a,0x0c,0x40,0x76,0x6f,0x6c,0x75,0x6d,0x65,0x69,0x55))
  PictureDisplay(5,"80_nero_st11",0,0,-175,0,100,100,255,0)
  ShowMessageFace("nero_fc2",0,0,2,47)
  ShowMessage("\\n<Nero>This isn't an opponent we can hold back against!\nGive her everything you've got!")
  250(bytes(0x04,0x08,0x6f,0x3a,0x0c,0x52,0x50,0x47,0x3a,0x3a,0x53,0x45,0x08,0x3a,0x0a,0x40,0x6e,0x61,0x6d,0x65,0x49,0x22,0x0e,0x44,0x61,0x72,0x6b,0x6e,0x65,0x73,0x73,0x31,0x06,0x3a,0x06,0x45,0x54,0x3a,0x0b,0x40,0x70,0x69,0x74,0x63,0x68,0x69,0x69,0x3a,0x0c,0x40,0x76,0x6f,0x6c,0x75,0x6d,0x65,0x69,0x55))
  PictureDisplay(6,"80_neris_st11",0,0,175,0,100,100,255,0)
  ShowMessageFace("neris_fc2",0,0,2,48)
  ShowMessage("\\n<Neris>OKAY! Here I go!")
  If(0,4,0)
   ShowMessageFace("alice_fc5",6,0,2,49)
   ShowMessage("\\n<Alice>You two...!?\nYou look like...!?")
   0()
  EndIf()
  If(0,5,0)
   ShowMessageFace("iriasu_fc4",5,0,2,50)
   ShowMessage("\\n<Ilias>You two...!?\nYou look like...!?")
   0()
  EndIf()
  PictureDisplay(6,"80_tamamo_st51",0,0,-200,0,100,100,255,0)
  PictureDisplay(5,"80_nero_st11b",0,0,200,0,100,100,255,0)
  ShowMessageFace("tamamo_fc2",2,0,2,51)
  ShowMessage("\\n<Tamamo no Mae>Just who are you, and why are you helping me?")
  ShowMessageFace("nero_fc2",0,0,2,52)
  ShowMessage("\\n<Nero>Save it for later, master!\nPlease sync up with us!")
  ShowMessageFace("tamamo_fc2",0,0,2,53)
  ShowMessage("\\n<Tamamo no Mae>I don't remember taking on any apprentices, but all right, let's go!")
  PictureClear(5)
  PictureClear(6)
  212(8,610,false)
  ShowMessageFace("",0,0,2,54)
  ShowMessage("Nero, Neris, and Tamamo combine their magical power!\nThe Tamamo from the other world is being overpowered--")
  ShowMessageFace("tamamo_fc3",2,0,2,55)
  ShowMessage("\\n<Tamamo no Mae>Such power... Nnngh...!!")
  212(8,583,true)
  250(bytes(0x04,0x08,0x6f,0x3a,0x0c,0x52,0x50,0x47,0x3a,0x3a,0x53,0x45,0x08,0x3a,0x0a,0x40,0x6e,0x61,0x6d,0x65,0x49,0x22,0x0f,0x6d,0x6f,0x6e,0x5f,0x65,0x61,0x72,0x74,0x68,0x31,0x06,0x3a,0x06,0x45,0x54,0x3a,0x0b,0x40,0x70,0x69,0x74,0x63,0x68,0x69,0x69,0x3a,0x0c,0x40,0x76,0x6f,0x6c,0x75,0x6d,0x65,0x69,0x69))
  If(0,4,0)
   ShowMessageFace("alice_fc6",0,0,2,56)
   ShowMessage("\\n<Alice>The palace isn't going to withstand this exchange of power! Luka, let's evacuate at once!")
   0()
  EndIf()
  If(0,5,0)
   ShowMessageFace("iriasu_fc4",7,0,2,57)
   ShowMessage("\\n<Ilias>Such power... It's on par with the Great Monster War!\nThe palace can't take it! Let's get out of here!")
   0()
  EndIf()
  ShowMessageFace("ruka_fc1",0,0,2,58)
  ShowMessage("\\n<Luka>Run for it! Hurry!")
  205(-1,bytes(0x04,0x08,0x6f,0x3a,0x13,0x52,0x50,0x47,0x3a,0x3a,0x4d,0x6f,0x76,0x65,0x52,0x6f,0x75,0x74,0x65,0x09,0x3a,0x0c,0x40,0x72,0x65,0x70,0x65,0x61,0x74,0x46,0x3a,0x0f,0x40,0x73,0x6b,0x69,0x70,0x70,0x61,0x62,0x6c,0x65,0x46,0x3a,0x0a,0x40,0x77,0x61,0x69,0x74,0x54,0x3a,0x0a,0x40,0x6c,0x69,0x73,0x74,0x5b,0x07,0x6f,0x3a,0x15,0x52,0x50,0x47,0x3a,0x3a,0x4d,0x6f,0x76,0x65,0x43,0x6f,0x6d,0x6d,0x61,0x6e,0x64,0x07,0x3a,0x0a,0x40,0x63,0x6f,0x64,0x65,0x69,0x06,0x3a,0x10,0x40,0x70,0x61,0x72,0x61,0x6d,0x65,0x74,0x65,0x72,0x73,0x5b,0x00,0x6f,0x3b,0x0a,0x07,0x3b,0x0b,0x69,0x00,0x3b,0x0c,0x5b,0x00))
  212(8,569,true)
  221()
  250(bytes(0x04,0x08,0x6f,0x3a,0x0c,0x52,0x50,0x47,0x3a,0x3a,0x53,0x45,0x08,0x3a,0x0a,0x40,0x6e,0x61,0x6d,0x65,0x49,0x22,0x0f,0x6d,0x6f,0x6e,0x5f,0x65,0x61,0x72,0x74,0x68,0x31,0x06,0x3a,0x06,0x45,0x54,0x3a,0x0b,0x40,0x70,0x69,0x74,0x63,0x68,0x69,0x69,0x3a,0x0c,0x40,0x76,0x6f,0x6c,0x75,0x6d,0x65,0x69,0x69))
  If(0,6,0)
   ShowMessageFace("sonia_fc3",7,0,2,59)
   ShowMessage("\\n<Sonya>Th-the palace... It's coming down!!")
   0()
  Else()
   ShowMessageFace("ruka_fc1",0,0,2,60)
   ShowMessage("\\n<Luka>Th-the palace...is collapsing!")
   0()
  EndIf()
  250(bytes(0x04,0x08,0x6f,0x3a,0x0c,0x52,0x50,0x47,0x3a,0x3a,0x53,0x45,0x08,0x3a,0x0a,0x40,0x6e,0x61,0x6d,0x65,0x49,0x22,0x0f,0x6d,0x6f,0x6e,0x5f,0x65,0x61,0x72,0x74,0x68,0x32,0x06,0x3a,0x06,0x45,0x54,0x3a,0x0b,0x40,0x70,0x69,0x74,0x63,0x68,0x69,0x69,0x3a,0x0c,0x40,0x76,0x6f,0x6c,0x75,0x6d,0x65,0x69,0x69))
  If(0,4,0)
   ShowMessageFace("alice_fc6",1,0,2,61)
   ShowMessage("\\n<Alice>Don't just stand there! Get moving!!")
   0()
  EndIf()
  If(0,5,0)
   ShowMessageFace("iriasu_fc4",7,0,2,62)
   ShowMessage("\\n<Ilias>Don't just stand there! Run!!")
   0()
  EndIf()
  250(bytes(0x04,0x08,0x6f,0x3a,0x0c,0x52,0x50,0x47,0x3a,0x3a,0x53,0x45,0x08,0x3a,0x0a,0x40,0x6e,0x61,0x6d,0x65,0x49,0x22,0x0f,0x6d,0x6f,0x6e,0x5f,0x65,0x61,0x72,0x74,0x68,0x34,0x06,0x3a,0x06,0x45,0x54,0x3a,0x0b,0x40,0x70,0x69,0x74,0x63,0x68,0x69,0x69,0x3a,0x0c,0x40,0x76,0x6f,0x6c,0x75,0x6d,0x65,0x69,0x69))
  ShowMessageFace("",0,0,2,63)
  ShowMessage("Luka and party escape from Grangold Palace--")
  Wait(180)
  TeleportPlayer(0,37,47,5,2,2)
  241(bytes(0x04,0x08,0x6f,0x3a,0x0d,0x52,0x50,0x47,0x3a,0x3a,0x42,0x47,0x4d,0x08,0x3a,0x0a,0x40,0x6e,0x61,0x6d,0x65,0x49,0x22,0x0a,0x6b,0x69,0x6b,0x69,0x32,0x06,0x3a,0x06,0x45,0x54,0x3a,0x0c,0x40,0x76,0x6f,0x6c,0x75,0x6d,0x65,0x69,0x69,0x3a,0x0b,0x40,0x70,0x69,0x74,0x63,0x68,0x69,0x69))
  ChangeVariable(1001,1001,0,0,26)
  ChangeVariable(1063,1063,0,0,13)
  ChangeVariable(1002,1002,0,0,31)
  ChangeSwitch(31,31,1)
  ChangeSwitch(32,32,1)
  ChangeSwitch(33,33,1)
  ChangeSwitch(34,34,1)
  ChangeSwitch(35,35,1)
  ChangeSwitch(2270,2270,0)
  222()
  RunCommonEvent(358)
  EndEventProcessing()
  0()
 PAGE   2
  // condition: variable 1063 >= 13
  0()



EVENT   25
 PAGE   1
  241(bytes(0x04,0x08,0x6f,0x3a,0x0d,0x52,0x50,0x47,0x3a,0x3a,0x42,0x47,0x4d,0x08,0x3a,0x0a,0x40,0x6e,0x61,0x6d,0x65,0x49,0x22,0x0a,0x6b,0x69,0x6b,0x69,0x32,0x06,0x3a,0x06,0x45,0x54,0x3a,0x0c,0x40,0x76,0x6f,0x6c,0x75,0x6d,0x65,0x69,0x69,0x3a,0x0b,0x40,0x70,0x69,0x74,0x63,0x68,0x69,0x69))
  205(-1,bytes(0x04,0x08,0x6f,0x3a,0x13,0x52,0x50,0x47,0x3a,0x3a,0x4d,0x6f,0x76,0x65,0x52,0x6f,0x75,0x74,0x65,0x09,0x3a,0x0c,0x40,0x72,0x65,0x70,0x65,0x61,0x74,0x46,0x3a,0x0f,0x40,0x73,0x6b,0x69,0x70,0x70,0x61,0x62,0x6c,0x65,0x46,0x3a,0x0a,0x40,0x77,0x61,0x69,0x74,0x54,0x3a,0x0a,0x40,0x6c,0x69,0x73,0x74,0x5b,0x07,0x6f,0x3a,0x15,0x52,0x50,0x47,0x3a,0x3a,0x4d,0x6f,0x76,0x65,0x43,0x6f,0x6d,0x6d,0x61,0x6e,0x64,0x07,0x3a,0x0a,0x40,0x63,0x6f,0x64,0x65,0x69,0x15,0x3a,0x10,0x40,0x70,0x61,0x72,0x61,0x6d,0x65,0x74,0x65,0x72,0x73,0x5b,0x00,0x6f,0x3b,0x0a,0x07,0x3b,0x0b,0x69,0x00,0x3b,0x0c,0x5b,0x00))
  If(0,4,0)
   ShowMessageFace("alice_fc6",0,0,2,1)
   ShowMessage("\\n<Alice>Wait, is that...!")
   0()
  EndIf()
  If(0,5,0)
   ShowMessageFace("iriasu_fc4",7,0,2,2)
   ShowMessage("\\n<Ilias>Wait, is she...!")
   0()
  EndIf()
  205(-1,bytes(0x04,0x08,0x6f,0x3a,0x13,0x52,0x50,0x47,0x3a,0x3a,0x4d,0x6f,0x76,0x65,0x52,0x6f,0x75,0x74,0x65,0x09,0x3a,0x0c,0x40,0x72,0x65,0x70,0x65,0x61,0x74,0x46,0x3a,0x0f,0x40,0x73,0x6b,0x69,0x70,0x70,0x61,0x62,0x6c,0x65,0x46,0x3a,0x0a,0x40,0x77,0x61,0x69,0x74,0x54,0x3a,0x0a,0x40,0x6c,0x69,0x73,0x74,0x5b,0x09,0x6f,0x3a,0x15,0x52,0x50,0x47,0x3a,0x3a,0x4d,0x6f,0x76,0x65,0x43,0x6f,0x6d,0x6d,0x61,0x6e,0x64,0x07,0x3a,0x0a,0x40,0x63,0x6f,0x64,0x65,0x69,0x06,0x3a,0x10,0x40,0x70,0x61,0x72,0x61,0x6d,0x65,0x74,0x65,0x72,0x73,0x5b,0x00,0x6f,0x3b,0x0a,0x07,0x3b,0x0b,0x69,0x06,0x3b,0x0c,0x5b,0x00,0x6f,0x3b,0x0a,0x07,0x3b,0x0b,0x69,0x06,0x3b,0x0c,0x5b,0x00,0x6f,0x3b,0x0a,0x07,0x3b,0x0b,0x69,0x00,0x3b,0x0c,0x5b,0x00))
  RunCommonEvent(338)
  0()
 PAGE   2
  // condition: switch 2192 is ON
  0()
