﻿
DisplayName "Administrator's Tower 4F"



EVENT   1
 PAGE   1
  If(1,1032,0,4,0)
   ShowMessageFace("radio_fc1",0,0,2,1)
   ShowMessage("\\n<Radio>Hurry, pLEase meet master...")
   205(-1,bytes(0x04,0x08,0x6f,0x3a,0x13,0x52,0x50,0x47,0x3a,0x3a,0x4d,0x6f,0x76,0x65,0x52,0x6f,0x75,0x74,0x65,0x09,0x3a,0x0c,0x40,0x72,0x65,0x70,0x65,0x61,0x74,0x46,0x3a,0x0f,0x40,0x73,0x6b,0x69,0x70,0x70,0x61,0x62,0x6c,0x65,0x46,0x3a,0x0a,0x40,0x77,0x61,0x69,0x74,0x54,0x3a,0x0a,0x40,0x6c,0x69,0x73,0x74,0x5b,0x07,0x6f,0x3a,0x15,0x52,0x50,0x47,0x3a,0x3a,0x4d,0x6f,0x76,0x65,0x43,0x6f,0x6d,0x6d,0x61,0x6e,0x64,0x07,0x3a,0x0a,0x40,0x63,0x6f,0x64,0x65,0x69,0x06,0x3a,0x10,0x40,0x70,0x61,0x72,0x61,0x6d,0x65,0x74,0x65,0x72,0x73,0x5b,0x00,0x6f,0x3b,0x0a,0x07,0x3b,0x0b,0x69,0x00,0x3b,0x0c,0x5b,0x00))
   0()
  EndIf()
  If(1,1032,0,5,0)
   ShowMessageFace("shirom_fc2",1,0,2,2)
   ShowMessage("\\n<La Croix>Adramelech has reached the floor below. Going down there is too dangerous.")
   205(-1,bytes(0x04,0x08,0x6f,0x3a,0x13,0x52,0x50,0x47,0x3a,0x3a,0x4d,0x6f,0x76,0x65,0x52,0x6f,0x75,0x74,0x65,0x09,0x3a,0x0c,0x40,0x72,0x65,0x70,0x65,0x61,0x74,0x46,0x3a,0x0f,0x40,0x73,0x6b,0x69,0x70,0x70,0x61,0x62,0x6c,0x65,0x46,0x3a,0x0a,0x40,0x77,0x61,0x69,0x74,0x54,0x3a,0x0a,0x40,0x6c,0x69,0x73,0x74,0x5b,0x07,0x6f,0x3a,0x15,0x52,0x50,0x47,0x3a,0x3a,0x4d,0x6f,0x76,0x65,0x43,0x6f,0x6d,0x6d,0x61,0x6e,0x64,0x07,0x3a,0x0a,0x40,0x63,0x6f,0x64,0x65,0x69,0x06,0x3a,0x10,0x40,0x70,0x61,0x72,0x61,0x6d,0x65,0x74,0x65,0x72,0x73,0x5b,0x00,0x6f,0x3b,0x0a,0x07,0x3b,0x0b,0x69,0x00,0x3b,0x0c,0x5b,0x00))
   0()
  EndIf()
  0()



EVENT   6
 PAGE   1
  217()
  241(bytes(0x04,0x08,0x6f,0x3a,0x0d,0x52,0x50,0x47,0x3a,0x3a,0x42,0x47,0x4d,0x08,0x3a,0x0a,0x40,0x6e,0x61,0x6d,0x65,0x49,0x22,0x0a,0x73,0x74,0x65,0x69,0x6e,0x06,0x3a,0x06,0x45,0x54,0x3a,0x0c,0x40,0x76,0x6f,0x6c,0x75,0x6d,0x65,0x69,0x69,0x3a,0x0b,0x40,0x70,0x69,0x74,0x63,0x68,0x69,0x69))
  PictureDisplay(5,"80_shirom_st52",0,0,0,0,100,100,0,0)
  PictureMove(5,null,0,0,0,0,100,100,255,0,30,true)
  ShowMessageFace("shirom_fc2",1,0,2,1)
  ShowMessage("\\n<La Croix>Welcome, guests from another world. I am La Croix, the lord of this tower.")
  If(0,6,0)
   ShowMessageFace("sonia_fc3",7,0,2,2)
   ShowMessage("\\n<Sonya>Who the heck are you?")
   0()
  Else()
   ShowMessageFace("ruka_fc1",0,0,2,3)
   ShowMessage("\\n<Luka>Who are you...?")
   0()
  EndIf()
  If(4,134,0)
   ShowMessageFace("chrom_fc2",5,0,2,4)
   ShowMessage("\\n<Chrome>......?!")
   ShowMessageFace("shirom_fc2",1,0,2,5)
   ShowMessage("\\n<La Croix>......")
   0()
  EndIf()
  PictureClear(5)
  Wait(15)
  250(bytes(0x04,0x08,0x6f,0x3a,0x0c,0x52,0x50,0x47,0x3a,0x3a,0x53,0x45,0x08,0x3a,0x0a,0x40,0x6e,0x61,0x6d,0x65,0x49,0x22,0x0d,0x6d,0x6f,0x6e,0x5f,0x62,0x6f,0x6d,0x31,0x06,0x3a,0x06,0x45,0x54,0x3a,0x0b,0x40,0x70,0x69,0x74,0x63,0x68,0x69,0x69,0x3a,0x0c,0x40,0x76,0x6f,0x6c,0x75,0x6d,0x65,0x69,0x69))
  225(7,7,120,true)
  ShowMessageFace("radio_fc1",0,0,2,6)
  ShowMessage("\\n<Radio>Adramelech hAs intruded into the TOWer...")
  ShowMessageFace("shirom_fc2",1,0,2,7)
  ShowMessage("\\n<La Croix>Have all defensive monsters attack her. Buy us some time, even if it's just a little.")
  ShowMessageFace("radio_fc1",0,0,2,8)
  ShowMessage("\\n<Radio>Understood, focusing all forces on one poiNt...")
  PictureDisplay(5,"80_shirom_st52",0,0,0,0,100,100,0,0)
  PictureMove(5,null,0,0,0,0,100,100,255,0,30,true)
  ShowMessageFace("shirom_fc2",1,0,2,9)
  ShowMessage("\\n<La Croix>As you can see, there's no time left. My identity isn't important...")
  ShowMessageFace("shirom_fc2",1,0,2,10)
  ShowMessage("\\n<La Croix>Just think of me as just an undead monster. There is no one left alive in this world.")
  ShowMessageFace("ruka_fc1",0,0,2,11)
  ShowMessage("\\n<Luka>Why did this... What on earth happened?!")
  ShowMessageFace("shirom_fc2",1,0,2,12)
  ShowMessage("\\n<La Croix>Year 1456 of Johannes calendar, the chaosization of the world began from Remina's location. Dimensional cracks covered the world, and chaos eroded existence.")
  ShowMessageFace("shirom_fc2",1,0,2,13)
  ShowMessage("\\n<La Croix>And this is how everything turned out thirty years later. This world won't last even an hour longer before it disappears into chaos.")
  If(0,4,0)
   ShowMessageFace("alice_fc6",0,0,2,14)
   ShowMessage("\\n<Alice>What caused all this? Why did the world begin to turn into chaos in the first place?")
   0()
  EndIf()
  If(0,5,0)
   ShowMessageFace("iriasu_fc4",7,0,2,15)
   ShowMessage("\\n<Ilias>What is the cause of all this? Why did the world start to turn into chaos in the first place?")
   0()
  EndIf()
  ShowMessageFace("shirom_fc2",1,0,2,16)
  ShowMessage("\\n<La Croix>While chaos spread all over the world, the strong and the highly intelligent gathered in this tower.")
  ShowMessageFace("shirom_fc2",1,0,2,17)
  ShowMessage("\\n<La Croix>No... It would be more accurate to say that we were cornered here. Everyone desperately wished to overcome this situation, but ultimately perished...")
  ShowMessageFace("shirom_fc2",1,0,2,18)
  ShowMessage("\\n<La Croix>Some were struck down by apoptosis... Some were swallowed by chaos...")
  ShowMessageFace("shirom_fc2",1,0,2,19)
  ShowMessage("\\n<La Croix>Even as we struggled every day, the others and I were desperately researching chaos.")
  ShowMessageFace("shirom_fc2",1,0,2,20)
  ShowMessage("\\n<La Croix>And what we found out... was the fact that this world did not follow the correct history.")
  ShowMessageFace("ruka_fc1",0,0,2,21)
  ShowMessage("\\n<Luka>Correct... history?!")
  ShowMessageFace("",0,0,2,22)
  ShowMessage("That was in Dad's memo... and the White Rabbit also mentioned it...")
  ShowMessageFace("shirom_fc2",1,0,2,23)
  ShowMessage("\\n<La Croix>At some point in history, a paradox occurred. The contradiction of events disrupted reality, turning the world itself into chaos.")
  ShowMessageFace("shirom_fc2",1,0,2,24)
  ShowMessage("\\n<La Croix>By the time we had reached this conclusion... I was the only one left.")
  If(0,4,0)
   ShowMessageFace("alice_fc6",0,0,2,25)
   ShowMessage("\\n<Alice>A paradox giving birth to chaosization... and the world returning to a disordered state...")
   0()
  EndIf()
  If(0,5,0)
   ShowMessageFace("iriasu_fc4",7,0,2,26)
   ShowMessage("\\n<Ilias>A paradox giving birth to chaosization... and the world returning to a disordered state...")
   0()
  EndIf()
  ShowMessageFace("shirom_fc2",1,0,2,27)
  ShowMessage("\\n<La Croix>Chaos is nothingness. They are essentially the same.")
  ShowMessageFace("radio_fc1",0,0,2,28)
  ShowMessage("\\n<Radio>Adramelech has intruded on the seCond floor... Ally losses have eXCEeded 50%...")
  ShowMessageFace("shirom_fc2",1,0,2,29)
  ShowMessage("\\n<La Croix>Have all reserves attack. Slow her down as much as possible.")
  ShowMessageFace("shirom_fc2",1,0,2,30)
  ShowMessage("\\n<La Croix>Everything I just described happened in this world. There are parts I am unsure of or that cannot be substantiated, but...")
  ShowMessageFace("ruka_fc1",0,0,2,31)
  ShowMessage("\\n<Luka>Because a paradox occurred at some point in history... this world turned out like this...")
  ShowMessageFace("shirom_fc2",1,0,2,32)
  ShowMessage("\\n<La Croix>However, it appears that this world was not the source of the essential paradox.")
  ShowMessageFace("shirom_fc2",1,0,2,33)
  ShowMessage("\\n<La Croix>The paradox occurred in a different, parallel world, and its chain reaction impacted ours.")
  If(0,4,0)
   ShowMessageFace("alice_fc6",0,0,2,34)
   ShowMessage("\\n<Alice>You're saying this was all caused from the influence of another world? If that's true, then...")
   0()
  EndIf()
  If(0,5,0)
   ShowMessageFace("iriasu_fc4",7,0,2,35)
   ShowMessage("\\n<Ilias>You're saying this was all caused from the influence of another world? If that's possible, then...")
   0()
  EndIf()
  ShowMessageFace("shirom_fc2",1,0,2,36)
  ShowMessage("\\n<La Croix>It is as you have guessed. In conclusion, your world will soon follow the same path.")
  If(0,6,0)
   ShowMessageFace("sonia_fc3",7,0,2,37)
   ShowMessage("\\n<Sonya>Our world will...?!")
   0()
  Else()
   ShowMessageFace("ruka_fc1",0,0,2,38)
   ShowMessage("\\n<Luka>Our world will...?!")
   0()
  EndIf()
  ShowMessageFace("shirom_fc2",1,0,2,39)
  ShowMessage("\\n<La Croix>No, not just your world. All parallel worlds will be entangled by it and disappear.")
  ShowMessageFace("shirom_fc2",1,0,2,40)
  ShowMessage("\\n<La Croix>And once all worlds have been swallowed by chaos, all that will remain is complete nothingness.")
  If(0,4,0)
   ShowMessageFace("alice_fc6",0,0,2,41)
   ShowMessage("\\n<Alice>You've got to be kidding...")
   0()
  EndIf()
  If(0,5,0)
   ShowMessageFace("iriasu_fc4",5,0,2,42)
   ShowMessage("\\n<Ilias>That can't be...")
   0()
  EndIf()
  ShowMessageFace("radio_fc1",0,0,2,43)
  ShowMessage("\\n<Radio>Adramelech has intrUded on the thirDFloor... Ally losses haVe exceeded 90%...")
  ShowMessageFace("shirom_fc2",1,0,2,44)
  ShowMessage("\\n<La Croix>Concentrate anti-chaos field on the third floor. I don't care if the devices break. Well, it appears we're out of time.")
  ShowMessageFace("shirom_fc2",1,0,2,45)
  ShowMessage("\\n<La Croix>Return to your world... and take this.")
  ShowMessageFace("",0,0,2,46)
  ShowMessage("La Croix passes us a single notebook...")
  250(bytes(0x04,0x08,0x6f,0x3a,0x0c,0x52,0x50,0x47,0x3a,0x3a,0x53,0x45,0x08,0x3a,0x0a,0x40,0x6e,0x61,0x6d,0x65,0x49,0x22,0x0a,0x49,0x74,0x65,0x6d,0x31,0x06,0x3a,0x06,0x45,0x54,0x3a,0x0b,0x40,0x70,0x69,0x74,0x63,0x68,0x69,0x69,0x3a,0x0c,0x40,0x76,0x6f,0x6c,0x75,0x6d,0x65,0x69,0x55))
  ChangeInventory_Item(523,0,0,1)
  ShowMessageFace("shirom_fc2",1,0,2,47)
  ShowMessage("\\n<La Croix>This is what my comrades and I fought for. The results of our observations and studies are written down in here in great detail.")
  ShowMessageFace("shirom_fc2",1,0,2,48)
  ShowMessage("\\n<La Croix>If seen by the right person, they may be enough to help plan counter-measures. Take this notebook... and pass it on to the me of your world.")
  If(4,41,0)
   ShowMessageFace("stein_fc2",0,0,2,49)
   ShowMessage("\\n<Promestein>Let me see...")
   ShowMessageFace("stein_fc2",2,0,2,50)
   ShowMessage("\\n<Promestein>...No, I don't get this at all... I can't understand any of this with my current level of knowledge...")
   0()
  EndIf()
  ShowMessageFace("shirom_fc2",1,0,2,51)
  ShowMessage("\\n<La Croix>This notebook... Don't waste the fruits of our struggle. I leave our hope in your hands.")
  ShowMessageFace("ruka_fc1",0,0,2,52)
  ShowMessage("\\n<Luka>If you leave it to us then... La Croix, are you...?!")
  PictureMove(5,null,0,0,0,0,100,100,0,0,30,true)
  Wait(15)
  205(0,bytes(0x04,0x08,0x6f,0x3a,0x13,0x52,0x50,0x47,0x3a,0x3a,0x4d,0x6f,0x76,0x65,0x52,0x6f,0x75,0x74,0x65,0x09,0x3a,0x0c,0x40,0x72,0x65,0x70,0x65,0x61,0x74,0x46,0x3a,0x0f,0x40,0x73,0x6b,0x69,0x70,0x70,0x61,0x62,0x6c,0x65,0x46,0x3a,0x0a,0x40,0x77,0x61,0x69,0x74,0x54,0x3a,0x0a,0x40,0x6c,0x69,0x73,0x74,0x5b,0x0a,0x6f,0x3a,0x15,0x52,0x50,0x47,0x3a,0x3a,0x4d,0x6f,0x76,0x65,0x43,0x6f,0x6d,0x6d,0x61,0x6e,0x64,0x07,0x3a,0x0a,0x40,0x63,0x6f,0x64,0x65,0x69,0x2a,0x3a,0x10,0x40,0x70,0x61,0x72,0x61,0x6d,0x65,0x74,0x65,0x72,0x73,0x5b,0x00,0x6f,0x3b,0x0a,0x07,0x3b,0x0b,0x69,0x09,0x3b,0x0c,0x5b,0x00,0x6f,0x3b,0x0a,0x07,0x3b,0x0b,0x69,0x09,0x3b,0x0c,0x5b,0x00,0x6f,0x3b,0x0a,0x07,0x3b,0x0b,0x69,0x2b,0x3b,0x0c,0x5b,0x00,0x6f,0x3b,0x0a,0x07,0x3b,0x0b,0x69,0x00,0x3b,0x0c,0x5b,0x00))
  205(-1,bytes(0x04,0x08,0x6f,0x3a,0x13,0x52,0x50,0x47,0x3a,0x3a,0x4d,0x6f,0x76,0x65,0x52,0x6f,0x75,0x74,0x65,0x09,0x3a,0x0c,0x40,0x72,0x65,0x70,0x65,0x61,0x74,0x46,0x3a,0x0f,0x40,0x73,0x6b,0x69,0x70,0x70,0x61,0x62,0x6c,0x65,0x46,0x3a,0x0a,0x40,0x77,0x61,0x69,0x74,0x54,0x3a,0x0a,0x40,0x6c,0x69,0x73,0x74,0x5b,0x07,0x6f,0x3a,0x15,0x52,0x50,0x47,0x3a,0x3a,0x4d,0x6f,0x76,0x65,0x43,0x6f,0x6d,0x6d,0x61,0x6e,0x64,0x07,0x3a,0x0a,0x40,0x63,0x6f,0x64,0x65,0x69,0x18,0x3a,0x10,0x40,0x70,0x61,0x72,0x61,0x6d,0x65,0x74,0x65,0x72,0x73,0x5b,0x00,0x6f,0x3b,0x0a,0x07,0x3b,0x0b,0x69,0x00,0x3b,0x0c,0x5b,0x00))
  Wait(15)
  ChangeVariable(1032,1032,0,0,5)
  PictureMove(5,null,0,0,0,0,100,100,255,0,30,true)
  ShowMessageFace("shirom_fc2",1,0,2,53)
  ShowMessage("\\n<La Croix>...The high class apoptosis will be here any moment. I will buy you time to escape.")
  ShowMessageFace("shirom_fc2",1,0,2,54)
  ShowMessage("\\n<La Croix>Use the magic circle in the back of the room to get down to the first floor. Escape to your world.")
  ShowMessageFace("ruka_fc1",0,0,2,55)
  ShowMessage("\\n<Luka>You can't... If this world is being destroyed, then you have to escape too!")
  If(4,529,0)
   ShowMessageFace("sara_fc1",4,0,2,56)
   ShowMessage("\\n<Sara>Let's escape together! At this rate, you won't make it!")
   0()
  EndIf()
  ShowMessageFace("shirom_fc2",1,0,2,57)
  ShowMessage("\\n<La Croix>I already entrusted our hope to you. Deliver it to the myself of your world.")
  ShowMessageFace("ruka_fc1",0,0,2,58)
  ShowMessage("\\n<Luka>We can't leave you! We'll fight that apoptosis with you!")
  ShowMessageFace("shirom_fc2",1,0,2,59)
  ShowMessage("\\n<La Croix>...Do you want your own world to turn out like this one? If you fall here, everything will be lost.")
  ShowMessageFace("shirom_fc2",1,0,2,60)
  ShowMessage("\\n<La Croix>Hurry and go... and protect your own world.")
  If(0,4,0)
   ShowMessageFace("alice_fc5",2,0,2,61)
   ShowMessage("\\n<Alice>Luka, let's fulfill our duty... She will fulfill hers. We will fulfill ours.")
   0()
  EndIf()
  If(0,5,0)
   ShowMessageFace("iriasu_fc4",7,0,2,62)
   ShowMessage("\\n<Ilias>Let's go, Luka. We have to fulfill this hope...")
   0()
  EndIf()
  If(4,134,0)
   ShowMessageFace("chrom_fc2",7,0,2,63)
   ShowMessage("\\n<Chrome>......")
   0()
  EndIf()
  PictureClear(5)
  241(bytes(0x04,0x08,0x6f,0x3a,0x0d,0x52,0x50,0x47,0x3a,0x3a,0x42,0x47,0x4d,0x08,0x3a,0x0a,0x40,0x6e,0x61,0x6d,0x65,0x49,0x22,0x12,0x64,0x75,0x6e,0x67,0x65,0x6f,0x6e,0x5f,0x6c,0x61,0x62,0x6f,0x31,0x06,0x3a,0x06,0x45,0x54,0x3a,0x0c,0x40,0x76,0x6f,0x6c,0x75,0x6d,0x65,0x69,0x69,0x3a,0x0b,0x40,0x70,0x69,0x74,0x63,0x68,0x69,0x69))
  0()
 PAGE   2
  // condition: variable 1032 >= 5
  0()



EVENT   11
 PAGE   1
  PictureDisplay(5,"80_cirque_st51",0,0,0,0,100,100,0,0)
  PictureMove(5,null,0,0,0,0,100,100,255,0,30,true)
  ShowMessageFace("cirque_fc6",0,0,2,1)
  ShowMessage("\\n<Queen Scylla>......")
  ShowMessageFace("",0,0,2,2)
  ShowMessage("There's no answer. She seems to have completely ceased functioning...")
  If(1,1032,0,5,0)
   ShowMessageFace("shirom_fc2",1,0,2,3)
   ShowMessage("\\n<La Croix>After repeated battles with apoptosis, she approached the limit of her flesh. She abused it quite a bit...")
   0()
  EndIf()
  PictureClear(5)
  EndEventProcessing()
  0()



EVENT   8
 PAGE   1
  PictureDisplay(5,"80_cirque_st23",0,0,0,0,100,100,0,0)
  PictureMove(5,null,0,0,0,0,100,100,255,0,30,true)
  ShowMessageFace("cirque_fc3",2,0,2,1)
  ShowMessage("\\n<Roza>......")
  ShowMessageFace("",0,0,2,2)
  ShowMessage("There's no answer. She seems to have completely ceased functioning...")
  If(1,1032,0,5,0)
   ShowMessageFace("shirom_fc2",1,0,2,3)
   ShowMessage("\\n<La Croix>After repeated battles with apoptosis, she approached the limit of her flesh. She abused it quite a bit...")
   0()
  EndIf()
  PictureClear(5)
  EndEventProcessing()
  0()



EVENT   9
 PAGE   1
  PictureDisplay(5,"80_cirque_st33",0,0,0,0,100,100,0,0)
  PictureMove(5,null,0,0,0,0,100,100,255,0,30,true)
  ShowMessageFace("cirque_fc4",2,0,2,1)
  ShowMessage("\\n<Queen Lamia>......")
  ShowMessageFace("",0,0,2,2)
  ShowMessage("There's no answer. She seems to have completely ceased functioning...")
  If(1,1032,0,5,0)
   ShowMessageFace("shirom_fc2",1,0,2,3)
   ShowMessage("\\n<La Croix>After repeated battles with apoptosis, she approached the limit of her flesh. She abused it quite a bit...")
   0()
  EndIf()
  PictureClear(5)
  EndEventProcessing()
  0()



EVENT   7
 PAGE   1
  // condition: switch 31 is ON
  0()



EVENT   10
 PAGE   1
  // condition: switch 31 is ON
  0()



EVENT   12
 PAGE   1
  // condition: switch 31 is ON
  0()



EVENT   5
 PAGE   1
  PictureDisplay(5,"80_radio_st01",0,0,0,0,100,100,0,0)
  PictureMove(5,null,0,0,0,0,100,100,255,0,30,true)
  If(1,1032,0,4,0)
   ShowMessageFace("radio_fc1",0,0,2,1)
   ShowMessage("\\n<Radio>Please, speAk to master...")
   0()
  EndIf()
  If(1,1032,0,5,0)
   ShowMessageFace("radio_fc1",0,0,2,2)
   ShowMessage("\\n<Radio>......")
   0()
  EndIf()
  PictureClear(5)
  0()



EVENT   2
 PAGE   1
  If(12,"unlock_level < 1")
   ShowMessageFace("",0,0,2,1)
   ShowMessage("The chest is locked.")
   EndEventProcessing()
   0()
  EndIf()
  250(bytes(0x04,0x08,0x6f,0x3a,0x0c,0x52,0x50,0x47,0x3a,0x3a,0x53,0x45,0x08,0x3a,0x0a,0x40,0x6e,0x61,0x6d,0x65,0x49,0x22,0x0a,0x43,0x68,0x65,0x73,0x74,0x06,0x3a,0x06,0x45,0x54,0x3a,0x0b,0x40,0x70,0x69,0x74,0x63,0x68,0x69,0x69,0x3a,0x0c,0x40,0x76,0x6f,0x6c,0x75,0x6d,0x65,0x69,0x55))
  205(0,bytes(0x04,0x08,0x6f,0x3a,0x13,0x52,0x50,0x47,0x3a,0x3a,0x4d,0x6f,0x76,0x65,0x52,0x6f,0x75,0x74,0x65,0x09,0x3a,0x0c,0x40,0x72,0x65,0x70,0x65,0x61,0x74,0x46,0x3a,0x0f,0x40,0x73,0x6b,0x69,0x70,0x70,0x61,0x62,0x6c,0x65,0x46,0x3a,0x0a,0x40,0x77,0x61,0x69,0x74,0x54,0x3a,0x0a,0x40,0x6c,0x69,0x73,0x74,0x5b,0x0b,0x6f,0x3a,0x15,0x52,0x50,0x47,0x3a,0x3a,0x4d,0x6f,0x76,0x65,0x43,0x6f,0x6d,0x6d,0x61,0x6e,0x64,0x07,0x3a,0x0a,0x40,0x63,0x6f,0x64,0x65,0x69,0x29,0x3a,0x10,0x40,0x70,0x61,0x72,0x61,0x6d,0x65,0x74,0x65,0x72,0x73,0x5b,0x00,0x6f,0x3b,0x0a,0x07,0x3b,0x0b,0x69,0x16,0x3b,0x0c,0x5b,0x00,0x6f,0x3b,0x0a,0x07,0x3b,0x0b,0x69,0x14,0x3b,0x0c,0x5b,0x06,0x69,0x08,0x6f,0x3b,0x0a,0x07,0x3b,0x0b,0x69,0x17,0x3b,0x0c,0x5b,0x00,0x6f,0x3b,0x0a,0x07,0x3b,0x0b,0x69,0x14,0x3b,0x0c,0x5b,0x06,0x69,0x08,0x6f,0x3b,0x0a,0x07,0x3b,0x0b,0x69,0x00,0x3b,0x0c,0x5b,0x00))
  ChangeSelfSwitch("A",0)
  ChangeInventory_Item(713,0,0,1)
  0()
 PAGE   2
  // condition: self-switch A is ON
  0()



EVENT   4
 PAGE   1
  0()
 PAGE   2
  // condition: variable 1032 >= 4
  0()



EVENT   13
 PAGE   1
  PictureDisplay(5,"80_radio_st01",0,0,0,0,100,100,0,0)
  PictureMove(5,null,0,0,0,0,100,100,255,0,30,true)
  ChangeSwitch(94,94,0)
  ChangeSaveEnabled(0)
  ShowMessageFace("radio_fc1",0,0,2,1)
  ShowMessage("\\n<Radio>Apoptosis Adramelech... rapidly approaching thiSTower...")
  ShowMessageFace("radio_fc1",0,0,2,2)
  ShowMessage("\\n<Radio>Hurry, please speak to maSter...")
  PictureClear(5)
  205(4,bytes(0x04,0x08,0x6f,0x3a,0x13,0x52,0x50,0x47,0x3a,0x3a,0x4d,0x6f,0x76,0x65,0x52,0x6f,0x75,0x74,0x65,0x09,0x3a,0x0c,0x40,0x72,0x65,0x70,0x65,0x61,0x74,0x46,0x3a,0x0f,0x40,0x73,0x6b,0x69,0x70,0x70,0x61,0x62,0x6c,0x65,0x46,0x3a,0x0a,0x40,0x77,0x61,0x69,0x74,0x54,0x3a,0x0a,0x40,0x6c,0x69,0x73,0x74,0x5b,0x0e,0x6f,0x3a,0x15,0x52,0x50,0x47,0x3a,0x3a,0x4d,0x6f,0x76,0x65,0x43,0x6f,0x6d,0x6d,0x61,0x6e,0x64,0x07,0x3a,0x0a,0x40,0x63,0x6f,0x64,0x65,0x69,0x06,0x3a,0x10,0x40,0x70,0x61,0x72,0x61,0x6d,0x65,0x74,0x65,0x72,0x73,0x5b,0x00,0x6f,0x3b,0x0a,0x07,0x3b,0x0b,0x69,0x06,0x3b,0x0c,0x5b,0x00,0x6f,0x3b,0x0a,0x07,0x3b,0x0b,0x69,0x06,0x3b,0x0c,0x5b,0x00,0x6f,0x3b,0x0a,0x07,0x3b,0x0b,0x69,0x06,0x3b,0x0c,0x5b,0x00,0x6f,0x3b,0x0a,0x07,0x3b,0x0b,0x69,0x06,0x3b,0x0c,0x5b,0x00,0x6f,0x3b,0x0a,0x07,0x3b,0x0b,0x69,0x06,0x3b,0x0c,0x5b,0x00,0x6f,0x3b,0x0a,0x07,0x3b,0x0b,0x69,0x06,0x3b,0x0c,0x5b,0x00,0x6f,0x3b,0x0a,0x07,0x3b,0x0b,0x69,0x06,0x3b,0x0c,0x5b,0x00,0x6f,0x3b,0x0a,0x07,0x3b,0x0b,0x69,0x00,0x3b,0x0c,0x5b,0x00))
  ChangeVariable(1032,1032,0,0,4)
  0()
 PAGE   2
  // condition: variable 1032 >= 4
  0()



EVENT   14
 PAGE   1
  // condition: variable 1032 >= 5
  217()
  ShowMessageFace("",0,0,2,1)
  ShowMessage("Escape this place?")
  ShowChoices(strings("Yes","No"),2)
  IfPlayerPicksChoice(0,null)
   ScrollMap(8,5,4)
   Wait(60)
   205(18,bytes(0x04,0x08,0x6f,0x3a,0x13,0x52,0x50,0x47,0x3a,0x3a,0x4d,0x6f,0x76,0x65,0x52,0x6f,0x75,0x74,0x65,0x09,0x3a,0x0c,0x40,0x72,0x65,0x70,0x65,0x61,0x74,0x46,0x3a,0x0f,0x40,0x73,0x6b,0x69,0x70,0x70,0x61,0x62,0x6c,0x65,0x46,0x3a,0x0a,0x40,0x77,0x61,0x69,0x74,0x54,0x3a,0x0a,0x40,0x6c,0x69,0x73,0x74,0x5b,0x07,0x6f,0x3a,0x15,0x52,0x50,0x47,0x3a,0x3a,0x4d,0x6f,0x76,0x65,0x43,0x6f,0x6d,0x6d,0x61,0x6e,0x64,0x07,0x3a,0x0a,0x40,0x63,0x6f,0x64,0x65,0x69,0x15,0x3a,0x10,0x40,0x70,0x61,0x72,0x61,0x6d,0x65,0x74,0x65,0x72,0x73,0x5b,0x00,0x6f,0x3b,0x0a,0x07,0x3b,0x0b,0x69,0x00,0x3b,0x0c,0x5b,0x00))
   205(-1,bytes(0x04,0x08,0x6f,0x3a,0x13,0x52,0x50,0x47,0x3a,0x3a,0x4d,0x6f,0x76,0x65,0x52,0x6f,0x75,0x74,0x65,0x09,0x3a,0x0c,0x40,0x72,0x65,0x70,0x65,0x61,0x74,0x46,0x3a,0x0f,0x40,0x73,0x6b,0x69,0x70,0x70,0x61,0x62,0x6c,0x65,0x46,0x3a,0x0a,0x40,0x77,0x61,0x69,0x74,0x54,0x3a,0x0a,0x40,0x6c,0x69,0x73,0x74,0x5b,0x07,0x6f,0x3a,0x15,0x52,0x50,0x47,0x3a,0x3a,0x4d,0x6f,0x76,0x65,0x43,0x6f,0x6d,0x6d,0x61,0x6e,0x64,0x07,0x3a,0x0a,0x40,0x63,0x6f,0x64,0x65,0x69,0x18,0x3a,0x10,0x40,0x70,0x61,0x72,0x61,0x6d,0x65,0x74,0x65,0x72,0x73,0x5b,0x00,0x6f,0x3b,0x0a,0x07,0x3b,0x0b,0x69,0x00,0x3b,0x0c,0x5b,0x00))
   ShowMessageFace("shirom_fc2",1,0,2,2)
   ShowMessage("\\n<La Croix>I have one last request... It's about Radio.")
   ShowMessageFace("radio_fc1",0,0,2,3)
   ShowMessage("\\n<Radio>......")
   ShowMessageFace("shirom_fc2",1,0,2,4)
   ShowMessage("\\n<La Croix>She is an early model made by my comrades, to whom I'm indebted. Her capabilities aren't high... but I can't bear to see her destroyed here.")
   ShowMessageFace("shirom_fc2",1,0,2,5)
   ShowMessage("\\n<La Croix>Could you take her with you?")
   ShowChoices(strings("Yes","No"),0)
   IfPlayerPicksChoice(0,null)
    ShowMessageFace("shirom_fc2",1,0,2,6)
    ShowMessage("\\n<La Croix>I see. I'm grateful... Radio, transfer master privileges.")
    0()
   IfPlayerPicksChoice(1,null)
    ShowMessageFace("shirom_fc2",1,0,2,7)
    ShowMessage("\\n<La Croix>Nevertheless, I'm going to force the issue. Radio, transfer master privileges.")
    0()
   404()
   ShowMessageFace("radio_fc1",0,0,2,8)
   ShowMessage("\\n<Radio>UnderSTOod... Luka has been seT as new maSter...")
   PictureClear(5)
   205(5,bytes(0x04,0x08,0x6f,0x3a,0x13,0x52,0x50,0x47,0x3a,0x3a,0x4d,0x6f,0x76,0x65,0x52,0x6f,0x75,0x74,0x65,0x09,0x3a,0x0c,0x40,0x72,0x65,0x70,0x65,0x61,0x74,0x46,0x3a,0x0f,0x40,0x73,0x6b,0x69,0x70,0x70,0x61,0x62,0x6c,0x65,0x46,0x3a,0x0a,0x40,0x77,0x61,0x69,0x74,0x54,0x3a,0x0a,0x40,0x6c,0x69,0x73,0x74,0x5b,0x0e,0x6f,0x3a,0x15,0x52,0x50,0x47,0x3a,0x3a,0x4d,0x6f,0x76,0x65,0x43,0x6f,0x6d,0x6d,0x61,0x6e,0x64,0x07,0x3a,0x0a,0x40,0x63,0x6f,0x64,0x65,0x69,0x2a,0x3a,0x10,0x40,0x70,0x61,0x72,0x61,0x6d,0x65,0x74,0x65,0x72,0x73,0x5b,0x00,0x6f,0x3b,0x0a,0x07,0x3b,0x0b,0x69,0x13,0x3b,0x0c,0x5b,0x07,0x69,0x00,0x69,0x09,0x6f,0x3b,0x0a,0x07,0x3b,0x0b,0x69,0x08,0x3b,0x0c,0x5b,0x00,0x6f,0x3b,0x0a,0x07,0x3b,0x0b,0x69,0x08,0x3b,0x0c,0x5b,0x00,0x6f,0x3b,0x0a,0x07,0x3b,0x0b,0x69,0x06,0x3b,0x0c,0x5b,0x00,0x6f,0x3b,0x0a,0x07,0x3b,0x0b,0x69,0x06,0x3b,0x0c,0x5b,0x00,0x6f,0x3b,0x0a,0x07,0x3b,0x0b,0x69,0x06,0x3b,0x0c,0x5b,0x00,0x6f,0x3b,0x0a,0x07,0x3b,0x0b,0x69,0x06,0x3b,0x0c,0x5b,0x00,0x6f,0x3b,0x0a,0x07,0x3b,0x0b,0x69,0x00,0x3b,0x0c,0x5b,0x00))
   ShowMessageFace("radio_fc1",0,0,2,9)
   ShowMessage("\\n<Radio>Please take caRe of me, master...")
   205(5,bytes(0x04,0x08,0x6f,0x3a,0x13,0x52,0x50,0x47,0x3a,0x3a,0x4d,0x6f,0x76,0x65,0x52,0x6f,0x75,0x74,0x65,0x09,0x3a,0x0c,0x40,0x72,0x65,0x70,0x65,0x61,0x74,0x46,0x3a,0x0f,0x40,0x73,0x6b,0x69,0x70,0x70,0x61,0x62,0x6c,0x65,0x46,0x3a,0x0a,0x40,0x77,0x61,0x69,0x74,0x54,0x3a,0x0a,0x40,0x6c,0x69,0x73,0x74,0x5b,0x09,0x6f,0x3a,0x15,0x52,0x50,0x47,0x3a,0x3a,0x4d,0x6f,0x76,0x65,0x43,0x6f,0x6d,0x6d,0x61,0x6e,0x64,0x07,0x3a,0x0a,0x40,0x63,0x6f,0x64,0x65,0x69,0x2a,0x3a,0x10,0x40,0x70,0x61,0x72,0x61,0x6d,0x65,0x74,0x65,0x72,0x73,0x5b,0x00,0x6f,0x3b,0x0a,0x07,0x3b,0x0b,0x69,0x06,0x3b,0x0c,0x5b,0x00,0x6f,0x3b,0x0a,0x07,0x3b,0x0b,0x69,0x2c,0x3b,0x0c,0x5b,0x00,0x6f,0x3b,0x0a,0x07,0x3b,0x0b,0x69,0x00,0x3b,0x0c,0x5b,0x00))
   355("add_actor_ex(185)")
   249(bytes(0x04,0x08,0x6f,0x3a,0x0c,0x52,0x50,0x47,0x3a,0x3a,0x4d,0x45,0x08,0x3a,0x0a,0x40,0x6e,0x61,0x6d,0x65,0x49,0x22,0x0c,0x66,0x61,0x6e,0x66,0x61,0x6c,0x65,0x06,0x3a,0x06,0x45,0x54,0x3a,0x0b,0x40,0x70,0x69,0x74,0x63,0x68,0x69,0x69,0x3a,0x0c,0x40,0x76,0x6f,0x6c,0x75,0x6d,0x65,0x69,0x69))
   ShowMessageFace("",0,0,2,10)
   ShowMessage("Radio has joined the party!")
   Wait(60)
   ShowMessageFace("shirom_fc2",1,0,2,11)
   ShowMessage("\\n<La Croix>...Go now.")
   If(0,6,0)
    ShowMessageFace("sonia_fc2",2,0,2,12)
    ShowMessage("\\n<Sonya>Thank you very much, La Croix!")
    0()
   EndIf()
   If(0,4,0)
    ShowMessageFace("alice_fc5",2,0,2,13)
    ShowMessage("\\n<Alice>We are grateful, La Croix. You can leave the rest to us.")
    0()
   EndIf()
   If(0,5,0)
    ShowMessageFace("iriasu_fc4",7,0,2,14)
    ShowMessage("\\n<Ilias>La Croix, I compliment your work. We will surely save our world.")
    0()
   EndIf()
   ShowMessageFace("ruka_fc1",0,0,2,15)
   ShowMessage("\\n<Luka>This notebook... No, this hope the people of your world have woven! We shall take good care of it!")
   If(4,134,0)
    ShowMessageFace("chrom_fc2",7,0,2,16)
    ShowMessage("\\n<Chrome>Sister...")
    ShowMessageFace("chrom_fc2",7,0,2,17)
    ShowMessage("\\n<Chrome>......")
    ShowMessageFace("chrom_fc2",1,0,2,18)
    ShowMessage("\\n<Chrome>I am the youngest daughter of the Artiste family, Chrome! Leave everything to me!")
    0()
   EndIf()
   PictureClear(5)
   205(-1,bytes(0x04,0x08,0x6f,0x3a,0x13,0x52,0x50,0x47,0x3a,0x3a,0x4d,0x6f,0x76,0x65,0x52,0x6f,0x75,0x74,0x65,0x09,0x3a,0x0c,0x40,0x72,0x65,0x70,0x65,0x61,0x74,0x46,0x3a,0x0f,0x40,0x73,0x6b,0x69,0x70,0x70,0x61,0x62,0x6c,0x65,0x46,0x3a,0x0a,0x40,0x77,0x61,0x69,0x74,0x54,0x3a,0x0a,0x40,0x6c,0x69,0x73,0x74,0x5b,0x07,0x6f,0x3a,0x15,0x52,0x50,0x47,0x3a,0x3a,0x4d,0x6f,0x76,0x65,0x43,0x6f,0x6d,0x6d,0x61,0x6e,0x64,0x07,0x3a,0x0a,0x40,0x63,0x6f,0x64,0x65,0x69,0x15,0x3a,0x10,0x40,0x70,0x61,0x72,0x61,0x6d,0x65,0x74,0x65,0x72,0x73,0x5b,0x00,0x6f,0x3b,0x0a,0x07,0x3b,0x0b,0x69,0x00,0x3b,0x0c,0x5b,0x00))
   250(bytes(0x04,0x08,0x6f,0x3a,0x0c,0x52,0x50,0x47,0x3a,0x3a,0x53,0x45,0x08,0x3a,0x0a,0x40,0x6e,0x61,0x6d,0x65,0x49,0x22,0x0b,0x4d,0x61,0x67,0x69,0x63,0x32,0x06,0x3a,0x06,0x45,0x54,0x3a,0x0b,0x40,0x70,0x69,0x74,0x63,0x68,0x69,0x69,0x3a,0x0c,0x40,0x76,0x6f,0x6c,0x75,0x6d,0x65,0x69,0x55))
   PictureDisplay(1,"sys_white",0,0,0,0,100,100,0,0)
   PictureMove(1,null,0,0,0,0,100,100,255,0,30,true)
   211(0)
   PictureMove(1,null,0,0,0,0,100,100,0,0,30,true)
   PictureClear(1)
   Wait(60)
   ShowMessageFace("shirom_fc2",1,0,2,19)
   ShowMessage("\\n<La Croix>Please... save the world...")
   If(4,134,0)
    ShowMessageFace("shirom_fc2",1,0,2,20)
    ShowMessage("\\n<La Croix>......")
    ShowMessageFace("shirom_fc2",1,0,2,21)
    ShowMessage("\\n<La Croix>Really, I'm too old for these grand dramatics. And to think that in the end I would see Chrome...")
    0()
   EndIf()
   ScrollMap(8,4,4)
   205(18,bytes(0x04,0x08,0x6f,0x3a,0x13,0x52,0x50,0x47,0x3a,0x3a,0x4d,0x6f,0x76,0x65,0x52,0x6f,0x75,0x74,0x65,0x09,0x3a,0x0c,0x40,0x72,0x65,0x70,0x65,0x61,0x74,0x46,0x3a,0x0f,0x40,0x73,0x6b,0x69,0x70,0x70,0x61,0x62,0x6c,0x65,0x46,0x3a,0x0a,0x40,0x77,0x61,0x69,0x74,0x54,0x3a,0x0a,0x40,0x6c,0x69,0x73,0x74,0x5b,0x07,0x6f,0x3a,0x15,0x52,0x50,0x47,0x3a,0x3a,0x4d,0x6f,0x76,0x65,0x43,0x6f,0x6d,0x6d,0x61,0x6e,0x64,0x07,0x3a,0x0a,0x40,0x63,0x6f,0x64,0x65,0x69,0x18,0x3a,0x10,0x40,0x70,0x61,0x72,0x61,0x6d,0x65,0x74,0x65,0x72,0x73,0x5b,0x00,0x6f,0x3b,0x0a,0x07,0x3b,0x0b,0x69,0x00,0x3b,0x0c,0x5b,0x00))
   ShowMessageFace("shirom_fc2",1,0,2,22)
   ShowMessage("\\n<La Croix>...Cirque du Croix! Come, it's our last performance!")
   250(bytes(0x04,0x08,0x6f,0x3a,0x0c,0x52,0x50,0x47,0x3a,0x3a,0x53,0x45,0x08,0x3a,0x0a,0x40,0x6e,0x61,0x6d,0x65,0x49,0x22,0x0e,0x6d,0x6f,0x6e,0x5f,0x64,0x6f,0x6f,0x72,0x31,0x06,0x3a,0x06,0x45,0x54,0x3a,0x0b,0x40,0x70,0x69,0x74,0x63,0x68,0x69,0x69,0x3a,0x0c,0x40,0x76,0x6f,0x6c,0x75,0x6d,0x65,0x69,0x69))
   ChangeSwitch(31,31,0)
   Wait(15)
   205(7,bytes(0x04,0x08,0x6f,0x3a,0x13,0x52,0x50,0x47,0x3a,0x3a,0x4d,0x6f,0x76,0x65,0x52,0x6f,0x75,0x74,0x65,0x09,0x3a,0x0c,0x40,0x72,0x65,0x70,0x65,0x61,0x74,0x46,0x3a,0x0f,0x40,0x73,0x6b,0x69,0x70,0x70,0x61,0x62,0x6c,0x65,0x46,0x3a,0x0a,0x40,0x77,0x61,0x69,0x74,0x46,0x3a,0x0a,0x40,0x6c,0x69,0x73,0x74,0x5b,0x0a,0x6f,0x3a,0x15,0x52,0x50,0x47,0x3a,0x3a,0x4d,0x6f,0x76,0x65,0x43,0x6f,0x6d,0x6d,0x61,0x6e,0x64,0x07,0x3a,0x0a,0x40,0x63,0x6f,0x64,0x65,0x69,0x2a,0x3a,0x10,0x40,0x70,0x61,0x72,0x61,0x6d,0x65,0x74,0x65,0x72,0x73,0x5b,0x00,0x6f,0x3b,0x0a,0x07,0x3b,0x0b,0x69,0x08,0x3b,0x0c,0x5b,0x00,0x6f,0x3b,0x0a,0x07,0x3b,0x0b,0x69,0x08,0x3b,0x0c,0x5b,0x00,0x6f,0x3b,0x0a,0x07,0x3b,0x0b,0x69,0x09,0x3b,0x0c,0x5b,0x00,0x6f,0x3b,0x0a,0x07,0x3b,0x0b,0x69,0x00,0x3b,0x0c,0x5b,0x00))
   205(10,bytes(0x04,0x08,0x6f,0x3a,0x13,0x52,0x50,0x47,0x3a,0x3a,0x4d,0x6f,0x76,0x65,0x52,0x6f,0x75,0x74,0x65,0x09,0x3a,0x0c,0x40,0x72,0x65,0x70,0x65,0x61,0x74,0x46,0x3a,0x0f,0x40,0x73,0x6b,0x69,0x70,0x70,0x61,0x62,0x6c,0x65,0x46,0x3a,0x0a,0x40,0x77,0x61,0x69,0x74,0x46,0x3a,0x0a,0x40,0x6c,0x69,0x73,0x74,0x5b,0x0b,0x6f,0x3a,0x15,0x52,0x50,0x47,0x3a,0x3a,0x4d,0x6f,0x76,0x65,0x43,0x6f,0x6d,0x6d,0x61,0x6e,0x64,0x07,0x3a,0x0a,0x40,0x63,0x6f,0x64,0x65,0x69,0x2a,0x3a,0x10,0x40,0x70,0x61,0x72,0x61,0x6d,0x65,0x74,0x65,0x72,0x73,0x5b,0x00,0x6f,0x3b,0x0a,0x07,0x3b,0x0b,0x69,0x07,0x3b,0x0c,0x5b,0x00,0x6f,0x3b,0x0a,0x07,0x3b,0x0b,0x69,0x07,0x3b,0x0c,0x5b,0x00,0x6f,0x3b,0x0a,0x07,0x3b,0x0b,0x69,0x07,0x3b,0x0c,0x5b,0x00,0x6f,0x3b,0x0a,0x07,0x3b,0x0b,0x69,0x18,0x3b,0x0c,0x5b,0x00,0x6f,0x3b,0x0a,0x07,0x3b,0x0b,0x69,0x00,0x3b,0x0c,0x5b,0x00))
   205(12,bytes(0x04,0x08,0x6f,0x3a,0x13,0x52,0x50,0x47,0x3a,0x3a,0x4d,0x6f,0x76,0x65,0x52,0x6f,0x75,0x74,0x65,0x09,0x3a,0x0c,0x40,0x72,0x65,0x70,0x65,0x61,0x74,0x46,0x3a,0x0f,0x40,0x73,0x6b,0x69,0x70,0x70,0x61,0x62,0x6c,0x65,0x46,0x3a,0x0a,0x40,0x77,0x61,0x69,0x74,0x54,0x3a,0x0a,0x40,0x6c,0x69,0x73,0x74,0x5b,0x0a,0x6f,0x3a,0x15,0x52,0x50,0x47,0x3a,0x3a,0x4d,0x6f,0x76,0x65,0x43,0x6f,0x6d,0x6d,0x61,0x6e,0x64,0x07,0x3a,0x0a,0x40,0x63,0x6f,0x64,0x65,0x69,0x2a,0x3a,0x10,0x40,0x70,0x61,0x72,0x61,0x6d,0x65,0x74,0x65,0x72,0x73,0x5b,0x00,0x6f,0x3b,0x0a,0x07,0x3b,0x0b,0x69,0x07,0x3b,0x0c,0x5b,0x00,0x6f,0x3b,0x0a,0x07,0x3b,0x0b,0x69,0x07,0x3b,0x0c,0x5b,0x00,0x6f,0x3b,0x0a,0x07,0x3b,0x0b,0x69,0x09,0x3b,0x0c,0x5b,0x00,0x6f,0x3b,0x0a,0x07,0x3b,0x0b,0x69,0x00,0x3b,0x0c,0x5b,0x00))
   241(bytes(0x04,0x08,0x6f,0x3a,0x0d,0x52,0x50,0x47,0x3a,0x3a,0x42,0x47,0x4d,0x08,0x3a,0x0a,0x40,0x6e,0x61,0x6d,0x65,0x49,0x22,0x0c,0x62,0x6f,0x73,0x73,0x30,0x2d,0x33,0x06,0x3a,0x06,0x45,0x54,0x3a,0x0c,0x40,0x76,0x6f,0x6c,0x75,0x6d,0x65,0x69,0x69,0x3a,0x0b,0x40,0x70,0x69,0x74,0x63,0x68,0x69,0x69))
   Wait(60)
   205(15,bytes(0x04,0x08,0x6f,0x3a,0x13,0x52,0x50,0x47,0x3a,0x3a,0x4d,0x6f,0x76,0x65,0x52,0x6f,0x75,0x74,0x65,0x09,0x3a,0x0c,0x40,0x72,0x65,0x70,0x65,0x61,0x74,0x46,0x3a,0x0f,0x40,0x73,0x6b,0x69,0x70,0x70,0x61,0x62,0x6c,0x65,0x46,0x3a,0x0a,0x40,0x77,0x61,0x69,0x74,0x54,0x3a,0x0a,0x40,0x6c,0x69,0x73,0x74,0x5b,0x0b,0x6f,0x3a,0x15,0x52,0x50,0x47,0x3a,0x3a,0x4d,0x6f,0x76,0x65,0x43,0x6f,0x6d,0x6d,0x61,0x6e,0x64,0x07,0x3a,0x0a,0x40,0x63,0x6f,0x64,0x65,0x69,0x2a,0x3a,0x10,0x40,0x70,0x61,0x72,0x61,0x6d,0x65,0x74,0x65,0x72,0x73,0x5b,0x00,0x6f,0x3b,0x0a,0x07,0x3b,0x0b,0x69,0x06,0x3b,0x0c,0x5b,0x00,0x6f,0x3b,0x0a,0x07,0x3b,0x0b,0x69,0x06,0x3b,0x0c,0x5b,0x00,0x6f,0x3b,0x0a,0x07,0x3b,0x0b,0x69,0x06,0x3b,0x0c,0x5b,0x00,0x6f,0x3b,0x0a,0x07,0x3b,0x0b,0x69,0x06,0x3b,0x0c,0x5b,0x00,0x6f,0x3b,0x0a,0x07,0x3b,0x0b,0x69,0x00,0x3b,0x0c,0x5b,0x00))
   Wait(30)
   PictureDisplay(5,"80_adramelek_st01",0,0,0,0,100,100,0,0)
   PictureMove(5,null,0,0,0,0,100,100,255,0,30,true)
   ShowMessageFace("adramelek_fc0",0,0,2,23)
   ShowMessage("\\n<Adramelech>Class Two Cross-World Contact detected... Eliminating immediately.")
   ShowMessageFace("shirom_fc2",1,0,2,24)
   ShowMessage("\\n<La Croix>The last performance, and there's no audience... However, we'll dance to our hearts content!")
   Wait(30)
   221()
   242(2)
   PictureClear(5)
   ChangeSwitch(31,31,1)
   211(1)
   Wait(180)
   TeleportPlayer(0,619,36,20,8,2)
   241(bytes(0x04,0x08,0x6f,0x3a,0x0d,0x52,0x50,0x47,0x3a,0x3a,0x42,0x47,0x4d,0x08,0x3a,0x0a,0x40,0x6e,0x61,0x6d,0x65,0x49,0x22,0x16,0x64,0x75,0x6e,0x67,0x65,0x6f,0x6e,0x5f,0x74,0x61,0x72,0x75,0x74,0x61,0x72,0x6f,0x31,0x06,0x3a,0x06,0x45,0x54,0x3a,0x0c,0x40,0x76,0x6f,0x6c,0x75,0x6d,0x65,0x69,0x69,0x3a,0x0b,0x40,0x70,0x69,0x74,0x63,0x68,0x69,0x69))
   222()
   If(0,4,0)
    ShowMessageFace("alice_fc6",0,0,2,25)
    ShowMessage("\\n<Alice>Existence has been eroded this far?! Adramelech is that powerful?!")
    0()
   EndIf()
   If(0,5,0)
    ShowMessageFace("iriasu_fc4",5,0,2,26)
    ShowMessage("\\n<Ilias>Reality has been eroded this far?! So this is the true power of the apoptosis?!")
    0()
   EndIf()
   ShowMessageFace("radio_fc1",0,0,2,27)
   ShowMessage("\\n<Radio>Previous master has enGAged Adramelech in battle...")
   ShowMessageFace("ruka_fc1",0,0,2,28)
   ShowMessage("\\n<Luka>Let's hurry and escape! We can't let La Croix's sacrifice go to waste!")
   EndEventProcessing()
   0()
  IfPlayerPicksChoice(1,null)
   205(-1,bytes(0x04,0x08,0x6f,0x3a,0x13,0x52,0x50,0x47,0x3a,0x3a,0x4d,0x6f,0x76,0x65,0x52,0x6f,0x75,0x74,0x65,0x09,0x3a,0x0c,0x40,0x72,0x65,0x70,0x65,0x61,0x74,0x46,0x3a,0x0f,0x40,0x73,0x6b,0x69,0x70,0x70,0x61,0x62,0x6c,0x65,0x46,0x3a,0x0a,0x40,0x77,0x61,0x69,0x74,0x54,0x3a,0x0a,0x40,0x6c,0x69,0x73,0x74,0x5b,0x07,0x6f,0x3a,0x15,0x52,0x50,0x47,0x3a,0x3a,0x4d,0x6f,0x76,0x65,0x43,0x6f,0x6d,0x6d,0x61,0x6e,0x64,0x07,0x3a,0x0a,0x40,0x63,0x6f,0x64,0x65,0x69,0x09,0x3a,0x10,0x40,0x70,0x61,0x72,0x61,0x6d,0x65,0x74,0x65,0x72,0x73,0x5b,0x00,0x6f,0x3b,0x0a,0x07,0x3b,0x0b,0x69,0x00,0x3b,0x0c,0x5b,0x00))
   EndEventProcessing()
   0()
  404()
  0()



EVENT   15
 PAGE   1
  // condition: switch 31 is ON
  0()



EVENT   16
 PAGE   1
  ShowMessageFace("",0,0,2,1)
  ShowMessage("This is a healing pot...")
  250(bytes(0x04,0x08,0x6f,0x3a,0x0c,0x52,0x50,0x47,0x3a,0x3a,0x53,0x45,0x08,0x3a,0x0a,0x40,0x6e,0x61,0x6d,0x65,0x49,0x22,0x0a,0x48,0x65,0x61,0x6c,0x37,0x06,0x3a,0x06,0x45,0x54,0x3a,0x0b,0x40,0x70,0x69,0x74,0x63,0x68,0x69,0x69,0x3a,0x0c,0x40,0x76,0x6f,0x6c,0x75,0x6d,0x65,0x69,0x55))
  224(bytes(0x04,0x08,0x75,0x3a,0x0a,0x43,0x6f,0x6c,0x6f,0x72,0x25,0x00,0x00,0x00,0x00,0x00,0xe0,0x6f,0x40,0x00,0x00,0x00,0x00,0x00,0xe0,0x6f,0x40,0x00,0x00,0x00,0x00,0x00,0xe0,0x6f,0x40,0x00,0x00,0x00,0x00,0x00,0xe0,0x6f,0x40),30,true)
  314(0,0)
  ShowMessageFace("",0,0,2,2)
  ShowMessage("The party's HP and MP have been fully restored!")
  0()



EVENT   3
 PAGE   1
  If(12,"unlock_level < 1")
   ShowMessageFace("",0,0,2,1)
   ShowMessage("The chest is locked.")
   EndEventProcessing()
   0()
  EndIf()
  250(bytes(0x04,0x08,0x6f,0x3a,0x0c,0x52,0x50,0x47,0x3a,0x3a,0x53,0x45,0x08,0x3a,0x0a,0x40,0x6e,0x61,0x6d,0x65,0x49,0x22,0x0a,0x43,0x68,0x65,0x73,0x74,0x06,0x3a,0x06,0x45,0x54,0x3a,0x0b,0x40,0x70,0x69,0x74,0x63,0x68,0x69,0x69,0x3a,0x0c,0x40,0x76,0x6f,0x6c,0x75,0x6d,0x65,0x69,0x55))
  205(0,bytes(0x04,0x08,0x6f,0x3a,0x13,0x52,0x50,0x47,0x3a,0x3a,0x4d,0x6f,0x76,0x65,0x52,0x6f,0x75,0x74,0x65,0x09,0x3a,0x0c,0x40,0x72,0x65,0x70,0x65,0x61,0x74,0x46,0x3a,0x0f,0x40,0x73,0x6b,0x69,0x70,0x70,0x61,0x62,0x6c,0x65,0x46,0x3a,0x0a,0x40,0x77,0x61,0x69,0x74,0x54,0x3a,0x0a,0x40,0x6c,0x69,0x73,0x74,0x5b,0x0b,0x6f,0x3a,0x15,0x52,0x50,0x47,0x3a,0x3a,0x4d,0x6f,0x76,0x65,0x43,0x6f,0x6d,0x6d,0x61,0x6e,0x64,0x07,0x3a,0x0a,0x40,0x63,0x6f,0x64,0x65,0x69,0x29,0x3a,0x10,0x40,0x70,0x61,0x72,0x61,0x6d,0x65,0x74,0x65,0x72,0x73,0x5b,0x00,0x6f,0x3b,0x0a,0x07,0x3b,0x0b,0x69,0x16,0x3b,0x0c,0x5b,0x00,0x6f,0x3b,0x0a,0x07,0x3b,0x0b,0x69,0x14,0x3b,0x0c,0x5b,0x06,0x69,0x08,0x6f,0x3b,0x0a,0x07,0x3b,0x0b,0x69,0x17,0x3b,0x0c,0x5b,0x00,0x6f,0x3b,0x0a,0x07,0x3b,0x0b,0x69,0x14,0x3b,0x0c,0x5b,0x06,0x69,0x08,0x6f,0x3b,0x0a,0x07,0x3b,0x0b,0x69,0x00,0x3b,0x0c,0x5b,0x00))
  ChangeSelfSwitch("A",0)
  ChangeInventoryWeapon(125,0,0,1,false)
  0()
 PAGE   2
  // condition: self-switch A is ON
  0()



EVENT   17
 PAGE   1
  250(bytes(0x04,0x08,0x6f,0x3a,0x0c,0x52,0x50,0x47,0x3a,0x3a,0x53,0x45,0x08,0x3a,0x0a,0x40,0x6e,0x61,0x6d,0x65,0x49,0x22,0x0a,0x49,0x74,0x65,0x6d,0x31,0x06,0x3a,0x06,0x45,0x54,0x3a,0x0b,0x40,0x70,0x69,0x74,0x63,0x68,0x69,0x69,0x3a,0x0c,0x40,0x76,0x6f,0x6c,0x75,0x6d,0x65,0x69,0x55))
  ChangeSelfSwitch("A",0)
  ChangeInventory_Item(9,0,0,1)
  0()
 PAGE   2
  // condition: self-switch A is ON
  0()



EVENT   18
 PAGE   1
  // condition: variable 1032 >= 5
  ShowMessageFace("shirom_fc2",1,0,2,1)
  ShowMessage("\\n<La Croix>I have fought Adramelech several times already. Each time she comes back, her power increases. She's the highest class of apoptosis.")
  ShowMessageFace("shirom_fc2",1,0,2,2)
  ShowMessage("\\n<La Croix>You stand no chance against her. I will hold her back.")
  ShowMessageFace("shirom_fc2",1,0,2,3)
  ShowMessage("\\n<La Croix>Now, hurry and escape through the magic circle in the back.")
  If(4,134,0)
   If(2,"A",1)
    ChangeSelfSwitch("A",0)
    ShowMessageFace("chrom_fc2",7,0,2,4)
    ShowMessage("\\n<Chrome>Sis... sister? It's really you, isn't it?")
    ShowMessageFace("shirom_fc2",1,0,2,5)
    ShowMessage("\\n<La Croix>......")
    ShowMessageFace("shirom_fc2",1,0,2,6)
    ShowMessage("\\n<La Croix>...No. I'm a different person from your sister.")
    ShowMessageFace("shirom_fc2",1,0,2,7)
    ShowMessage("\\n<La Croix>I also had a little sister similar to you... but I lost her many decades ago.")
    ShowMessageFace("shirom_fc2",1,0,2,8)
    ShowMessage("\\n<La Croix>And I, too, am a similar yet different person from your sister... We are inhabitants of different worlds, and thus aren't related by blood.")
    ShowMessageFace("chrom_fc2",7,0,2,9)
    ShowMessage("\\n<Chrome>B-but...!")
    ShowMessageFace("shirom_fc2",1,0,2,10)
    ShowMessage("\\n<La Croix>Your sister has probably started walking down the wrong path. You are the only one who can save her.")
    ShowMessageFace("chrom_fc2",5,0,2,11)
    ShowMessage("\\n<Chrome>...Eh?")
    ShowMessageFace("shirom_fc2",1,0,2,12)
    ShowMessage("\\n<La Croix>Go, Chrome. Save your sister...")
    ShowMessageFace("chrom_fc2",7,0,2,13)
    ShowMessage("\\n<Chrome>......")
    0()
   EndIf()
   0()
  EndIf()
  0()



EVENT   19
 PAGE   1
  250(bytes(0x04,0x08,0x6f,0x3a,0x0c,0x52,0x50,0x47,0x3a,0x3a,0x53,0x45,0x08,0x3a,0x0a,0x40,0x6e,0x61,0x6d,0x65,0x49,0x22,0x0a,0x49,0x74,0x65,0x6d,0x31,0x06,0x3a,0x06,0x45,0x54,0x3a,0x0b,0x40,0x70,0x69,0x74,0x63,0x68,0x69,0x69,0x3a,0x0c,0x40,0x76,0x6f,0x6c,0x75,0x6d,0x65,0x69,0x55))
  ChangeSelfSwitch("A",0)
  ChangeInventory_Item(37,0,0,1)
  0()
 PAGE   2
  // condition: self-switch A is ON
  0()



EVENT   20
 PAGE   1
  ShowMessageFace("",0,0,2,1)
  ShowMessage("A book of job-change lies open here...")
  RunCommonEvent(113)
  0()
